%!PS-Adobe-3.0 EPSF-3.0
%%BoundingBox: 0 0 45 32
20.000000 27.000000 moveto 21.000000 27.000000 lineto 22.000000 27.000000 lineto 23.000000 27.000000 lineto 24.000000 27.000000 lineto 25.000000 27.000000 lineto 25.000000 26.000000 lineto 26.000000 26.000000 lineto 26.000000 25.000000 lineto 27.000000 25.000000 lineto 27.000000 24.000000 lineto 28.000000 24.000000 lineto 28.000000 23.000000 lineto 29.000000 23.000000 lineto 29.000000 22.000000 lineto 30.000000 22.000000 lineto 30.000000 21.000000 lineto 31.000000 21.000000 lineto 31.000000 20.000000 lineto 32.000000 20.000000 lineto 32.000000 19.000000 lineto 33.000000 19.000000 lineto 33.000000 18.000000 lineto 34.000000 18.000000 lineto 34.000000 17.000000 lineto 35.000000 17.000000 lineto 35.000000 16.000000 lineto 35.000000 15.000000 lineto 34.000000 15.000000 lineto 34.000000 14.000000 lineto 33.000000 14.000000 lineto 33.000000 13.000000 lineto 32.000000 13.000000 lineto 32.000000 12.000000 lineto 31.000000 12.000000 lineto 31.000000 11.000000 lineto 30.000000 11.000000 lineto 30.000000 10.000000 lineto 29.000000 10.000000 lineto 29.000000 9.000000 lineto 28.000000 9.000000 lineto 28.000000 8.000000 lineto 27.000000 8.000000 lineto 27.000000 7.000000 lineto 26.000000 7.000000 lineto 26.000000 6.000000 lineto 25.000000 6.000000 lineto 24.000000 6.000000 lineto 23.000000 6.000000 lineto 22.000000 6.000000 lineto 21.000000 6.000000 lineto 20.000000 6.000000 lineto 19.000000 6.000000 lineto 19.000000 7.000000 lineto 18.000000 7.000000 lineto 18.000000 8.000000 lineto 18.000000 9.000000 lineto 19.000000 9.000000 lineto 19.000000 10.000000 lineto 20.000000 10.000000 lineto 20.000000 11.000000 lineto 21.000000 11.000000 lineto 21.000000 12.000000 lineto 21.000000 13.000000 lineto 20.000000 13.000000 lineto 20.000000 14.000000 lineto 19.000000 14.000000 lineto 19.000000 15.000000 lineto 18.000000 15.000000 lineto 18.000000 14.000000 lineto 17.000000 14.000000 lineto 16.000000 14.000000 lineto 15.000000 14.000000 lineto 14.000000 14.000000 lineto 13.000000 14.000000 lineto 12.000000 14.000000 lineto 11.000000 14.000000 lineto 11.000000 15.000000 lineto 10.000000 15.000000 lineto 10.000000 16.000000 lineto 10.000000 17.000000 lineto 11.000000 17.000000 lineto 11.000000 18.000000 lineto 12.000000 18.000000 lineto 12.000000 19.000000 lineto 13.000000 19.000000 lineto 13.000000 20.000000 lineto 14.000000 20.000000 lineto 14.000000 21.000000 lineto 15.000000 21.000000 lineto 15.000000 22.000000 lineto 16.000000 22.000000 lineto 16.000000 23.000000 lineto 17.000000 23.000000 lineto 17.000000 24.000000 lineto 18.000000 24.000000 lineto 18.000000 25.000000 lineto 19.000000 25.000000 lineto 19.000000 26.000000 lineto 20.000000 26.000000 lineto 20.000000 27.000000 lineto 
0.05 setlinewidth stroke
newpath 20.000000 27.000000 0.2 0 360 arc fill closepath newpath 21.000000 27.000000 0.2 0 360 arc fill closepath newpath 22.000000 27.000000 0.2 0 360 arc fill closepath newpath 23.000000 27.000000 0.2 0 360 arc fill closepath newpath 24.000000 27.000000 0.2 0 360 arc fill closepath newpath 25.000000 27.000000 0.2 0 360 arc fill closepath newpath 25.000000 26.000000 0.2 0 360 arc fill closepath newpath 26.000000 26.000000 0.2 0 360 arc fill closepath newpath 26.000000 25.000000 0.2 0 360 arc fill closepath newpath 27.000000 25.000000 0.2 0 360 arc fill closepath newpath 27.000000 24.000000 0.2 0 360 arc fill closepath newpath 28.000000 24.000000 0.2 0 360 arc fill closepath newpath 28.000000 23.000000 0.2 0 360 arc fill closepath newpath 29.000000 23.000000 0.2 0 360 arc fill closepath newpath 29.000000 22.000000 0.2 0 360 arc fill closepath newpath 30.000000 22.000000 0.2 0 360 arc fill closepath newpath 30.000000 21.000000 0.2 0 360 arc fill closepath newpath 31.000000 21.000000 0.2 0 360 arc fill closepath newpath 31.000000 20.000000 0.2 0 360 arc fill closepath newpath 32.000000 20.000000 0.2 0 360 arc fill closepath newpath 32.000000 19.000000 0.2 0 360 arc fill closepath newpath 33.000000 19.000000 0.2 0 360 arc fill closepath newpath 33.000000 18.000000 0.2 0 360 arc fill closepath newpath 34.000000 18.000000 0.2 0 360 arc fill closepath newpath 34.000000 17.000000 0.2 0 360 arc fill closepath newpath 35.000000 17.000000 0.2 0 360 arc fill closepath newpath 35.000000 16.000000 0.2 0 360 arc fill closepath newpath 35.000000 15.000000 0.2 0 360 arc fill closepath newpath 34.000000 15.000000 0.2 0 360 arc fill closepath newpath 34.000000 14.000000 0.2 0 360 arc fill closepath newpath 33.000000 14.000000 0.2 0 360 arc fill closepath newpath 33.000000 13.000000 0.2 0 360 arc fill closepath newpath 32.000000 13.000000 0.2 0 360 arc fill closepath newpath 32.000000 12.000000 0.2 0 360 arc fill closepath newpath 31.000000 12.000000 0.2 0 360 arc fill closepath newpath 31.000000 11.000000 0.2 0 360 arc fill closepath newpath 30.000000 11.000000 0.2 0 360 arc fill closepath newpath 30.000000 10.000000 0.2 0 360 arc fill closepath newpath 29.000000 10.000000 0.2 0 360 arc fill closepath newpath 29.000000 9.000000 0.2 0 360 arc fill closepath newpath 28.000000 9.000000 0.2 0 360 arc fill closepath newpath 28.000000 8.000000 0.2 0 360 arc fill closepath newpath 27.000000 8.000000 0.2 0 360 arc fill closepath newpath 27.000000 7.000000 0.2 0 360 arc fill closepath newpath 26.000000 7.000000 0.2 0 360 arc fill closepath newpath 26.000000 6.000000 0.2 0 360 arc fill closepath newpath 25.000000 6.000000 0.2 0 360 arc fill closepath newpath 24.000000 6.000000 0.2 0 360 arc fill closepath newpath 23.000000 6.000000 0.2 0 360 arc fill closepath newpath 22.000000 6.000000 0.2 0 360 arc fill closepath newpath 21.000000 6.000000 0.2 0 360 arc fill closepath newpath 20.000000 6.000000 0.2 0 360 arc fill closepath newpath 19.000000 6.000000 0.2 0 360 arc fill closepath newpath 19.000000 7.000000 0.2 0 360 arc fill closepath newpath 18.000000 7.000000 0.2 0 360 arc fill closepath newpath 18.000000 8.000000 0.2 0 360 arc fill closepath newpath 18.000000 9.000000 0.2 0 360 arc fill closepath newpath 19.000000 9.000000 0.2 0 360 arc fill closepath newpath 19.000000 10.000000 0.2 0 360 arc fill closepath newpath 20.000000 10.000000 0.2 0 360 arc fill closepath newpath 20.000000 11.000000 0.2 0 360 arc fill closepath newpath 21.000000 11.000000 0.2 0 360 arc fill closepath newpath 21.000000 12.000000 0.2 0 360 arc fill closepath newpath 21.000000 13.000000 0.2 0 360 arc fill closepath newpath 20.000000 13.000000 0.2 0 360 arc fill closepath newpath 20.000000 14.000000 0.2 0 360 arc fill closepath newpath 19.000000 14.000000 0.2 0 360 arc fill closepath newpath 19.000000 15.000000 0.2 0 360 arc fill closepath newpath 18.000000 15.000000 0.2 0 360 arc fill closepath newpath 18.000000 14.000000 0.2 0 360 arc fill closepath newpath 17.000000 14.000000 0.2 0 360 arc fill closepath newpath 16.000000 14.000000 0.2 0 360 arc fill closepath newpath 15.000000 14.000000 0.2 0 360 arc fill closepath newpath 14.000000 14.000000 0.2 0 360 arc fill closepath newpath 13.000000 14.000000 0.2 0 360 arc fill closepath newpath 12.000000 14.000000 0.2 0 360 arc fill closepath newpath 11.000000 14.000000 0.2 0 360 arc fill closepath newpath 11.000000 15.000000 0.2 0 360 arc fill closepath newpath 10.000000 15.000000 0.2 0 360 arc fill closepath newpath 10.000000 16.000000 0.2 0 360 arc fill closepath newpath 10.000000 17.000000 0.2 0 360 arc fill closepath newpath 11.000000 17.000000 0.2 0 360 arc fill closepath newpath 11.000000 18.000000 0.2 0 360 arc fill closepath newpath 12.000000 18.000000 0.2 0 360 arc fill closepath newpath 12.000000 19.000000 0.2 0 360 arc fill closepath newpath 13.000000 19.000000 0.2 0 360 arc fill closepath newpath 13.000000 20.000000 0.2 0 360 arc fill closepath newpath 14.000000 20.000000 0.2 0 360 arc fill closepath newpath 14.000000 21.000000 0.2 0 360 arc fill closepath newpath 15.000000 21.000000 0.2 0 360 arc fill closepath newpath 15.000000 22.000000 0.2 0 360 arc fill closepath newpath 16.000000 22.000000 0.2 0 360 arc fill closepath newpath 16.000000 23.000000 0.2 0 360 arc fill closepath newpath 17.000000 23.000000 0.2 0 360 arc fill closepath newpath 17.000000 24.000000 0.2 0 360 arc fill closepath newpath 18.000000 24.000000 0.2 0 360 arc fill closepath newpath 18.000000 25.000000 0.2 0 360 arc fill closepath newpath 19.000000 25.000000 0.2 0 360 arc fill closepath newpath 19.000000 26.000000 0.2 0 360 arc fill closepath newpath 20.000000 26.000000 0.2 0 360 arc fill closepath newpath 20.000000 27.000000 0.2 0 360 arc fill closepath showpage
