%!PS-Adobe-3.0 EPSF-3.0
%%BoundingBox: 0 0 416 768
341.000000 759.000000 moveto 341.000000 759.000000 lineto 347.000000 759.000000 lineto 349.000000 756.000000 lineto 345.000000 740.000000 lineto 342.000000 734.000000 lineto 340.000000 733.000000 lineto 338.000000 727.000000 lineto 336.000000 726.000000 lineto 334.000000 720.000000 lineto 332.000000 719.000000 lineto 331.000000 715.000000 lineto 329.000000 714.000000 lineto 328.000000 710.000000 lineto 320.000000 700.000000 lineto 320.000000 698.000000 lineto 317.000000 696.000000 lineto 317.000000 694.000000 lineto 308.000000 684.000000 lineto 308.000000 682.000000 lineto 304.000000 679.000000 lineto 304.000000 677.000000 lineto 297.000000 671.000000 lineto 297.000000 669.000000 lineto 278.000000 651.000000 lineto 276.000000 651.000000 lineto 274.000000 648.000000 lineto 272.000000 648.000000 lineto 265.000000 642.000000 lineto 242.000000 630.000000 lineto 239.000000 630.000000 lineto 215.000000 618.000000 lineto 212.000000 618.000000 lineto 206.000000 615.000000 lineto 205.000000 613.000000 lineto 233.000000 622.000000 lineto 271.000000 628.000000 lineto 359.000000 632.000000 lineto 404.000000 641.000000 lineto 409.000000 640.000000 lineto 410.000000 635.000000 lineto 400.000000 624.000000 lineto 398.000000 624.000000 lineto 386.000000 613.000000 lineto 384.000000 613.000000 lineto 382.000000 610.000000 lineto 380.000000 610.000000 lineto 378.000000 607.000000 lineto 376.000000 607.000000 lineto 363.000000 597.000000 lineto 341.000000 586.000000 lineto 325.000000 582.000000 lineto 322.000000 580.000000 lineto 298.000000 576.000000 lineto 260.000000 576.000000 lineto 230.000000 582.000000 lineto 209.000000 583.000000 lineto 214.000000 575.000000 lineto 216.000000 567.000000 lineto 222.000000 566.000000 lineto 224.000000 563.000000 lineto 218.000000 533.000000 lineto 215.000000 524.000000 lineto 211.000000 516.000000 lineto 209.000000 515.000000 lineto 209.000000 512.000000 lineto 211.000000 512.000000 lineto 213.000000 509.000000 lineto 217.000000 507.000000 lineto 224.000000 493.000000 lineto 236.000000 488.000000 lineto 237.000000 486.000000 lineto 241.000000 485.000000 lineto 242.000000 483.000000 lineto 244.000000 483.000000 lineto 245.000000 481.000000 lineto 247.000000 481.000000 lineto 256.000000 474.000000 lineto 255.000000 473.000000 lineto 245.000000 481.000000 lineto 225.000000 491.000000 lineto 226.000000 479.000000 lineto 228.000000 479.000000 lineto 244.000000 463.000000 lineto 244.000000 461.000000 lineto 249.000000 456.000000 lineto 231.000000 474.000000 lineto 229.000000 474.000000 lineto 226.000000 477.000000 lineto 225.000000 471.000000 lineto 223.000000 471.000000 lineto 223.000000 474.000000 lineto 221.000000 474.000000 lineto 221.000000 470.000000 lineto 230.000000 460.000000 lineto 230.000000 458.000000 lineto 232.000000 457.000000 lineto 232.000000 455.000000 lineto 234.000000 454.000000 lineto 238.000000 447.000000 lineto 235.000000 449.000000 lineto 235.000000 451.000000 lineto 232.000000 453.000000 lineto 229.000000 459.000000 lineto 225.000000 462.000000 lineto 222.000000 468.000000 lineto 220.000000 468.000000 lineto 217.000000 459.000000 lineto 210.000000 452.000000 lineto 209.000000 458.000000 lineto 204.000000 453.000000 lineto 194.000000 449.000000 lineto 190.000000 449.000000 lineto 193.000000 453.000000 lineto 182.000000 450.000000 lineto 151.000000 450.000000 lineto 145.000000 445.000000 lineto 157.000000 442.000000 lineto 167.000000 437.000000 lineto 168.000000 435.000000 lineto 183.000000 427.000000 lineto 184.000000 425.000000 lineto 188.000000 424.000000 lineto 189.000000 422.000000 lineto 221.000000 407.000000 lineto 232.000000 398.000000 lineto 234.000000 393.000000 lineto 234.000000 385.000000 lineto 231.000000 374.000000 lineto 219.000000 348.000000 lineto 217.000000 347.000000 lineto 215.000000 341.000000 lineto 209.000000 334.000000 lineto 208.000000 330.000000 lineto 231.000000 329.000000 lineto 235.000000 337.000000 lineto 244.000000 347.000000 lineto 246.000000 347.000000 lineto 253.000000 354.000000 lineto 259.000000 356.000000 lineto 258.000000 353.000000 lineto 261.000000 346.000000 lineto 261.000000 342.000000 lineto 271.000000 322.000000 lineto 271.000000 319.000000 lineto 276.000000 308.000000 lineto 278.000000 300.000000 lineto 278.000000 283.000000 lineto 282.000000 287.000000 lineto 280.000000 275.000000 lineto 271.000000 259.000000 lineto 257.000000 247.000000 lineto 246.000000 242.000000 lineto 240.000000 241.000000 lineto 239.000000 233.000000 lineto 236.000000 227.000000 lineto 234.000000 217.000000 lineto 231.000000 212.000000 lineto 219.000000 165.000000 lineto 215.000000 136.000000 lineto 215.000000 107.000000 lineto 225.000000 99.000000 lineto 242.000000 94.000000 lineto 266.000000 93.000000 lineto 283.000000 95.000000 lineto 296.000000 93.000000 lineto 306.000000 89.000000 lineto 323.000000 74.000000 lineto 323.000000 72.000000 lineto 329.000000 65.000000 lineto 334.000000 50.000000 lineto 334.000000 38.000000 lineto 327.000000 29.000000 lineto 322.000000 27.000000 lineto 320.000000 22.000000 lineto 315.000000 17.000000 lineto 307.000000 13.000000 lineto 298.000000 11.000000 lineto 275.000000 12.000000 lineto 270.000000 9.000000 lineto 256.000000 9.000000 lineto 229.000000 18.000000 lineto 228.000000 20.000000 lineto 222.000000 22.000000 lineto 218.000000 26.000000 lineto 211.000000 29.000000 lineto 209.000000 32.000000 lineto 207.000000 32.000000 lineto 201.000000 38.000000 lineto 199.000000 38.000000 lineto 195.000000 43.000000 lineto 193.000000 43.000000 lineto 179.000000 57.000000 lineto 179.000000 59.000000 lineto 175.000000 62.000000 lineto 175.000000 64.000000 lineto 172.000000 66.000000 lineto 169.000000 73.000000 lineto 167.000000 74.000000 lineto 164.000000 81.000000 lineto 165.000000 94.000000 lineto 139.000000 82.000000 lineto 100.000000 69.000000 lineto 81.000000 65.000000 lineto 58.000000 65.000000 lineto 49.000000 68.000000 lineto 45.000000 72.000000 lineto 31.000000 73.000000 lineto 20.000000 78.000000 lineto 15.000000 83.000000 lineto 11.000000 91.000000 lineto 11.000000 94.000000 lineto 5.000000 101.000000 lineto 4.000000 113.000000 lineto 12.000000 129.000000 lineto 26.000000 141.000000 lineto 40.000000 147.000000 lineto 64.000000 148.000000 lineto 77.000000 144.000000 lineto 89.000000 138.000000 lineto 90.000000 136.000000 lineto 96.000000 134.000000 lineto 111.000000 131.000000 lineto 122.000000 131.000000 lineto 122.000000 133.000000 lineto 119.000000 136.000000 lineto 117.000000 136.000000 lineto 112.000000 142.000000 lineto 110.000000 142.000000 lineto 96.000000 155.000000 lineto 96.000000 157.000000 lineto 93.000000 159.000000 lineto 89.000000 167.000000 lineto 87.000000 176.000000 lineto 89.000000 184.000000 lineto 94.000000 194.000000 lineto 114.000000 220.000000 lineto 115.000000 224.000000 lineto 122.000000 233.000000 lineto 135.000000 258.000000 lineto 135.000000 260.000000 lineto 132.000000 262.000000 lineto 130.000000 266.000000 lineto 127.000000 262.000000 lineto 124.000000 253.000000 lineto 118.000000 248.000000 lineto 103.000000 243.000000 lineto 87.000000 243.000000 lineto 81.000000 237.000000 lineto 72.000000 235.000000 lineto 72.000000 226.000000 lineto 84.000000 226.000000 lineto 87.000000 223.000000 lineto 91.000000 213.000000 lineto 91.000000 200.000000 lineto 88.000000 193.000000 lineto 85.000000 191.000000 lineto 79.000000 191.000000 lineto 81.000000 180.000000 lineto 81.000000 159.000000 lineto 79.000000 152.000000 lineto 76.000000 148.000000 lineto 70.000000 148.000000 lineto 64.000000 156.000000 lineto 61.000000 171.000000 lineto 62.000000 182.000000 lineto 54.000000 177.000000 lineto 48.000000 177.000000 lineto 44.000000 182.000000 lineto 44.000000 193.000000 lineto 50.000000 207.000000 lineto 45.000000 207.000000 lineto 43.000000 209.000000 lineto 43.000000 216.000000 lineto 46.000000 222.000000 lineto 51.000000 227.000000 lineto 61.000000 227.000000 lineto 62.000000 231.000000 lineto 62.000000 239.000000 lineto 53.000000 248.000000 lineto 49.000000 257.000000 lineto 50.000000 265.000000 lineto 56.000000 270.000000 lineto 55.000000 283.000000 lineto 58.000000 287.000000 lineto 68.000000 291.000000 lineto 74.000000 297.000000 lineto 80.000000 299.000000 lineto 85.000000 305.000000 lineto 91.000000 306.000000 lineto 91.000000 309.000000 lineto 82.000000 310.000000 lineto 62.000000 316.000000 lineto 45.000000 325.000000 lineto 43.000000 329.000000 lineto 40.000000 331.000000 lineto 37.000000 339.000000 lineto 38.000000 354.000000 lineto 45.000000 374.000000 lineto 50.000000 384.000000 lineto 52.000000 385.000000 lineto 54.000000 391.000000 lineto 56.000000 392.000000 lineto 57.000000 396.000000 lineto 59.000000 397.000000 lineto 60.000000 401.000000 lineto 62.000000 402.000000 lineto 68.000000 413.000000 lineto 71.000000 415.000000 lineto 71.000000 417.000000 lineto 75.000000 420.000000 lineto 75.000000 422.000000 lineto 83.000000 429.000000 lineto 83.000000 431.000000 lineto 87.000000 433.000000 lineto 95.000000 441.000000 lineto 103.000000 444.000000 lineto 104.000000 454.000000 lineto 102.000000 476.000000 lineto 99.000000 479.000000 lineto 93.000000 491.000000 lineto 91.000000 492.000000 lineto 90.000000 496.000000 lineto 88.000000 497.000000 lineto 83.000000 508.000000 lineto 82.000000 514.000000 lineto 80.000000 515.000000 lineto 78.000000 508.000000 lineto 76.000000 511.000000 lineto 75.000000 530.000000 lineto 77.000000 537.000000 lineto 71.000000 531.000000 lineto 70.000000 536.000000 lineto 76.000000 547.000000 lineto 85.000000 554.000000 lineto 80.000000 554.000000 lineto 84.000000 558.000000 lineto 83.000000 560.000000 lineto 73.000000 562.000000 lineto 71.000000 564.000000 lineto 87.000000 560.000000 lineto 88.000000 562.000000 lineto 96.000000 566.000000 lineto 106.000000 569.000000 lineto 99.000000 573.000000 lineto 98.000000 575.000000 lineto 94.000000 576.000000 lineto 93.000000 578.000000 lineto 85.000000 581.000000 lineto 84.000000 583.000000 lineto 74.000000 588.000000 lineto 71.000000 588.000000 lineto 65.000000 592.000000 lineto 59.000000 593.000000 lineto 57.000000 595.000000 lineto 78.000000 588.000000 lineto 86.000000 584.000000 lineto 87.000000 582.000000 lineto 95.000000 579.000000 lineto 96.000000 577.000000 lineto 100.000000 576.000000 lineto 109.000000 569.000000 lineto 119.000000 570.000000 lineto 125.000000 577.000000 lineto 113.000000 588.000000 lineto 111.000000 588.000000 lineto 107.000000 593.000000 lineto 114.000000 587.000000 lineto 116.000000 587.000000 lineto 119.000000 583.000000 lineto 121.000000 583.000000 lineto 125.000000 578.000000 lineto 127.000000 578.000000 lineto 152.000000 607.000000 lineto 164.000000 611.000000 lineto 168.000000 629.000000 lineto 178.000000 651.000000 lineto 185.000000 659.000000 lineto 185.000000 661.000000 lineto 194.000000 670.000000 lineto 196.000000 670.000000 lineto 199.000000 674.000000 lineto 201.000000 674.000000 lineto 203.000000 677.000000 lineto 205.000000 677.000000 lineto 212.000000 683.000000 lineto 228.000000 691.000000 lineto 229.000000 693.000000 lineto 235.000000 695.000000 lineto 236.000000 697.000000 lineto 252.000000 705.000000 lineto 253.000000 707.000000 lineto 259.000000 709.000000 lineto 260.000000 711.000000 lineto 271.000000 716.000000 lineto 272.000000 718.000000 lineto 278.000000 720.000000 lineto 279.000000 722.000000 lineto 285.000000 724.000000 lineto 286.000000 726.000000 lineto 292.000000 728.000000 lineto 293.000000 730.000000 lineto 302.000000 734.000000 lineto 306.000000 738.000000 lineto 310.000000 739.000000 lineto 311.000000 741.000000 lineto 315.000000 742.000000 lineto 316.000000 744.000000 lineto 320.000000 745.000000 lineto 321.000000 747.000000 lineto 325.000000 748.000000 lineto 326.000000 750.000000 lineto 330.000000 751.000000 lineto 331.000000 753.000000 lineto 333.000000 753.000000 lineto 334.000000 755.000000 lineto 341.000000 759.000000 lineto 321.000000 724.000000 moveto 321.000000 724.000000 lineto 322.000000 725.000000 lineto 321.000000 724.000000 lineto 320.000000 722.000000 moveto 320.000000 722.000000 lineto 321.000000 724.000000 lineto 312.000000 719.000000 lineto 311.000000 717.000000 lineto 309.000000 717.000000 lineto 308.000000 715.000000 lineto 304.000000 714.000000 lineto 303.000000 712.000000 lineto 299.000000 711.000000 lineto 298.000000 709.000000 lineto 286.000000 704.000000 lineto 285.000000 702.000000 lineto 251.000000 685.000000 lineto 250.000000 683.000000 lineto 248.000000 683.000000 lineto 247.000000 681.000000 lineto 233.000000 673.000000 lineto 231.000000 670.000000 lineto 229.000000 670.000000 lineto 227.000000 667.000000 lineto 225.000000 667.000000 lineto 200.000000 644.000000 lineto 200.000000 642.000000 lineto 196.000000 639.000000 lineto 196.000000 637.000000 lineto 190.000000 630.000000 lineto 184.000000 616.000000 lineto 193.000000 619.000000 lineto 199.000000 623.000000 lineto 202.000000 623.000000 lineto 206.000000 626.000000 lineto 209.000000 626.000000 lineto 215.000000 630.000000 lineto 218.000000 630.000000 lineto 222.000000 633.000000 lineto 225.000000 633.000000 lineto 231.000000 637.000000 lineto 234.000000 637.000000 lineto 252.000000 646.000000 lineto 253.000000 648.000000 lineto 263.000000 653.000000 lineto 265.000000 656.000000 lineto 267.000000 656.000000 lineto 269.000000 659.000000 lineto 271.000000 659.000000 lineto 293.000000 681.000000 lineto 293.000000 683.000000 lineto 302.000000 693.000000 lineto 302.000000 695.000000 lineto 304.000000 696.000000 lineto 304.000000 698.000000 lineto 306.000000 699.000000 lineto 306.000000 701.000000 lineto 308.000000 702.000000 lineto 308.000000 704.000000 lineto 310.000000 705.000000 lineto 310.000000 707.000000 lineto 312.000000 708.000000 lineto 320.000000 722.000000 lineto 374.000000 618.000000 moveto 374.000000 618.000000 lineto 375.000000 619.000000 lineto 345.000000 615.000000 lineto 294.000000 614.000000 lineto 259.000000 611.000000 lineto 229.000000 604.000000 lineto 228.000000 602.000000 lineto 232.000000 601.000000 lineto 235.000000 597.000000 lineto 217.000000 599.000000 lineto 214.000000 596.000000 lineto 217.000000 593.000000 lineto 264.000000 585.000000 lineto 304.000000 585.000000 lineto 338.000000 595.000000 lineto 356.000000 604.000000 lineto 360.000000 608.000000 lineto 364.000000 609.000000 lineto 374.000000 618.000000 lineto 183.000000 615.000000 moveto 183.000000 615.000000 lineto 184.000000 616.000000 lineto 183.000000 615.000000 lineto 105.000000 594.000000 moveto 105.000000 594.000000 lineto 106.000000 593.000000 lineto 105.000000 594.000000 lineto 113.000000 567.000000 moveto 113.000000 567.000000 lineto 120.000000 563.000000 lineto 125.000000 558.000000 lineto 127.000000 558.000000 lineto 133.000000 552.000000 lineto 135.000000 552.000000 lineto 138.000000 548.000000 lineto 140.000000 548.000000 lineto 143.000000 544.000000 lineto 150.000000 540.000000 lineto 154.000000 535.000000 lineto 156.000000 535.000000 lineto 161.000000 529.000000 lineto 163.000000 529.000000 lineto 169.000000 522.000000 lineto 171.000000 522.000000 lineto 175.000000 518.000000 lineto 175.000000 520.000000 lineto 172.000000 522.000000 lineto 172.000000 524.000000 lineto 164.000000 533.000000 lineto 164.000000 535.000000 lineto 140.000000 562.000000 lineto 127.000000 567.000000 lineto 113.000000 567.000000 lineto 192.000000 566.000000 moveto 192.000000 566.000000 lineto 192.000000 587.000000 lineto 189.000000 591.000000 lineto 185.000000 592.000000 lineto 182.000000 589.000000 lineto 180.000000 589.000000 lineto 176.000000 582.000000 lineto 174.000000 581.000000 lineto 169.000000 569.000000 lineto 167.000000 559.000000 lineto 166.000000 547.000000 lineto 169.000000 552.000000 lineto 174.000000 551.000000 lineto 174.000000 540.000000 lineto 170.000000 534.000000 lineto 175.000000 530.000000 lineto 176.000000 527.000000 lineto 178.000000 527.000000 lineto 179.000000 531.000000 lineto 181.000000 532.000000 lineto 182.000000 536.000000 lineto 186.000000 541.000000 lineto 192.000000 559.000000 lineto 192.000000 566.000000 lineto 94.000000 560.000000 moveto 94.000000 560.000000 lineto 100.000000 560.000000 lineto 99.000000 558.000000 lineto 96.000000 557.000000 lineto 109.000000 551.000000 lineto 112.000000 551.000000 lineto 140.000000 537.000000 lineto 141.000000 535.000000 lineto 145.000000 534.000000 lineto 146.000000 532.000000 lineto 150.000000 531.000000 lineto 151.000000 529.000000 lineto 155.000000 528.000000 lineto 156.000000 526.000000 lineto 158.000000 526.000000 lineto 159.000000 524.000000 lineto 163.000000 523.000000 lineto 171.000000 516.000000 lineto 173.000000 516.000000 lineto 168.000000 522.000000 lineto 166.000000 522.000000 lineto 148.000000 539.000000 lineto 146.000000 539.000000 lineto 138.000000 547.000000 lineto 136.000000 547.000000 lineto 134.000000 550.000000 lineto 132.000000 550.000000 lineto 130.000000 553.000000 lineto 128.000000 553.000000 lineto 126.000000 556.000000 lineto 121.000000 558.000000 lineto 119.000000 561.000000 lineto 117.000000 561.000000 lineto 110.000000 567.000000 lineto 98.000000 565.000000 lineto 96.000000 563.000000 lineto 91.000000 562.000000 lineto 88.000000 559.000000 lineto 94.000000 560.000000 lineto 85.000000 557.000000 moveto 85.000000 557.000000 lineto 87.000000 558.000000 lineto 85.000000 557.000000 lineto 150.000000 553.000000 moveto 150.000000 553.000000 lineto 151.000000 554.000000 lineto 150.000000 553.000000 lineto 151.000000 552.000000 moveto 151.000000 552.000000 lineto 152.000000 553.000000 lineto 151.000000 552.000000 lineto 152.000000 551.000000 moveto 152.000000 551.000000 lineto 153.000000 552.000000 lineto 152.000000 551.000000 lineto 153.000000 550.000000 moveto 153.000000 550.000000 lineto 154.000000 551.000000 lineto 153.000000 550.000000 lineto 154.000000 549.000000 moveto 154.000000 549.000000 lineto 155.000000 550.000000 lineto 154.000000 549.000000 lineto 155.000000 548.000000 moveto 155.000000 548.000000 lineto 156.000000 549.000000 lineto 155.000000 548.000000 lineto 84.000000 547.000000 moveto 84.000000 547.000000 lineto 86.000000 546.000000 lineto 80.000000 540.000000 lineto 77.000000 531.000000 lineto 77.000000 513.000000 lineto 80.000000 519.000000 lineto 79.000000 525.000000 lineto 80.000000 528.000000 lineto 82.000000 528.000000 lineto 82.000000 517.000000 lineto 86.000000 505.000000 lineto 99.000000 483.000000 lineto 99.000000 493.000000 lineto 101.000000 492.000000 lineto 104.000000 480.000000 lineto 104.000000 470.000000 lineto 108.000000 460.000000 lineto 114.000000 453.000000 lineto 121.000000 450.000000 lineto 138.000000 450.000000 lineto 147.000000 454.000000 lineto 164.000000 457.000000 lineto 163.000000 455.000000 lineto 155.000000 454.000000 lineto 150.000000 451.000000 lineto 174.000000 451.000000 lineto 188.000000 453.000000 lineto 196.000000 456.000000 lineto 198.000000 459.000000 lineto 201.000000 459.000000 lineto 195.000000 453.000000 lineto 198.000000 452.000000 lineto 207.000000 457.000000 lineto 214.000000 466.000000 lineto 214.000000 468.000000 lineto 216.000000 469.000000 lineto 212.000000 457.000000 lineto 215.000000 459.000000 lineto 219.000000 471.000000 lineto 204.000000 489.000000 lineto 203.000000 484.000000 lineto 207.000000 474.000000 lineto 204.000000 476.000000 lineto 203.000000 480.000000 lineto 195.000000 480.000000 lineto 179.000000 475.000000 lineto 169.000000 469.000000 lineto 166.000000 469.000000 lineto 158.000000 464.000000 lineto 155.000000 464.000000 lineto 145.000000 459.000000 lineto 125.000000 458.000000 lineto 120.000000 460.000000 lineto 116.000000 464.000000 lineto 113.000000 471.000000 lineto 113.000000 490.000000 lineto 118.000000 506.000000 lineto 128.000000 525.000000 lineto 117.000000 527.000000 lineto 135.000000 527.000000 lineto 164.000000 517.000000 lineto 167.000000 518.000000 lineto 157.000000 523.000000 lineto 153.000000 527.000000 lineto 147.000000 529.000000 lineto 146.000000 531.000000 lineto 142.000000 532.000000 lineto 141.000000 534.000000 lineto 94.000000 556.000000 lineto 90.000000 556.000000 lineto 87.000000 553.000000 lineto 85.000000 553.000000 lineto 76.000000 544.000000 lineto 73.000000 537.000000 lineto 76.000000 538.000000 lineto 84.000000 547.000000 lineto 156.000000 547.000000 moveto 156.000000 547.000000 lineto 157.000000 548.000000 lineto 156.000000 547.000000 lineto 157.000000 545.000000 moveto 157.000000 545.000000 lineto 162.000000 541.000000 lineto 162.000000 543.000000 lineto 158.000000 547.000000 lineto 157.000000 545.000000 lineto 217.000000 541.000000 moveto 217.000000 541.000000 lineto 218.000000 549.000000 lineto 216.000000 551.000000 lineto 205.000000 523.000000 lineto 207.000000 521.000000 lineto 205.000000 512.000000 lineto 209.000000 516.000000 lineto 214.000000 526.000000 lineto 217.000000 541.000000 lineto 162.000000 539.000000 moveto 162.000000 539.000000 lineto 165.000000 537.000000 lineto 163.000000 541.000000 lineto 162.000000 539.000000 lineto 165.000000 535.000000 moveto 165.000000 535.000000 lineto 174.000000 525.000000 lineto 180.000000 514.000000 lineto 185.000000 513.000000 lineto 185.000000 511.000000 lineto 182.000000 512.000000 lineto 181.000000 509.000000 lineto 177.000000 509.000000 lineto 178.000000 502.000000 lineto 181.000000 499.000000 lineto 191.000000 498.000000 lineto 191.000000 496.000000 lineto 195.000000 493.000000 lineto 201.000000 496.000000 lineto 202.000000 501.000000 lineto 221.000000 495.000000 lineto 218.000000 503.000000 lineto 209.000000 511.000000 lineto 203.000000 508.000000 lineto 199.000000 502.000000 lineto 192.000000 501.000000 lineto 190.000000 511.000000 lineto 178.000000 522.000000 lineto 178.000000 524.000000 lineto 170.000000 531.000000 lineto 170.000000 533.000000 lineto 166.000000 537.000000 lineto 165.000000 535.000000 lineto 175.000000 517.000000 moveto 175.000000 517.000000 lineto 176.000000 518.000000 lineto 175.000000 517.000000 lineto 176.000000 516.000000 moveto 176.000000 516.000000 lineto 177.000000 517.000000 lineto 176.000000 516.000000 lineto 173.000000 515.000000 moveto 173.000000 515.000000 lineto 174.000000 516.000000 lineto 173.000000 515.000000 lineto 204.000000 511.000000 moveto 204.000000 511.000000 lineto 205.000000 512.000000 lineto 204.000000 511.000000 lineto 203.000000 510.000000 moveto 203.000000 510.000000 lineto 204.000000 511.000000 lineto 203.000000 510.000000 lineto 202.000000 509.000000 moveto 202.000000 509.000000 lineto 203.000000 510.000000 lineto 202.000000 509.000000 lineto 192.000000 508.000000 moveto 192.000000 508.000000 lineto 194.000000 505.000000 lineto 194.000000 508.000000 lineto 196.000000 509.000000 lineto 192.000000 508.000000 lineto 196.000000 507.000000 moveto 196.000000 507.000000 lineto 198.000000 508.000000 lineto 196.000000 507.000000 lineto 198.000000 505.000000 moveto 198.000000 505.000000 lineto 199.000000 507.000000 lineto 198.000000 505.000000 lineto 196.000000 504.000000 moveto 196.000000 504.000000 lineto 198.000000 505.000000 lineto 194.000000 505.000000 lineto 194.000000 503.000000 lineto 196.000000 504.000000 lineto 203.000000 497.000000 moveto 203.000000 497.000000 lineto 205.000000 498.000000 lineto 203.000000 497.000000 lineto 133.000000 496.000000 moveto 133.000000 496.000000 lineto 134.000000 499.000000 lineto 132.000000 507.000000 lineto 129.000000 510.000000 lineto 129.000000 512.000000 lineto 125.000000 515.000000 lineto 119.000000 503.000000 lineto 115.000000 489.000000 lineto 115.000000 472.000000 lineto 117.000000 466.000000 lineto 121.000000 462.000000 lineto 128.000000 462.000000 lineto 129.000000 464.000000 lineto 131.000000 464.000000 lineto 137.000000 474.000000 lineto 139.000000 480.000000 lineto 138.000000 494.000000 lineto 136.000000 493.000000 lineto 135.000000 485.000000 lineto 130.000000 474.000000 lineto 127.000000 473.000000 lineto 132.000000 483.000000 lineto 133.000000 496.000000 lineto 205.000000 496.000000 moveto 205.000000 496.000000 lineto 211.000000 493.000000 lineto 213.000000 490.000000 lineto 215.000000 490.000000 lineto 218.000000 486.000000 lineto 221.000000 486.000000 lineto 221.000000 484.000000 lineto 224.000000 482.000000 lineto 223.000000 492.000000 lineto 209.000000 497.000000 lineto 205.000000 496.000000 lineto 185.000000 495.000000 moveto 185.000000 495.000000 lineto 187.000000 496.000000 lineto 181.000000 497.000000 lineto 175.000000 504.000000 lineto 164.000000 492.000000 lineto 161.000000 491.000000 lineto 161.000000 488.000000 lineto 167.000000 480.000000 lineto 176.000000 479.000000 lineto 177.000000 481.000000 lineto 179.000000 481.000000 lineto 180.000000 483.000000 lineto 182.000000 483.000000 lineto 183.000000 485.000000 lineto 185.000000 485.000000 lineto 186.000000 487.000000 lineto 193.000000 491.000000 lineto 193.000000 493.000000 lineto 188.000000 495.000000 lineto 185.000000 491.000000 lineto 183.000000 491.000000 lineto 181.000000 488.000000 lineto 175.000000 485.000000 lineto 175.000000 487.000000 lineto 181.000000 490.000000 lineto 185.000000 495.000000 lineto 136.000000 494.000000 moveto 136.000000 494.000000 lineto 137.000000 495.000000 lineto 136.000000 494.000000 lineto 202.000000 493.000000 moveto 202.000000 493.000000 lineto 209.000000 487.000000 lineto 209.000000 485.000000 lineto 220.000000 473.000000 lineto 220.000000 483.000000 lineto 216.000000 485.000000 lineto 214.000000 488.000000 lineto 212.000000 488.000000 lineto 210.000000 491.000000 lineto 205.000000 493.000000 lineto 204.000000 495.000000 lineto 202.000000 495.000000 lineto 202.000000 493.000000 lineto 202.000000 489.000000 moveto 202.000000 489.000000 lineto 203.000000 490.000000 lineto 202.000000 489.000000 lineto 100.000000 481.000000 moveto 100.000000 481.000000 lineto 101.000000 483.000000 lineto 100.000000 481.000000 lineto 222.000000 477.000000 moveto 222.000000 477.000000 lineto 224.000000 476.000000 lineto 224.000000 480.000000 lineto 222.000000 480.000000 lineto 222.000000 477.000000 lineto 257.000000 473.000000 moveto 257.000000 473.000000 lineto 259.000000 471.000000 lineto 257.000000 473.000000 lineto 194.000000 451.000000 moveto 194.000000 451.000000 lineto 195.000000 452.000000 lineto 194.000000 451.000000 lineto 132.000000 447.000000 moveto 132.000000 447.000000 lineto 133.000000 448.000000 lineto 118.000000 449.000000 lineto 114.000000 451.000000 lineto 106.000000 460.000000 lineto 105.000000 441.000000 lineto 101.000000 440.000000 lineto 101.000000 438.000000 lineto 99.000000 437.000000 lineto 98.000000 433.000000 lineto 94.000000 428.000000 lineto 94.000000 425.000000 lineto 90.000000 417.000000 lineto 87.000000 401.000000 lineto 88.000000 371.000000 lineto 93.000000 343.000000 lineto 100.000000 323.000000 lineto 103.000000 319.000000 lineto 103.000000 316.000000 lineto 116.000000 290.000000 lineto 118.000000 289.000000 lineto 119.000000 285.000000 lineto 121.000000 284.000000 lineto 122.000000 280.000000 lineto 124.000000 279.000000 lineto 128.000000 271.000000 lineto 131.000000 269.000000 lineto 133.000000 264.000000 lineto 142.000000 255.000000 lineto 142.000000 253.000000 lineto 160.000000 236.000000 lineto 178.000000 236.000000 lineto 188.000000 233.000000 lineto 197.000000 227.000000 lineto 198.000000 248.000000 lineto 192.000000 270.000000 lineto 190.000000 274.000000 lineto 187.000000 275.000000 lineto 182.000000 281.000000 lineto 180.000000 281.000000 lineto 179.000000 284.000000 lineto 171.000000 292.000000 lineto 167.000000 301.000000 lineto 167.000000 308.000000 lineto 160.000000 317.000000 lineto 160.000000 319.000000 lineto 158.000000 320.000000 lineto 157.000000 324.000000 lineto 155.000000 325.000000 lineto 149.000000 336.000000 lineto 147.000000 337.000000 lineto 143.000000 346.000000 lineto 141.000000 347.000000 lineto 129.000000 372.000000 lineto 124.000000 387.000000 lineto 120.000000 407.000000 lineto 120.000000 421.000000 lineto 123.000000 433.000000 lineto 132.000000 447.000000 lineto 101.000000 414.000000 moveto 101.000000 414.000000 lineto 102.000000 411.000000 lineto 100.000000 405.000000 lineto 100.000000 373.000000 lineto 97.000000 385.000000 lineto 97.000000 402.000000 lineto 101.000000 414.000000 lineto 159.000000 390.000000 moveto 159.000000 390.000000 lineto 171.000000 366.000000 lineto 173.000000 365.000000 lineto 177.000000 357.000000 lineto 180.000000 355.000000 lineto 180.000000 353.000000 lineto 184.000000 350.000000 lineto 187.000000 385.000000 lineto 165.000000 391.000000 lineto 159.000000 390.000000 lineto 76.000000 351.000000 moveto 76.000000 351.000000 lineto 83.000000 344.000000 lineto 92.000000 339.000000 lineto 88.000000 355.000000 lineto 88.000000 361.000000 lineto 83.000000 359.000000 lineto 76.000000 351.000000 lineto 257.000000 347.000000 moveto 257.000000 347.000000 lineto 258.000000 348.000000 lineto 257.000000 347.000000 lineto 258.000000 337.000000 moveto 258.000000 337.000000 lineto 261.000000 325.000000 lineto 263.000000 323.000000 lineto 267.000000 311.000000 lineto 269.000000 299.000000 lineto 270.000000 302.000000 lineto 273.000000 301.000000 lineto 272.000000 285.000000 lineto 269.000000 275.000000 lineto 265.000000 268.000000 lineto 253.000000 257.000000 lineto 243.000000 254.000000 lineto 241.000000 243.000000 lineto 249.000000 245.000000 lineto 260.000000 251.000000 lineto 262.000000 254.000000 lineto 264.000000 254.000000 lineto 274.000000 266.000000 lineto 279.000000 277.000000 lineto 278.000000 280.000000 lineto 274.000000 275.000000 lineto 272.000000 275.000000 lineto 276.000000 280.000000 lineto 277.000000 286.000000 lineto 276.000000 301.000000 lineto 271.000000 318.000000 lineto 260.000000 340.000000 lineto 259.000000 347.000000 lineto 258.000000 337.000000 lineto 180.000000 336.000000 moveto 180.000000 336.000000 lineto 181.000000 337.000000 lineto 176.000000 335.000000 lineto 176.000000 333.000000 lineto 174.000000 332.000000 lineto 174.000000 323.000000 lineto 180.000000 317.000000 lineto 186.000000 315.000000 lineto 199.000000 315.000000 lineto 205.000000 318.000000 lineto 206.000000 321.000000 lineto 208.000000 322.000000 lineto 207.000000 329.000000 lineto 200.000000 322.000000 lineto 185.000000 323.000000 lineto 179.000000 329.000000 lineto 180.000000 336.000000 lineto 212.000000 319.000000 moveto 212.000000 319.000000 lineto 215.000000 318.000000 lineto 204.000000 313.000000 lineto 199.000000 306.000000 lineto 198.000000 294.000000 lineto 200.000000 291.000000 lineto 204.000000 290.000000 lineto 212.000000 294.000000 lineto 234.000000 316.000000 lineto 235.000000 320.000000 lineto 230.000000 328.000000 lineto 220.000000 329.000000 lineto 210.000000 328.000000 lineto 209.000000 320.000000 lineto 205.000000 316.000000 lineto 212.000000 319.000000 lineto 204.000000 315.000000 moveto 204.000000 315.000000 lineto 205.000000 316.000000 lineto 199.000000 314.000000 lineto 198.000000 312.000000 lineto 201.000000 311.000000 lineto 204.000000 315.000000 lineto 231.000000 311.000000 moveto 231.000000 311.000000 lineto 241.000000 309.000000 lineto 244.000000 304.000000 lineto 243.000000 288.000000 lineto 237.000000 274.000000 lineto 239.000000 273.000000 lineto 243.000000 277.000000 lineto 249.000000 291.000000 lineto 250.000000 311.000000 lineto 247.000000 314.000000 lineto 242.000000 315.000000 lineto 234.000000 314.000000 lineto 231.000000 311.000000 lineto 198.000000 308.000000 moveto 198.000000 308.000000 lineto 199.000000 309.000000 lineto 195.000000 313.000000 lineto 186.000000 313.000000 lineto 180.000000 315.000000 lineto 172.000000 322.000000 lineto 169.000000 310.000000 lineto 169.000000 301.000000 lineto 176.000000 288.000000 lineto 190.000000 275.000000 lineto 210.000000 264.000000 lineto 222.000000 264.000000 lineto 227.000000 272.000000 lineto 230.000000 282.000000 lineto 231.000000 298.000000 lineto 229.000000 302.000000 lineto 223.000000 304.000000 lineto 211.000000 291.000000 lineto 205.000000 289.000000 lineto 207.000000 276.000000 lineto 213.000000 279.000000 lineto 218.000000 284.000000 lineto 213.000000 277.000000 lineto 208.000000 275.000000 lineto 208.000000 272.000000 lineto 204.000000 279.000000 lineto 203.000000 289.000000 lineto 200.000000 289.000000 lineto 196.000000 294.000000 lineto 196.000000 303.000000 lineto 198.000000 308.000000 lineto 93.000000 307.000000 moveto 93.000000 307.000000 lineto 94.000000 305.000000 lineto 102.000000 305.000000 lineto 105.000000 307.000000 lineto 105.000000 309.000000 lineto 103.000000 313.000000 lineto 101.000000 313.000000 lineto 100.000000 311.000000 lineto 93.000000 309.000000 lineto 93.000000 307.000000 lineto 226.000000 305.000000 moveto 226.000000 305.000000 lineto 228.000000 305.000000 lineto 231.000000 302.000000 lineto 233.000000 297.000000 lineto 232.000000 283.000000 lineto 229.000000 272.000000 lineto 226.000000 268.000000 lineto 227.000000 266.000000 lineto 234.000000 271.000000 lineto 239.000000 281.000000 lineto 242.000000 292.000000 lineto 242.000000 305.000000 lineto 236.000000 309.000000 lineto 228.000000 309.000000 lineto 226.000000 305.000000 lineto 93.000000 302.000000 moveto 93.000000 302.000000 lineto 94.000000 304.000000 lineto 90.000000 305.000000 lineto 83.000000 301.000000 lineto 89.000000 296.000000 lineto 90.000000 287.000000 lineto 92.000000 288.000000 lineto 91.000000 297.000000 lineto 93.000000 302.000000 lineto 93.000000 289.000000 moveto 93.000000 289.000000 lineto 102.000000 273.000000 lineto 104.000000 258.000000 lineto 102.000000 259.000000 lineto 102.000000 263.000000 lineto 100.000000 264.000000 lineto 95.000000 254.000000 lineto 91.000000 251.000000 lineto 89.000000 244.000000 lineto 109.000000 246.000000 lineto 121.000000 252.000000 lineto 127.000000 263.000000 lineto 128.000000 269.000000 lineto 126.000000 270.000000 lineto 126.000000 272.000000 lineto 120.000000 279.000000 lineto 119.000000 283.000000 lineto 117.000000 284.000000 lineto 116.000000 288.000000 lineto 114.000000 289.000000 lineto 106.000000 306.000000 lineto 102.000000 303.000000 lineto 96.000000 303.000000 lineto 94.000000 301.000000 lineto 93.000000 289.000000 lineto 87.000000 285.000000 moveto 87.000000 285.000000 lineto 87.000000 296.000000 lineto 84.000000 298.000000 lineto 77.000000 297.000000 lineto 71.000000 291.000000 lineto 57.000000 284.000000 lineto 57.000000 274.000000 lineto 59.000000 272.000000 lineto 60.000000 274.000000 lineto 62.000000 274.000000 lineto 62.000000 277.000000 lineto 81.000000 277.000000 lineto 87.000000 282.000000 lineto 87.000000 285.000000 lineto 279.000000 280.000000 moveto 279.000000 280.000000 lineto 280.000000 282.000000 lineto 279.000000 280.000000 lineto 195.000000 217.000000 moveto 195.000000 217.000000 lineto 196.000000 225.000000 lineto 194.000000 227.000000 lineto 187.000000 231.000000 lineto 173.000000 234.000000 lineto 164.000000 226.000000 lineto 162.000000 226.000000 lineto 145.000000 209.000000 lineto 145.000000 207.000000 lineto 138.000000 200.000000 lineto 130.000000 186.000000 lineto 130.000000 180.000000 lineto 135.000000 171.000000 lineto 151.000000 155.000000 lineto 153.000000 155.000000 lineto 157.000000 150.000000 lineto 159.000000 150.000000 lineto 161.000000 147.000000 lineto 163.000000 147.000000 lineto 165.000000 144.000000 lineto 170.000000 142.000000 lineto 175.000000 137.000000 lineto 177.000000 138.000000 lineto 180.000000 151.000000 lineto 183.000000 157.000000 lineto 183.000000 161.000000 lineto 186.000000 167.000000 lineto 193.000000 197.000000 lineto 195.000000 217.000000 lineto 40.000000 136.000000 moveto 40.000000 136.000000 lineto 44.000000 135.000000 lineto 39.000000 134.000000 lineto 33.000000 129.000000 lineto 31.000000 129.000000 lineto 21.000000 119.000000 lineto 21.000000 117.000000 lineto 19.000000 116.000000 lineto 15.000000 109.000000 lineto 13.000000 102.000000 lineto 13.000000 92.000000 lineto 17.000000 84.000000 lineto 24.000000 78.000000 lineto 32.000000 75.000000 lineto 42.000000 75.000000 lineto 39.000000 83.000000 lineto 39.000000 94.000000 lineto 41.000000 101.000000 lineto 45.000000 108.000000 lineto 51.000000 114.000000 lineto 64.000000 121.000000 lineto 67.000000 120.000000 lineto 58.000000 117.000000 lineto 47.000000 107.000000 lineto 42.000000 96.000000 lineto 43.000000 78.000000 lineto 47.000000 72.000000 lineto 55.000000 68.000000 lineto 79.000000 67.000000 lineto 99.000000 71.000000 lineto 146.000000 87.000000 lineto 166.000000 97.000000 lineto 168.000000 108.000000 lineto 164.000000 105.000000 lineto 149.000000 100.000000 lineto 129.000000 99.000000 lineto 123.000000 102.000000 lineto 114.000000 111.000000 lineto 114.000000 113.000000 lineto 94.000000 132.000000 lineto 76.000000 142.000000 lineto 62.000000 146.000000 lineto 41.000000 145.000000 lineto 27.000000 139.000000 lineto 22.000000 134.000000 lineto 20.000000 134.000000 lineto 11.000000 124.000000 lineto 7.000000 115.000000 lineto 6.000000 107.000000 lineto 9.000000 98.000000 lineto 11.000000 98.000000 lineto 10.000000 100.000000 lineto 12.000000 108.000000 lineto 20.000000 122.000000 lineto 29.000000 130.000000 lineto 40.000000 136.000000 lineto 166.000000 82.000000 moveto 166.000000 82.000000 lineto 170.000000 73.000000 lineto 177.000000 65.000000 lineto 177.000000 63.000000 lineto 194.000000 45.000000 lineto 196.000000 45.000000 lineto 205.000000 36.000000 lineto 207.000000 36.000000 lineto 223.000000 24.000000 lineto 227.000000 23.000000 lineto 228.000000 21.000000 lineto 248.000000 13.000000 lineto 268.000000 11.000000 lineto 276.000000 14.000000 lineto 281.000000 19.000000 lineto 285.000000 27.000000 lineto 286.000000 41.000000 lineto 282.000000 52.000000 lineto 273.000000 62.000000 lineto 276.000000 61.000000 lineto 283.000000 54.000000 lineto 288.000000 43.000000 lineto 288.000000 27.000000 lineto 285.000000 20.000000 lineto 280.000000 14.000000 lineto 296.000000 13.000000 lineto 306.000000 15.000000 lineto 314.000000 19.000000 lineto 319.000000 24.000000 lineto 321.000000 28.000000 lineto 322.000000 37.000000 lineto 319.000000 55.000000 lineto 316.000000 61.000000 lineto 313.000000 63.000000 lineto 313.000000 65.000000 lineto 300.000000 76.000000 lineto 308.000000 72.000000 lineto 320.000000 59.000000 lineto 324.000000 47.000000 lineto 324.000000 31.000000 lineto 326.000000 31.000000 lineto 332.000000 39.000000 lineto 331.000000 54.000000 lineto 322.000000 72.000000 lineto 311.000000 83.000000 lineto 295.000000 91.000000 lineto 268.000000 92.000000 lineto 259.000000 89.000000 lineto 245.000000 82.000000 lineto 237.000000 75.000000 lineto 235.000000 75.000000 lineto 212.000000 53.000000 lineto 206.000000 53.000000 lineto 198.000000 57.000000 lineto 196.000000 60.000000 lineto 194.000000 60.000000 lineto 178.000000 77.000000 lineto 178.000000 79.000000 lineto 175.000000 81.000000 lineto 175.000000 83.000000 lineto 173.000000 84.000000 lineto 168.000000 93.000000 lineto 166.000000 88.000000 lineto 166.000000 82.000000 lineto 
fill 
showpage
