%!PS-Adobe-3.0 EPSF-3.0
%%BoundingBox: 0 0 412 1216
292.000000 1191.000000 moveto 292.000000 1191.000000 lineto 328.000000 1183.000000 lineto 352.000000 1174.000000 lineto 359.000000 1166.000000 lineto 363.000000 1153.000000 lineto 361.000000 1106.000000 lineto 375.000000 1104.000000 lineto 388.000000 1096.000000 lineto 383.000000 1092.000000 lineto 369.000000 1090.000000 lineto 373.000000 1083.000000 lineto 368.000000 1077.000000 lineto 372.000000 1056.000000 lineto 364.000000 1046.000000 lineto 352.000000 1040.000000 lineto 350.000000 1028.000000 lineto 331.000000 1006.000000 lineto 320.000000 985.000000 lineto 320.000000 957.000000 lineto 332.000000 926.000000 lineto 338.000000 900.000000 lineto 340.000000 852.000000 lineto 338.000000 838.000000 lineto 322.000000 803.000000 lineto 321.000000 783.000000 lineto 312.000000 764.000000 lineto 315.000000 733.000000 lineto 323.000000 701.000000 lineto 361.000000 647.000000 lineto 375.000000 614.000000 lineto 384.000000 568.000000 lineto 385.000000 536.000000 lineto 370.000000 539.000000 lineto 366.000000 506.000000 lineto 353.000000 459.000000 lineto 348.000000 401.000000 lineto 332.000000 286.000000 lineto 334.000000 262.000000 lineto 331.000000 242.000000 lineto 331.000000 165.000000 lineto 334.000000 66.000000 lineto 318.000000 54.000000 lineto 320.000000 46.000000 lineto 329.000000 49.000000 lineto 330.000000 47.000000 lineto 320.000000 40.000000 lineto 290.000000 29.000000 lineto 249.000000 29.000000 lineto 245.000000 32.000000 lineto 210.000000 23.000000 lineto 175.000000 21.000000 lineto 144.000000 30.000000 lineto 129.000000 40.000000 lineto 113.000000 57.000000 lineto 116.000000 65.000000 lineto 174.000000 66.000000 lineto 194.000000 72.000000 lineto 164.000000 97.000000 lineto 160.000000 105.000000 lineto 161.000000 116.000000 lineto 170.000000 120.000000 lineto 187.000000 120.000000 lineto 217.000000 112.000000 lineto 219.000000 130.000000 lineto 209.000000 137.000000 lineto 203.000000 148.000000 lineto 199.000000 163.000000 lineto 199.000000 185.000000 lineto 190.000000 207.000000 lineto 183.000000 260.000000 lineto 174.000000 287.000000 lineto 166.000000 387.000000 lineto 168.000000 426.000000 lineto 163.000000 485.000000 lineto 163.000000 586.000000 lineto 149.000000 609.000000 lineto 123.000000 604.000000 lineto 125.000000 595.000000 lineto 119.000000 598.000000 lineto 106.000000 596.000000 lineto 107.000000 591.000000 lineto 100.000000 587.000000 lineto 101.000000 582.000000 lineto 97.000000 583.000000 lineto 95.000000 588.000000 lineto 84.000000 590.000000 lineto 69.000000 601.000000 lineto 56.000000 587.000000 lineto 47.000000 559.000000 lineto 63.000000 320.000000 lineto 74.000000 79.000000 lineto 69.000000 81.000000 lineto 66.000000 91.000000 lineto 40.000000 576.000000 lineto 48.000000 595.000000 lineto 61.000000 606.000000 lineto 76.000000 612.000000 lineto 72.000000 617.000000 lineto 54.000000 609.000000 lineto 73.000000 627.000000 lineto 121.000000 638.000000 lineto 113.000000 660.000000 lineto 110.000000 692.000000 lineto 116.000000 713.000000 lineto 124.000000 720.000000 lineto 135.000000 724.000000 lineto 129.000000 736.000000 lineto 129.000000 762.000000 lineto 124.000000 774.000000 lineto 127.000000 824.000000 lineto 134.000000 838.000000 lineto 139.000000 841.000000 lineto 146.000000 877.000000 lineto 159.000000 900.000000 lineto 169.000000 910.000000 lineto 175.000000 931.000000 lineto 187.000000 944.000000 lineto 202.000000 950.000000 lineto 224.000000 972.000000 lineto 213.000000 1000.000000 lineto 220.000000 1004.000000 lineto 223.000000 1036.000000 lineto 235.000000 1079.000000 lineto 235.000000 1092.000000 lineto 226.000000 1100.000000 lineto 225.000000 1107.000000 lineto 214.000000 1124.000000 lineto 240.000000 1126.000000 lineto 254.000000 1166.000000 lineto 259.000000 1171.000000 lineto 272.000000 1174.000000 lineto 280.000000 1185.000000 lineto 292.000000 1191.000000 lineto 318.000000 1102.000000 moveto 318.000000 1102.000000 lineto 318.000000 1102.000000 lineto 320.000000 1102.000000 moveto 320.000000 1102.000000 lineto 333.000000 1099.000000 lineto 351.000000 1100.000000 lineto 320.000000 1102.000000 lineto 315.000000 1074.000000 moveto 315.000000 1074.000000 lineto 316.000000 1076.000000 lineto 305.000000 1086.000000 lineto 283.000000 1081.000000 lineto 268.000000 1070.000000 lineto 260.000000 1081.000000 lineto 258.000000 1080.000000 lineto 256.000000 1071.000000 lineto 262.000000 1058.000000 lineto 249.000000 1041.000000 lineto 241.000000 1023.000000 lineto 244.000000 1019.000000 lineto 258.000000 1018.000000 lineto 262.000000 1006.000000 lineto 256.000000 998.000000 lineto 257.000000 991.000000 lineto 244.000000 998.000000 lineto 240.000000 997.000000 lineto 253.000000 982.000000 lineto 247.000000 979.000000 lineto 236.000000 986.000000 lineto 234.000000 982.000000 lineto 240.000000 976.000000 lineto 255.000000 971.000000 lineto 267.000000 984.000000 lineto 270.000000 970.000000 lineto 277.000000 969.000000 lineto 300.000000 974.000000 lineto 318.000000 988.000000 lineto 331.000000 1012.000000 lineto 348.000000 1030.000000 lineto 348.000000 1036.000000 lineto 345.000000 1040.000000 lineto 336.000000 1040.000000 lineto 321.000000 1028.000000 lineto 315.000000 1074.000000 lineto 245.000000 1069.000000 moveto 245.000000 1069.000000 lineto 245.000000 1069.000000 lineto 277.000000 1069.000000 moveto 277.000000 1069.000000 lineto 296.000000 1064.000000 lineto 305.000000 1053.000000 lineto 303.000000 1051.000000 lineto 295.000000 1059.000000 lineto 289.000000 1058.000000 lineto 297.000000 1039.000000 lineto 291.000000 1032.000000 lineto 273.000000 1033.000000 lineto 267.000000 1056.000000 lineto 277.000000 1069.000000 lineto 246.000000 1068.000000 moveto 246.000000 1068.000000 lineto 248.000000 1069.000000 lineto 246.000000 1068.000000 lineto 248.000000 1067.000000 moveto 248.000000 1067.000000 lineto 248.000000 1067.000000 lineto 250.000000 1066.000000 moveto 250.000000 1066.000000 lineto 250.000000 1066.000000 lineto 280.000000 1043.000000 moveto 280.000000 1043.000000 lineto 285.000000 1037.000000 lineto 292.000000 1038.000000 lineto 285.000000 1050.000000 lineto 280.000000 1043.000000 lineto 339.000000 1036.000000 moveto 339.000000 1036.000000 lineto 344.000000 1033.000000 lineto 337.000000 1033.000000 lineto 337.000000 1025.000000 lineto 331.000000 1022.000000 lineto 330.000000 1028.000000 lineto 339.000000 1036.000000 lineto 314.000000 1006.000000 moveto 314.000000 1006.000000 lineto 320.000000 1005.000000 lineto 319.000000 1002.000000 lineto 314.000000 1006.000000 lineto 250.000000 962.000000 moveto 250.000000 962.000000 lineto 257.000000 964.000000 lineto 252.000000 965.000000 lineto 250.000000 962.000000 lineto 301.000000 960.000000 moveto 301.000000 960.000000 lineto 312.000000 939.000000 lineto 315.000000 920.000000 lineto 312.000000 919.000000 lineto 290.000000 933.000000 lineto 287.000000 933.000000 lineto 287.000000 925.000000 lineto 294.000000 913.000000 lineto 324.000000 891.000000 lineto 323.000000 872.000000 lineto 319.000000 871.000000 lineto 293.000000 899.000000 lineto 285.000000 899.000000 lineto 299.000000 889.000000 lineto 319.000000 860.000000 lineto 327.000000 866.000000 lineto 329.000000 861.000000 lineto 321.000000 832.000000 lineto 309.000000 812.000000 lineto 311.000000 804.000000 lineto 304.000000 797.000000 lineto 308.000000 789.000000 lineto 301.000000 786.000000 lineto 301.000000 783.000000 lineto 309.000000 782.000000 lineto 316.000000 786.000000 lineto 316.000000 806.000000 lineto 335.000000 844.000000 lineto 336.000000 857.000000 lineto 322.000000 938.000000 lineto 312.000000 960.000000 lineto 304.000000 966.000000 lineto 301.000000 966.000000 lineto 301.000000 960.000000 lineto 192.000000 932.000000 moveto 192.000000 932.000000 lineto 187.000000 932.000000 lineto 179.000000 922.000000 lineto 187.000000 924.000000 lineto 192.000000 932.000000 lineto 178.000000 921.000000 moveto 178.000000 921.000000 lineto 178.000000 921.000000 lineto 307.000000 857.000000 moveto 307.000000 857.000000 lineto 311.000000 830.000000 lineto 313.000000 855.000000 lineto 309.000000 861.000000 lineto 307.000000 857.000000 lineto 297.000000 823.000000 moveto 297.000000 823.000000 lineto 301.000000 814.000000 lineto 258.000000 734.000000 lineto 266.000000 738.000000 lineto 274.000000 748.000000 lineto 290.000000 780.000000 lineto 304.000000 814.000000 lineto 300.000000 828.000000 lineto 297.000000 827.000000 lineto 297.000000 823.000000 lineto 304.000000 768.000000 moveto 304.000000 768.000000 lineto 303.000000 774.000000 lineto 293.000000 765.000000 lineto 290.000000 757.000000 lineto 304.000000 742.000000 lineto 304.000000 738.000000 lineto 299.000000 736.000000 lineto 287.000000 741.000000 lineto 282.000000 734.000000 lineto 295.000000 729.000000 lineto 306.000000 719.000000 lineto 274.000000 713.000000 lineto 292.000000 709.000000 lineto 296.000000 707.000000 lineto 295.000000 702.000000 lineto 316.000000 695.000000 lineto 311.000000 713.000000 lineto 312.000000 741.000000 lineto 304.000000 768.000000 lineto 250.000000 724.000000 moveto 250.000000 724.000000 lineto 250.000000 713.000000 lineto 240.000000 695.000000 lineto 236.000000 697.000000 lineto 235.000000 703.000000 lineto 228.000000 705.000000 lineto 220.000000 684.000000 lineto 233.000000 693.000000 lineto 230.000000 685.000000 lineto 232.000000 683.000000 lineto 242.000000 693.000000 lineto 256.000000 721.000000 lineto 254.000000 725.000000 lineto 250.000000 724.000000 lineto 219.000000 683.000000 moveto 219.000000 683.000000 lineto 219.000000 683.000000 lineto 229.000000 682.000000 moveto 229.000000 682.000000 lineto 229.000000 682.000000 lineto 99.000000 601.000000 moveto 99.000000 601.000000 lineto 95.000000 605.000000 lineto 92.000000 599.000000 lineto 97.000000 598.000000 lineto 99.000000 601.000000 lineto 355.000000 598.000000 moveto 355.000000 598.000000 lineto 355.000000 598.000000 lineto 355.000000 596.000000 moveto 355.000000 596.000000 lineto 355.000000 596.000000 lineto 357.000000 590.000000 moveto 357.000000 590.000000 lineto 356.000000 596.000000 lineto 354.000000 529.000000 lineto 325.000000 532.000000 lineto 321.000000 530.000000 lineto 358.000000 525.000000 lineto 361.000000 570.000000 lineto 357.000000 590.000000 lineto 313.000000 531.000000 moveto 313.000000 531.000000 lineto 313.000000 531.000000 lineto 315.000000 531.000000 moveto 315.000000 531.000000 lineto 315.000000 531.000000 lineto 317.000000 531.000000 moveto 317.000000 531.000000 lineto 317.000000 531.000000 lineto 319.000000 530.000000 moveto 319.000000 530.000000 lineto 320.000000 532.000000 lineto 319.000000 530.000000 lineto 340.000000 498.000000 moveto 340.000000 498.000000 lineto 338.000000 504.000000 lineto 335.000000 480.000000 lineto 336.000000 392.000000 lineto 340.000000 412.000000 lineto 341.000000 483.000000 lineto 350.000000 483.000000 lineto 352.000000 490.000000 lineto 351.000000 496.000000 lineto 348.000000 488.000000 lineto 343.000000 489.000000 lineto 340.000000 498.000000 lineto 352.000000 496.000000 moveto 352.000000 496.000000 lineto 353.000000 499.000000 lineto 352.000000 496.000000 lineto 335.000000 382.000000 moveto 335.000000 382.000000 lineto 336.000000 392.000000 lineto 335.000000 382.000000 lineto 335.000000 380.000000 moveto 335.000000 380.000000 lineto 334.000000 382.000000 lineto 334.000000 377.000000 lineto 335.000000 380.000000 lineto 
fill 
showpage
