%!PS-Adobe-3.0 EPSF-3.0
%%BoundingBox: 0 0 250 140
70.000000 138.000000 moveto 71.000000 138.000000 lineto 72.000000 138.000000 lineto 73.000000 138.000000 lineto 74.000000 138.000000 lineto 74.000000 137.000000 lineto 75.000000 137.000000 lineto 76.000000 137.000000 lineto 76.000000 136.000000 lineto 76.000000 135.000000 lineto 76.000000 134.000000 lineto 77.000000 134.000000 lineto 77.000000 133.000000 lineto 77.000000 132.000000 lineto 77.000000 131.000000 lineto 77.000000 130.000000 lineto 77.000000 129.000000 lineto 77.000000 128.000000 lineto 77.000000 127.000000 lineto 77.000000 126.000000 lineto 77.000000 125.000000 lineto 77.000000 124.000000 lineto 77.000000 123.000000 lineto 77.000000 122.000000 lineto 77.000000 121.000000 lineto 77.000000 120.000000 lineto 77.000000 119.000000 lineto 77.000000 118.000000 lineto 77.000000 117.000000 lineto 77.000000 116.000000 lineto 76.000000 116.000000 lineto 76.000000 115.000000 lineto 76.000000 114.000000 lineto 76.000000 113.000000 lineto 76.000000 112.000000 lineto 76.000000 111.000000 lineto 76.000000 110.000000 lineto 75.000000 110.000000 lineto 75.000000 109.000000 lineto 75.000000 108.000000 lineto 75.000000 107.000000 lineto 75.000000 106.000000 lineto 75.000000 105.000000 lineto 75.000000 104.000000 lineto 74.000000 104.000000 lineto 74.000000 103.000000 lineto 74.000000 102.000000 lineto 75.000000 102.000000 lineto 75.000000 101.000000 lineto 76.000000 101.000000 lineto 76.000000 102.000000 lineto 77.000000 102.000000 lineto 78.000000 102.000000 lineto 78.000000 103.000000 lineto 79.000000 103.000000 lineto 80.000000 103.000000 lineto 81.000000 103.000000 lineto 81.000000 104.000000 lineto 82.000000 104.000000 lineto 83.000000 104.000000 lineto 83.000000 105.000000 lineto 84.000000 105.000000 lineto 85.000000 105.000000 lineto 85.000000 106.000000 lineto 86.000000 106.000000 lineto 87.000000 106.000000 lineto 88.000000 106.000000 lineto 88.000000 107.000000 lineto 89.000000 107.000000 lineto 90.000000 107.000000 lineto 90.000000 108.000000 lineto 91.000000 108.000000 lineto 92.000000 108.000000 lineto 93.000000 108.000000 lineto 93.000000 109.000000 lineto 94.000000 109.000000 lineto 95.000000 109.000000 lineto 95.000000 110.000000 lineto 96.000000 110.000000 lineto 97.000000 110.000000 lineto 98.000000 110.000000 lineto 98.000000 111.000000 lineto 99.000000 111.000000 lineto 100.000000 111.000000 lineto 100.000000 112.000000 lineto 101.000000 112.000000 lineto 102.000000 112.000000 lineto 103.000000 112.000000 lineto 103.000000 113.000000 lineto 104.000000 113.000000 lineto 105.000000 113.000000 lineto 106.000000 113.000000 lineto 106.000000 114.000000 lineto 107.000000 114.000000 lineto 108.000000 114.000000 lineto 109.000000 114.000000 lineto 109.000000 115.000000 lineto 110.000000 115.000000 lineto 111.000000 115.000000 lineto 112.000000 115.000000 lineto 112.000000 116.000000 lineto 113.000000 116.000000 lineto 114.000000 116.000000 lineto 115.000000 116.000000 lineto 116.000000 116.000000 lineto 116.000000 117.000000 lineto 117.000000 117.000000 lineto 118.000000 117.000000 lineto 119.000000 117.000000 lineto 120.000000 117.000000 lineto 120.000000 118.000000 lineto 121.000000 118.000000 lineto 122.000000 118.000000 lineto 123.000000 118.000000 lineto 124.000000 118.000000 lineto 125.000000 118.000000 lineto 126.000000 118.000000 lineto 127.000000 118.000000 lineto 128.000000 118.000000 lineto 129.000000 118.000000 lineto 130.000000 118.000000 lineto 131.000000 118.000000 lineto 132.000000 118.000000 lineto 133.000000 118.000000 lineto 134.000000 118.000000 lineto 135.000000 118.000000 lineto 136.000000 118.000000 lineto 136.000000 117.000000 lineto 137.000000 117.000000 lineto 138.000000 117.000000 lineto 139.000000 117.000000 lineto 140.000000 117.000000 lineto 141.000000 117.000000 lineto 141.000000 116.000000 lineto 142.000000 116.000000 lineto 143.000000 116.000000 lineto 144.000000 116.000000 lineto 145.000000 116.000000 lineto 145.000000 115.000000 lineto 146.000000 115.000000 lineto 147.000000 115.000000 lineto 148.000000 115.000000 lineto 148.000000 114.000000 lineto 149.000000 114.000000 lineto 150.000000 114.000000 lineto 150.000000 113.000000 lineto 151.000000 113.000000 lineto 152.000000 113.000000 lineto 152.000000 112.000000 lineto 153.000000 112.000000 lineto 154.000000 112.000000 lineto 154.000000 111.000000 lineto 155.000000 111.000000 lineto 155.000000 110.000000 lineto 156.000000 110.000000 lineto 157.000000 110.000000 lineto 157.000000 109.000000 lineto 158.000000 109.000000 lineto 158.000000 108.000000 lineto 159.000000 108.000000 lineto 159.000000 107.000000 lineto 160.000000 107.000000 lineto 160.000000 106.000000 lineto 161.000000 106.000000 lineto 162.000000 106.000000 lineto 162.000000 105.000000 lineto 163.000000 105.000000 lineto 163.000000 104.000000 lineto 164.000000 104.000000 lineto 164.000000 103.000000 lineto 164.000000 102.000000 lineto 165.000000 102.000000 lineto 165.000000 101.000000 lineto 166.000000 101.000000 lineto 166.000000 100.000000 lineto 167.000000 100.000000 lineto 167.000000 99.000000 lineto 168.000000 99.000000 lineto 168.000000 98.000000 lineto 168.000000 97.000000 lineto 169.000000 97.000000 lineto 169.000000 96.000000 lineto 170.000000 96.000000 lineto 170.000000 95.000000 lineto 170.000000 94.000000 lineto 171.000000 94.000000 lineto 171.000000 93.000000 lineto 171.000000 92.000000 lineto 172.000000 92.000000 lineto 172.000000 91.000000 lineto 173.000000 91.000000 lineto 173.000000 90.000000 lineto 173.000000 89.000000 lineto 174.000000 89.000000 lineto 174.000000 88.000000 lineto 174.000000 87.000000 lineto 174.000000 86.000000 lineto 175.000000 86.000000 lineto 175.000000 85.000000 lineto 175.000000 84.000000 lineto 176.000000 84.000000 lineto 176.000000 83.000000 lineto 176.000000 82.000000 lineto 177.000000 82.000000 lineto 177.000000 81.000000 lineto 177.000000 80.000000 lineto 178.000000 80.000000 lineto 179.000000 80.000000 lineto 179.000000 79.000000 lineto 180.000000 79.000000 lineto 181.000000 79.000000 lineto 182.000000 79.000000 lineto 182.000000 78.000000 lineto 183.000000 78.000000 lineto 184.000000 78.000000 lineto 185.000000 78.000000 lineto 186.000000 78.000000 lineto 187.000000 78.000000 lineto 188.000000 78.000000 lineto 189.000000 78.000000 lineto 190.000000 78.000000 lineto 190.000000 79.000000 lineto 191.000000 79.000000 lineto 192.000000 79.000000 lineto 193.000000 79.000000 lineto 193.000000 80.000000 lineto 194.000000 80.000000 lineto 195.000000 80.000000 lineto 196.000000 80.000000 lineto 196.000000 81.000000 lineto 197.000000 81.000000 lineto 198.000000 81.000000 lineto 198.000000 82.000000 lineto 199.000000 82.000000 lineto 200.000000 82.000000 lineto 200.000000 83.000000 lineto 201.000000 83.000000 lineto 202.000000 83.000000 lineto 202.000000 84.000000 lineto 203.000000 84.000000 lineto 204.000000 84.000000 lineto 204.000000 85.000000 lineto 205.000000 85.000000 lineto 206.000000 85.000000 lineto 206.000000 86.000000 lineto 207.000000 86.000000 lineto 208.000000 86.000000 lineto 208.000000 87.000000 lineto 209.000000 87.000000 lineto 209.000000 88.000000 lineto 210.000000 88.000000 lineto 211.000000 88.000000 lineto 211.000000 89.000000 lineto 212.000000 89.000000 lineto 213.000000 89.000000 lineto 213.000000 90.000000 lineto 214.000000 90.000000 lineto 215.000000 90.000000 lineto 215.000000 91.000000 lineto 216.000000 91.000000 lineto 217.000000 91.000000 lineto 217.000000 92.000000 lineto 218.000000 92.000000 lineto 219.000000 92.000000 lineto 220.000000 92.000000 lineto 220.000000 93.000000 lineto 221.000000 93.000000 lineto 222.000000 93.000000 lineto 223.000000 93.000000 lineto 224.000000 93.000000 lineto 225.000000 93.000000 lineto 226.000000 93.000000 lineto 227.000000 93.000000 lineto 228.000000 93.000000 lineto 229.000000 93.000000 lineto 230.000000 93.000000 lineto 231.000000 93.000000 lineto 232.000000 93.000000 lineto 233.000000 93.000000 lineto 234.000000 93.000000 lineto 235.000000 93.000000 lineto 235.000000 92.000000 lineto 236.000000 92.000000 lineto 237.000000 92.000000 lineto 237.000000 91.000000 lineto 238.000000 91.000000 lineto 239.000000 91.000000 lineto 239.000000 90.000000 lineto 239.000000 89.000000 lineto 240.000000 89.000000 lineto 240.000000 88.000000 lineto 240.000000 87.000000 lineto 240.000000 86.000000 lineto 239.000000 86.000000 lineto 239.000000 85.000000 lineto 238.000000 85.000000 lineto 238.000000 84.000000 lineto 237.000000 84.000000 lineto 236.000000 84.000000 lineto 235.000000 84.000000 lineto 235.000000 85.000000 lineto 234.000000 85.000000 lineto 233.000000 85.000000 lineto 232.000000 85.000000 lineto 231.000000 85.000000 lineto 230.000000 85.000000 lineto 229.000000 85.000000 lineto 228.000000 85.000000 lineto 227.000000 85.000000 lineto 227.000000 84.000000 lineto 226.000000 84.000000 lineto 225.000000 84.000000 lineto 224.000000 84.000000 lineto 224.000000 83.000000 lineto 223.000000 83.000000 lineto 222.000000 83.000000 lineto 221.000000 83.000000 lineto 221.000000 82.000000 lineto 220.000000 82.000000 lineto 219.000000 82.000000 lineto 218.000000 82.000000 lineto 218.000000 81.000000 lineto 217.000000 81.000000 lineto 216.000000 81.000000 lineto 216.000000 80.000000 lineto 215.000000 80.000000 lineto 215.000000 79.000000 lineto 214.000000 79.000000 lineto 213.000000 79.000000 lineto 213.000000 78.000000 lineto 212.000000 78.000000 lineto 211.000000 78.000000 lineto 211.000000 77.000000 lineto 210.000000 77.000000 lineto 209.000000 77.000000 lineto 209.000000 76.000000 lineto 208.000000 76.000000 lineto 208.000000 75.000000 lineto 207.000000 75.000000 lineto 206.000000 75.000000 lineto 206.000000 74.000000 lineto 205.000000 74.000000 lineto 205.000000 73.000000 lineto 204.000000 73.000000 lineto 203.000000 73.000000 lineto 203.000000 72.000000 lineto 202.000000 72.000000 lineto 202.000000 71.000000 lineto 201.000000 71.000000 lineto 200.000000 71.000000 lineto 200.000000 70.000000 lineto 199.000000 70.000000 lineto 198.000000 70.000000 lineto 198.000000 69.000000 lineto 197.000000 69.000000 lineto 196.000000 69.000000 lineto 195.000000 69.000000 lineto 195.000000 68.000000 lineto 194.000000 68.000000 lineto 193.000000 68.000000 lineto 193.000000 67.000000 lineto 192.000000 67.000000 lineto 191.000000 67.000000 lineto 190.000000 67.000000 lineto 189.000000 67.000000 lineto 189.000000 66.000000 lineto 188.000000 66.000000 lineto 187.000000 66.000000 lineto 186.000000 66.000000 lineto 185.000000 66.000000 lineto 184.000000 66.000000 lineto 183.000000 66.000000 lineto 182.000000 66.000000 lineto 181.000000 66.000000 lineto 180.000000 66.000000 lineto 180.000000 65.000000 lineto 179.000000 65.000000 lineto 179.000000 64.000000 lineto 179.000000 63.000000 lineto 179.000000 62.000000 lineto 179.000000 61.000000 lineto 179.000000 60.000000 lineto 179.000000 59.000000 lineto 178.000000 59.000000 lineto 178.000000 58.000000 lineto 178.000000 57.000000 lineto 178.000000 56.000000 lineto 177.000000 56.000000 lineto 177.000000 55.000000 lineto 177.000000 54.000000 lineto 177.000000 53.000000 lineto 176.000000 53.000000 lineto 176.000000 52.000000 lineto 176.000000 51.000000 lineto 175.000000 51.000000 lineto 175.000000 50.000000 lineto 175.000000 49.000000 lineto 174.000000 49.000000 lineto 174.000000 48.000000 lineto 174.000000 47.000000 lineto 173.000000 47.000000 lineto 173.000000 46.000000 lineto 173.000000 45.000000 lineto 173.000000 44.000000 lineto 173.000000 43.000000 lineto 174.000000 43.000000 lineto 174.000000 42.000000 lineto 174.000000 41.000000 lineto 175.000000 41.000000 lineto 175.000000 40.000000 lineto 175.000000 39.000000 lineto 175.000000 38.000000 lineto 175.000000 37.000000 lineto 175.000000 36.000000 lineto 175.000000 35.000000 lineto 175.000000 34.000000 lineto 175.000000 33.000000 lineto 174.000000 33.000000 lineto 174.000000 32.000000 lineto 173.000000 32.000000 lineto 173.000000 31.000000 lineto 172.000000 31.000000 lineto 172.000000 30.000000 lineto 171.000000 30.000000 lineto 171.000000 29.000000 lineto 170.000000 29.000000 lineto 170.000000 28.000000 lineto 169.000000 28.000000 lineto 169.000000 27.000000 lineto 168.000000 27.000000 lineto 167.000000 27.000000 lineto 167.000000 26.000000 lineto 166.000000 26.000000 lineto 165.000000 26.000000 lineto 165.000000 25.000000 lineto 164.000000 25.000000 lineto 163.000000 25.000000 lineto 163.000000 24.000000 lineto 162.000000 24.000000 lineto 161.000000 24.000000 lineto 161.000000 23.000000 lineto 160.000000 23.000000 lineto 159.000000 23.000000 lineto 159.000000 22.000000 lineto 158.000000 22.000000 lineto 157.000000 22.000000 lineto 157.000000 21.000000 lineto 156.000000 21.000000 lineto 155.000000 21.000000 lineto 154.000000 21.000000 lineto 154.000000 20.000000 lineto 153.000000 20.000000 lineto 153.000000 21.000000 lineto 152.000000 21.000000 lineto 151.000000 21.000000 lineto 150.000000 21.000000 lineto 149.000000 21.000000 lineto 149.000000 22.000000 lineto 148.000000 22.000000 lineto 147.000000 22.000000 lineto 146.000000 22.000000 lineto 146.000000 23.000000 lineto 145.000000 23.000000 lineto 144.000000 23.000000 lineto 144.000000 24.000000 lineto 143.000000 24.000000 lineto 143.000000 25.000000 lineto 142.000000 25.000000 lineto 142.000000 26.000000 lineto 141.000000 26.000000 lineto 141.000000 27.000000 lineto 141.000000 28.000000 lineto 140.000000 28.000000 lineto 139.000000 28.000000 lineto 138.000000 28.000000 lineto 137.000000 28.000000 lineto 136.000000 28.000000 lineto 135.000000 28.000000 lineto 135.000000 27.000000 lineto 134.000000 27.000000 lineto 133.000000 27.000000 lineto 132.000000 27.000000 lineto 131.000000 27.000000 lineto 130.000000 27.000000 lineto 130.000000 26.000000 lineto 129.000000 26.000000 lineto 128.000000 26.000000 lineto 127.000000 26.000000 lineto 126.000000 26.000000 lineto 126.000000 25.000000 lineto 125.000000 25.000000 lineto 124.000000 25.000000 lineto 123.000000 25.000000 lineto 122.000000 25.000000 lineto 122.000000 24.000000 lineto 121.000000 24.000000 lineto 121.000000 25.000000 lineto 120.000000 25.000000 lineto 119.000000 25.000000 lineto 119.000000 24.000000 lineto 118.000000 24.000000 lineto 117.000000 24.000000 lineto 116.000000 24.000000 lineto 115.000000 24.000000 lineto 115.000000 23.000000 lineto 114.000000 23.000000 lineto 113.000000 23.000000 lineto 112.000000 23.000000 lineto 112.000000 22.000000 lineto 111.000000 22.000000 lineto 110.000000 22.000000 lineto 109.000000 22.000000 lineto 108.000000 22.000000 lineto 108.000000 21.000000 lineto 107.000000 21.000000 lineto 106.000000 21.000000 lineto 105.000000 21.000000 lineto 105.000000 20.000000 lineto 104.000000 20.000000 lineto 103.000000 20.000000 lineto 102.000000 20.000000 lineto 101.000000 20.000000 lineto 101.000000 19.000000 lineto 100.000000 19.000000 lineto 99.000000 19.000000 lineto 98.000000 19.000000 lineto 98.000000 18.000000 lineto 97.000000 18.000000 lineto 96.000000 18.000000 lineto 95.000000 18.000000 lineto 94.000000 18.000000 lineto 94.000000 17.000000 lineto 93.000000 17.000000 lineto 92.000000 17.000000 lineto 91.000000 17.000000 lineto 91.000000 16.000000 lineto 90.000000 16.000000 lineto 89.000000 16.000000 lineto 88.000000 16.000000 lineto 87.000000 16.000000 lineto 87.000000 15.000000 lineto 86.000000 15.000000 lineto 85.000000 15.000000 lineto 84.000000 15.000000 lineto 84.000000 14.000000 lineto 83.000000 14.000000 lineto 82.000000 14.000000 lineto 81.000000 14.000000 lineto 80.000000 14.000000 lineto 80.000000 13.000000 lineto 79.000000 13.000000 lineto 79.000000 14.000000 lineto 78.000000 14.000000 lineto 78.000000 13.000000 lineto 77.000000 13.000000 lineto 77.000000 12.000000 lineto 76.000000 12.000000 lineto 75.000000 12.000000 lineto 75.000000 11.000000 lineto 74.000000 11.000000 lineto 74.000000 10.000000 lineto 73.000000 10.000000 lineto 72.000000 10.000000 lineto 71.000000 10.000000 lineto 70.000000 10.000000 lineto 70.000000 11.000000 lineto 69.000000 11.000000 lineto 68.000000 11.000000 lineto 67.000000 11.000000 lineto 67.000000 12.000000 lineto 66.000000 12.000000 lineto 65.000000 12.000000 lineto 65.000000 13.000000 lineto 64.000000 13.000000 lineto 63.000000 13.000000 lineto 62.000000 13.000000 lineto 62.000000 14.000000 lineto 61.000000 14.000000 lineto 60.000000 14.000000 lineto 60.000000 15.000000 lineto 59.000000 15.000000 lineto 58.000000 15.000000 lineto 58.000000 16.000000 lineto 57.000000 16.000000 lineto 57.000000 15.000000 lineto 56.000000 15.000000 lineto 55.000000 15.000000 lineto 54.000000 15.000000 lineto 53.000000 15.000000 lineto 52.000000 15.000000 lineto 51.000000 15.000000 lineto 51.000000 16.000000 lineto 50.000000 16.000000 lineto 49.000000 16.000000 lineto 49.000000 17.000000 lineto 48.000000 17.000000 lineto 48.000000 18.000000 lineto 47.000000 18.000000 lineto 47.000000 19.000000 lineto 47.000000 20.000000 lineto 47.000000 21.000000 lineto 47.000000 22.000000 lineto 47.000000 23.000000 lineto 47.000000 24.000000 lineto 48.000000 24.000000 lineto 48.000000 25.000000 lineto 48.000000 26.000000 lineto 49.000000 26.000000 lineto 49.000000 27.000000 lineto 50.000000 27.000000 lineto 51.000000 27.000000 lineto 51.000000 28.000000 lineto 52.000000 28.000000 lineto 52.000000 29.000000 lineto 53.000000 29.000000 lineto 54.000000 29.000000 lineto 54.000000 30.000000 lineto 55.000000 30.000000 lineto 56.000000 30.000000 lineto 56.000000 31.000000 lineto 57.000000 31.000000 lineto 58.000000 31.000000 lineto 58.000000 32.000000 lineto 59.000000 32.000000 lineto 59.000000 33.000000 lineto 58.000000 33.000000 lineto 58.000000 34.000000 lineto 57.000000 34.000000 lineto 57.000000 35.000000 lineto 56.000000 35.000000 lineto 56.000000 36.000000 lineto 55.000000 36.000000 lineto 55.000000 37.000000 lineto 54.000000 37.000000 lineto 54.000000 38.000000 lineto 53.000000 38.000000 lineto 53.000000 39.000000 lineto 52.000000 39.000000 lineto 52.000000 40.000000 lineto 52.000000 41.000000 lineto 51.000000 41.000000 lineto 51.000000 42.000000 lineto 50.000000 42.000000 lineto 50.000000 43.000000 lineto 49.000000 43.000000 lineto 49.000000 44.000000 lineto 48.000000 44.000000 lineto 48.000000 45.000000 lineto 48.000000 46.000000 lineto 47.000000 46.000000 lineto 47.000000 47.000000 lineto 46.000000 47.000000 lineto 46.000000 48.000000 lineto 46.000000 49.000000 lineto 45.000000 49.000000 lineto 45.000000 50.000000 lineto 44.000000 50.000000 lineto 44.000000 51.000000 lineto 43.000000 51.000000 lineto 43.000000 52.000000 lineto 42.000000 52.000000 lineto 42.000000 53.000000 lineto 41.000000 53.000000 lineto 41.000000 54.000000 lineto 40.000000 54.000000 lineto 40.000000 55.000000 lineto 39.000000 55.000000 lineto 39.000000 56.000000 lineto 38.000000 56.000000 lineto 38.000000 57.000000 lineto 37.000000 57.000000 lineto 37.000000 58.000000 lineto 36.000000 58.000000 lineto 35.000000 58.000000 lineto 35.000000 59.000000 lineto 34.000000 59.000000 lineto 34.000000 60.000000 lineto 33.000000 60.000000 lineto 33.000000 61.000000 lineto 32.000000 61.000000 lineto 32.000000 62.000000 lineto 32.000000 63.000000 lineto 31.000000 63.000000 lineto 31.000000 64.000000 lineto 30.000000 64.000000 lineto 30.000000 65.000000 lineto 29.000000 65.000000 lineto 29.000000 66.000000 lineto 28.000000 66.000000 lineto 28.000000 67.000000 lineto 27.000000 67.000000 lineto 27.000000 68.000000 lineto 26.000000 68.000000 lineto 26.000000 69.000000 lineto 25.000000 69.000000 lineto 25.000000 70.000000 lineto 24.000000 70.000000 lineto 24.000000 71.000000 lineto 24.000000 72.000000 lineto 23.000000 72.000000 lineto 23.000000 73.000000 lineto 22.000000 73.000000 lineto 22.000000 74.000000 lineto 21.000000 74.000000 lineto 21.000000 75.000000 lineto 21.000000 76.000000 lineto 20.000000 76.000000 lineto 20.000000 77.000000 lineto 19.000000 77.000000 lineto 19.000000 78.000000 lineto 19.000000 79.000000 lineto 18.000000 79.000000 lineto 18.000000 80.000000 lineto 18.000000 81.000000 lineto 17.000000 81.000000 lineto 17.000000 82.000000 lineto 17.000000 83.000000 lineto 16.000000 83.000000 lineto 16.000000 84.000000 lineto 16.000000 85.000000 lineto 15.000000 85.000000 lineto 15.000000 86.000000 lineto 15.000000 87.000000 lineto 15.000000 88.000000 lineto 15.000000 89.000000 lineto 14.000000 89.000000 lineto 14.000000 90.000000 lineto 14.000000 91.000000 lineto 14.000000 92.000000 lineto 14.000000 93.000000 lineto 14.000000 94.000000 lineto 13.000000 94.000000 lineto 13.000000 95.000000 lineto 13.000000 96.000000 lineto 13.000000 97.000000 lineto 13.000000 98.000000 lineto 13.000000 99.000000 lineto 13.000000 100.000000 lineto 13.000000 101.000000 lineto 13.000000 102.000000 lineto 12.000000 102.000000 lineto 12.000000 103.000000 lineto 11.000000 103.000000 lineto 11.000000 104.000000 lineto 11.000000 105.000000 lineto 10.000000 105.000000 lineto 10.000000 106.000000 lineto 10.000000 107.000000 lineto 10.000000 108.000000 lineto 9.000000 108.000000 lineto 9.000000 109.000000 lineto 9.000000 110.000000 lineto 9.000000 111.000000 lineto 9.000000 112.000000 lineto 8.000000 112.000000 lineto 8.000000 113.000000 lineto 8.000000 114.000000 lineto 8.000000 115.000000 lineto 8.000000 116.000000 lineto 8.000000 117.000000 lineto 7.000000 117.000000 lineto 7.000000 118.000000 lineto 7.000000 119.000000 lineto 7.000000 120.000000 lineto 7.000000 121.000000 lineto 7.000000 122.000000 lineto 7.000000 123.000000 lineto 6.000000 123.000000 lineto 6.000000 124.000000 lineto 6.000000 125.000000 lineto 6.000000 126.000000 lineto 6.000000 127.000000 lineto 6.000000 128.000000 lineto 6.000000 129.000000 lineto 5.000000 129.000000 lineto 5.000000 130.000000 lineto 5.000000 131.000000 lineto 6.000000 131.000000 lineto 6.000000 132.000000 lineto 6.000000 133.000000 lineto 7.000000 133.000000 lineto 8.000000 133.000000 lineto 8.000000 134.000000 lineto 9.000000 134.000000 lineto 10.000000 134.000000 lineto 10.000000 133.000000 lineto 11.000000 133.000000 lineto 12.000000 133.000000 lineto 12.000000 132.000000 lineto 13.000000 132.000000 lineto 13.000000 131.000000 lineto 14.000000 131.000000 lineto 14.000000 130.000000 lineto 15.000000 130.000000 lineto 16.000000 130.000000 lineto 16.000000 129.000000 lineto 17.000000 129.000000 lineto 17.000000 128.000000 lineto 18.000000 128.000000 lineto 18.000000 127.000000 lineto 19.000000 127.000000 lineto 19.000000 126.000000 lineto 20.000000 126.000000 lineto 20.000000 125.000000 lineto 21.000000 125.000000 lineto 21.000000 124.000000 lineto 22.000000 124.000000 lineto 22.000000 123.000000 lineto 23.000000 123.000000 lineto 24.000000 123.000000 lineto 24.000000 122.000000 lineto 25.000000 122.000000 lineto 25.000000 121.000000 lineto 26.000000 121.000000 lineto 26.000000 120.000000 lineto 27.000000 120.000000 lineto 27.000000 119.000000 lineto 28.000000 119.000000 lineto 29.000000 119.000000 lineto 29.000000 118.000000 lineto 30.000000 118.000000 lineto 31.000000 118.000000 lineto 32.000000 118.000000 lineto 33.000000 118.000000 lineto 34.000000 118.000000 lineto 35.000000 118.000000 lineto 36.000000 118.000000 lineto 36.000000 119.000000 lineto 37.000000 119.000000 lineto 38.000000 119.000000 lineto 39.000000 119.000000 lineto 40.000000 119.000000 lineto 41.000000 119.000000 lineto 42.000000 119.000000 lineto 42.000000 120.000000 lineto 43.000000 120.000000 lineto 44.000000 120.000000 lineto 45.000000 120.000000 lineto 46.000000 120.000000 lineto 47.000000 120.000000 lineto 48.000000 120.000000 lineto 49.000000 120.000000 lineto 50.000000 120.000000 lineto 51.000000 120.000000 lineto 51.000000 121.000000 lineto 52.000000 121.000000 lineto 53.000000 121.000000 lineto 53.000000 122.000000 lineto 54.000000 122.000000 lineto 54.000000 123.000000 lineto 55.000000 123.000000 lineto 56.000000 123.000000 lineto 56.000000 124.000000 lineto 57.000000 124.000000 lineto 57.000000 125.000000 lineto 58.000000 125.000000 lineto 58.000000 126.000000 lineto 59.000000 126.000000 lineto 59.000000 127.000000 lineto 60.000000 127.000000 lineto 60.000000 128.000000 lineto 61.000000 128.000000 lineto 61.000000 129.000000 lineto 62.000000 129.000000 lineto 62.000000 130.000000 lineto 63.000000 130.000000 lineto 63.000000 131.000000 lineto 64.000000 131.000000 lineto 64.000000 132.000000 lineto 65.000000 132.000000 lineto 65.000000 133.000000 lineto 66.000000 133.000000 lineto 66.000000 134.000000 lineto 67.000000 134.000000 lineto 67.000000 135.000000 lineto 68.000000 135.000000 lineto 68.000000 136.000000 lineto 69.000000 136.000000 lineto 69.000000 137.000000 lineto 70.000000 137.000000 lineto 70.000000 138.000000 lineto 
0.05 setlinewidth stroke
newpath 70.000000 138.000000 0.2 0 360 arc fill closepath newpath 71.000000 138.000000 0.2 0 360 arc fill closepath newpath 72.000000 138.000000 0.2 0 360 arc fill closepath newpath 73.000000 138.000000 0.2 0 360 arc fill closepath newpath 74.000000 138.000000 0.2 0 360 arc fill closepath newpath 74.000000 137.000000 0.2 0 360 arc fill closepath newpath 75.000000 137.000000 0.2 0 360 arc fill closepath newpath 76.000000 137.000000 0.2 0 360 arc fill closepath newpath 76.000000 136.000000 0.2 0 360 arc fill closepath newpath 76.000000 135.000000 0.2 0 360 arc fill closepath newpath 76.000000 134.000000 0.2 0 360 arc fill closepath newpath 77.000000 134.000000 0.2 0 360 arc fill closepath newpath 77.000000 133.000000 0.2 0 360 arc fill closepath newpath 77.000000 132.000000 0.2 0 360 arc fill closepath newpath 77.000000 131.000000 0.2 0 360 arc fill closepath newpath 77.000000 130.000000 0.2 0 360 arc fill closepath newpath 77.000000 129.000000 0.2 0 360 arc fill closepath newpath 77.000000 128.000000 0.2 0 360 arc fill closepath newpath 77.000000 127.000000 0.2 0 360 arc fill closepath newpath 77.000000 126.000000 0.2 0 360 arc fill closepath newpath 77.000000 125.000000 0.2 0 360 arc fill closepath newpath 77.000000 124.000000 0.2 0 360 arc fill closepath newpath 77.000000 123.000000 0.2 0 360 arc fill closepath newpath 77.000000 122.000000 0.2 0 360 arc fill closepath newpath 77.000000 121.000000 0.2 0 360 arc fill closepath newpath 77.000000 120.000000 0.2 0 360 arc fill closepath newpath 77.000000 119.000000 0.2 0 360 arc fill closepath newpath 77.000000 118.000000 0.2 0 360 arc fill closepath newpath 77.000000 117.000000 0.2 0 360 arc fill closepath newpath 77.000000 116.000000 0.2 0 360 arc fill closepath newpath 76.000000 116.000000 0.2 0 360 arc fill closepath newpath 76.000000 115.000000 0.2 0 360 arc fill closepath newpath 76.000000 114.000000 0.2 0 360 arc fill closepath newpath 76.000000 113.000000 0.2 0 360 arc fill closepath newpath 76.000000 112.000000 0.2 0 360 arc fill closepath newpath 76.000000 111.000000 0.2 0 360 arc fill closepath newpath 76.000000 110.000000 0.2 0 360 arc fill closepath newpath 75.000000 110.000000 0.2 0 360 arc fill closepath newpath 75.000000 109.000000 0.2 0 360 arc fill closepath newpath 75.000000 108.000000 0.2 0 360 arc fill closepath newpath 75.000000 107.000000 0.2 0 360 arc fill closepath newpath 75.000000 106.000000 0.2 0 360 arc fill closepath newpath 75.000000 105.000000 0.2 0 360 arc fill closepath newpath 75.000000 104.000000 0.2 0 360 arc fill closepath newpath 74.000000 104.000000 0.2 0 360 arc fill closepath newpath 74.000000 103.000000 0.2 0 360 arc fill closepath newpath 74.000000 102.000000 0.2 0 360 arc fill closepath newpath 75.000000 102.000000 0.2 0 360 arc fill closepath newpath 75.000000 101.000000 0.2 0 360 arc fill closepath newpath 76.000000 101.000000 0.2 0 360 arc fill closepath newpath 76.000000 102.000000 0.2 0 360 arc fill closepath newpath 77.000000 102.000000 0.2 0 360 arc fill closepath newpath 78.000000 102.000000 0.2 0 360 arc fill closepath newpath 78.000000 103.000000 0.2 0 360 arc fill closepath newpath 79.000000 103.000000 0.2 0 360 arc fill closepath newpath 80.000000 103.000000 0.2 0 360 arc fill closepath newpath 81.000000 103.000000 0.2 0 360 arc fill closepath newpath 81.000000 104.000000 0.2 0 360 arc fill closepath newpath 82.000000 104.000000 0.2 0 360 arc fill closepath newpath 83.000000 104.000000 0.2 0 360 arc fill closepath newpath 83.000000 105.000000 0.2 0 360 arc fill closepath newpath 84.000000 105.000000 0.2 0 360 arc fill closepath newpath 85.000000 105.000000 0.2 0 360 arc fill closepath newpath 85.000000 106.000000 0.2 0 360 arc fill closepath newpath 86.000000 106.000000 0.2 0 360 arc fill closepath newpath 87.000000 106.000000 0.2 0 360 arc fill closepath newpath 88.000000 106.000000 0.2 0 360 arc fill closepath newpath 88.000000 107.000000 0.2 0 360 arc fill closepath newpath 89.000000 107.000000 0.2 0 360 arc fill closepath newpath 90.000000 107.000000 0.2 0 360 arc fill closepath newpath 90.000000 108.000000 0.2 0 360 arc fill closepath newpath 91.000000 108.000000 0.2 0 360 arc fill closepath newpath 92.000000 108.000000 0.2 0 360 arc fill closepath newpath 93.000000 108.000000 0.2 0 360 arc fill closepath newpath 93.000000 109.000000 0.2 0 360 arc fill closepath newpath 94.000000 109.000000 0.2 0 360 arc fill closepath newpath 95.000000 109.000000 0.2 0 360 arc fill closepath newpath 95.000000 110.000000 0.2 0 360 arc fill closepath newpath 96.000000 110.000000 0.2 0 360 arc fill closepath newpath 97.000000 110.000000 0.2 0 360 arc fill closepath newpath 98.000000 110.000000 0.2 0 360 arc fill closepath newpath 98.000000 111.000000 0.2 0 360 arc fill closepath newpath 99.000000 111.000000 0.2 0 360 arc fill closepath newpath 100.000000 111.000000 0.2 0 360 arc fill closepath newpath 100.000000 112.000000 0.2 0 360 arc fill closepath newpath 101.000000 112.000000 0.2 0 360 arc fill closepath newpath 102.000000 112.000000 0.2 0 360 arc fill closepath newpath 103.000000 112.000000 0.2 0 360 arc fill closepath newpath 103.000000 113.000000 0.2 0 360 arc fill closepath newpath 104.000000 113.000000 0.2 0 360 arc fill closepath newpath 105.000000 113.000000 0.2 0 360 arc fill closepath newpath 106.000000 113.000000 0.2 0 360 arc fill closepath newpath 106.000000 114.000000 0.2 0 360 arc fill closepath newpath 107.000000 114.000000 0.2 0 360 arc fill closepath newpath 108.000000 114.000000 0.2 0 360 arc fill closepath newpath 109.000000 114.000000 0.2 0 360 arc fill closepath newpath 109.000000 115.000000 0.2 0 360 arc fill closepath newpath 110.000000 115.000000 0.2 0 360 arc fill closepath newpath 111.000000 115.000000 0.2 0 360 arc fill closepath newpath 112.000000 115.000000 0.2 0 360 arc fill closepath newpath 112.000000 116.000000 0.2 0 360 arc fill closepath newpath 113.000000 116.000000 0.2 0 360 arc fill closepath newpath 114.000000 116.000000 0.2 0 360 arc fill closepath newpath 115.000000 116.000000 0.2 0 360 arc fill closepath newpath 116.000000 116.000000 0.2 0 360 arc fill closepath newpath 116.000000 117.000000 0.2 0 360 arc fill closepath newpath 117.000000 117.000000 0.2 0 360 arc fill closepath newpath 118.000000 117.000000 0.2 0 360 arc fill closepath newpath 119.000000 117.000000 0.2 0 360 arc fill closepath newpath 120.000000 117.000000 0.2 0 360 arc fill closepath newpath 120.000000 118.000000 0.2 0 360 arc fill closepath newpath 121.000000 118.000000 0.2 0 360 arc fill closepath newpath 122.000000 118.000000 0.2 0 360 arc fill closepath newpath 123.000000 118.000000 0.2 0 360 arc fill closepath newpath 124.000000 118.000000 0.2 0 360 arc fill closepath newpath 125.000000 118.000000 0.2 0 360 arc fill closepath newpath 126.000000 118.000000 0.2 0 360 arc fill closepath newpath 127.000000 118.000000 0.2 0 360 arc fill closepath newpath 128.000000 118.000000 0.2 0 360 arc fill closepath newpath 129.000000 118.000000 0.2 0 360 arc fill closepath newpath 130.000000 118.000000 0.2 0 360 arc fill closepath newpath 131.000000 118.000000 0.2 0 360 arc fill closepath newpath 132.000000 118.000000 0.2 0 360 arc fill closepath newpath 133.000000 118.000000 0.2 0 360 arc fill closepath newpath 134.000000 118.000000 0.2 0 360 arc fill closepath newpath 135.000000 118.000000 0.2 0 360 arc fill closepath newpath 136.000000 118.000000 0.2 0 360 arc fill closepath newpath 136.000000 117.000000 0.2 0 360 arc fill closepath newpath 137.000000 117.000000 0.2 0 360 arc fill closepath newpath 138.000000 117.000000 0.2 0 360 arc fill closepath newpath 139.000000 117.000000 0.2 0 360 arc fill closepath newpath 140.000000 117.000000 0.2 0 360 arc fill closepath newpath 141.000000 117.000000 0.2 0 360 arc fill closepath newpath 141.000000 116.000000 0.2 0 360 arc fill closepath newpath 142.000000 116.000000 0.2 0 360 arc fill closepath newpath 143.000000 116.000000 0.2 0 360 arc fill closepath newpath 144.000000 116.000000 0.2 0 360 arc fill closepath newpath 145.000000 116.000000 0.2 0 360 arc fill closepath newpath 145.000000 115.000000 0.2 0 360 arc fill closepath newpath 146.000000 115.000000 0.2 0 360 arc fill closepath newpath 147.000000 115.000000 0.2 0 360 arc fill closepath newpath 148.000000 115.000000 0.2 0 360 arc fill closepath newpath 148.000000 114.000000 0.2 0 360 arc fill closepath newpath 149.000000 114.000000 0.2 0 360 arc fill closepath newpath 150.000000 114.000000 0.2 0 360 arc fill closepath newpath 150.000000 113.000000 0.2 0 360 arc fill closepath newpath 151.000000 113.000000 0.2 0 360 arc fill closepath newpath 152.000000 113.000000 0.2 0 360 arc fill closepath newpath 152.000000 112.000000 0.2 0 360 arc fill closepath newpath 153.000000 112.000000 0.2 0 360 arc fill closepath newpath 154.000000 112.000000 0.2 0 360 arc fill closepath newpath 154.000000 111.000000 0.2 0 360 arc fill closepath newpath 155.000000 111.000000 0.2 0 360 arc fill closepath newpath 155.000000 110.000000 0.2 0 360 arc fill closepath newpath 156.000000 110.000000 0.2 0 360 arc fill closepath newpath 157.000000 110.000000 0.2 0 360 arc fill closepath newpath 157.000000 109.000000 0.2 0 360 arc fill closepath newpath 158.000000 109.000000 0.2 0 360 arc fill closepath newpath 158.000000 108.000000 0.2 0 360 arc fill closepath newpath 159.000000 108.000000 0.2 0 360 arc fill closepath newpath 159.000000 107.000000 0.2 0 360 arc fill closepath newpath 160.000000 107.000000 0.2 0 360 arc fill closepath newpath 160.000000 106.000000 0.2 0 360 arc fill closepath newpath 161.000000 106.000000 0.2 0 360 arc fill closepath newpath 162.000000 106.000000 0.2 0 360 arc fill closepath newpath 162.000000 105.000000 0.2 0 360 arc fill closepath newpath 163.000000 105.000000 0.2 0 360 arc fill closepath newpath 163.000000 104.000000 0.2 0 360 arc fill closepath newpath 164.000000 104.000000 0.2 0 360 arc fill closepath newpath 164.000000 103.000000 0.2 0 360 arc fill closepath newpath 164.000000 102.000000 0.2 0 360 arc fill closepath newpath 165.000000 102.000000 0.2 0 360 arc fill closepath newpath 165.000000 101.000000 0.2 0 360 arc fill closepath newpath 166.000000 101.000000 0.2 0 360 arc fill closepath newpath 166.000000 100.000000 0.2 0 360 arc fill closepath newpath 167.000000 100.000000 0.2 0 360 arc fill closepath newpath 167.000000 99.000000 0.2 0 360 arc fill closepath newpath 168.000000 99.000000 0.2 0 360 arc fill closepath newpath 168.000000 98.000000 0.2 0 360 arc fill closepath newpath 168.000000 97.000000 0.2 0 360 arc fill closepath newpath 169.000000 97.000000 0.2 0 360 arc fill closepath newpath 169.000000 96.000000 0.2 0 360 arc fill closepath newpath 170.000000 96.000000 0.2 0 360 arc fill closepath newpath 170.000000 95.000000 0.2 0 360 arc fill closepath newpath 170.000000 94.000000 0.2 0 360 arc fill closepath newpath 171.000000 94.000000 0.2 0 360 arc fill closepath newpath 171.000000 93.000000 0.2 0 360 arc fill closepath newpath 171.000000 92.000000 0.2 0 360 arc fill closepath newpath 172.000000 92.000000 0.2 0 360 arc fill closepath newpath 172.000000 91.000000 0.2 0 360 arc fill closepath newpath 173.000000 91.000000 0.2 0 360 arc fill closepath newpath 173.000000 90.000000 0.2 0 360 arc fill closepath newpath 173.000000 89.000000 0.2 0 360 arc fill closepath newpath 174.000000 89.000000 0.2 0 360 arc fill closepath newpath 174.000000 88.000000 0.2 0 360 arc fill closepath newpath 174.000000 87.000000 0.2 0 360 arc fill closepath newpath 174.000000 86.000000 0.2 0 360 arc fill closepath newpath 175.000000 86.000000 0.2 0 360 arc fill closepath newpath 175.000000 85.000000 0.2 0 360 arc fill closepath newpath 175.000000 84.000000 0.2 0 360 arc fill closepath newpath 176.000000 84.000000 0.2 0 360 arc fill closepath newpath 176.000000 83.000000 0.2 0 360 arc fill closepath newpath 176.000000 82.000000 0.2 0 360 arc fill closepath newpath 177.000000 82.000000 0.2 0 360 arc fill closepath newpath 177.000000 81.000000 0.2 0 360 arc fill closepath newpath 177.000000 80.000000 0.2 0 360 arc fill closepath newpath 178.000000 80.000000 0.2 0 360 arc fill closepath newpath 179.000000 80.000000 0.2 0 360 arc fill closepath newpath 179.000000 79.000000 0.2 0 360 arc fill closepath newpath 180.000000 79.000000 0.2 0 360 arc fill closepath newpath 181.000000 79.000000 0.2 0 360 arc fill closepath newpath 182.000000 79.000000 0.2 0 360 arc fill closepath newpath 182.000000 78.000000 0.2 0 360 arc fill closepath newpath 183.000000 78.000000 0.2 0 360 arc fill closepath newpath 184.000000 78.000000 0.2 0 360 arc fill closepath newpath 185.000000 78.000000 0.2 0 360 arc fill closepath newpath 186.000000 78.000000 0.2 0 360 arc fill closepath newpath 187.000000 78.000000 0.2 0 360 arc fill closepath newpath 188.000000 78.000000 0.2 0 360 arc fill closepath newpath 189.000000 78.000000 0.2 0 360 arc fill closepath newpath 190.000000 78.000000 0.2 0 360 arc fill closepath newpath 190.000000 79.000000 0.2 0 360 arc fill closepath newpath 191.000000 79.000000 0.2 0 360 arc fill closepath newpath 192.000000 79.000000 0.2 0 360 arc fill closepath newpath 193.000000 79.000000 0.2 0 360 arc fill closepath newpath 193.000000 80.000000 0.2 0 360 arc fill closepath newpath 194.000000 80.000000 0.2 0 360 arc fill closepath newpath 195.000000 80.000000 0.2 0 360 arc fill closepath newpath 196.000000 80.000000 0.2 0 360 arc fill closepath newpath 196.000000 81.000000 0.2 0 360 arc fill closepath newpath 197.000000 81.000000 0.2 0 360 arc fill closepath newpath 198.000000 81.000000 0.2 0 360 arc fill closepath newpath 198.000000 82.000000 0.2 0 360 arc fill closepath newpath 199.000000 82.000000 0.2 0 360 arc fill closepath newpath 200.000000 82.000000 0.2 0 360 arc fill closepath newpath 200.000000 83.000000 0.2 0 360 arc fill closepath newpath 201.000000 83.000000 0.2 0 360 arc fill closepath newpath 202.000000 83.000000 0.2 0 360 arc fill closepath newpath 202.000000 84.000000 0.2 0 360 arc fill closepath newpath 203.000000 84.000000 0.2 0 360 arc fill closepath newpath 204.000000 84.000000 0.2 0 360 arc fill closepath newpath 204.000000 85.000000 0.2 0 360 arc fill closepath newpath 205.000000 85.000000 0.2 0 360 arc fill closepath newpath 206.000000 85.000000 0.2 0 360 arc fill closepath newpath 206.000000 86.000000 0.2 0 360 arc fill closepath newpath 207.000000 86.000000 0.2 0 360 arc fill closepath newpath 208.000000 86.000000 0.2 0 360 arc fill closepath newpath 208.000000 87.000000 0.2 0 360 arc fill closepath newpath 209.000000 87.000000 0.2 0 360 arc fill closepath newpath 209.000000 88.000000 0.2 0 360 arc fill closepath newpath 210.000000 88.000000 0.2 0 360 arc fill closepath newpath 211.000000 88.000000 0.2 0 360 arc fill closepath newpath 211.000000 89.000000 0.2 0 360 arc fill closepath newpath 212.000000 89.000000 0.2 0 360 arc fill closepath newpath 213.000000 89.000000 0.2 0 360 arc fill closepath newpath 213.000000 90.000000 0.2 0 360 arc fill closepath newpath 214.000000 90.000000 0.2 0 360 arc fill closepath newpath 215.000000 90.000000 0.2 0 360 arc fill closepath newpath 215.000000 91.000000 0.2 0 360 arc fill closepath newpath 216.000000 91.000000 0.2 0 360 arc fill closepath newpath 217.000000 91.000000 0.2 0 360 arc fill closepath newpath 217.000000 92.000000 0.2 0 360 arc fill closepath newpath 218.000000 92.000000 0.2 0 360 arc fill closepath newpath 219.000000 92.000000 0.2 0 360 arc fill closepath newpath 220.000000 92.000000 0.2 0 360 arc fill closepath newpath 220.000000 93.000000 0.2 0 360 arc fill closepath newpath 221.000000 93.000000 0.2 0 360 arc fill closepath newpath 222.000000 93.000000 0.2 0 360 arc fill closepath newpath 223.000000 93.000000 0.2 0 360 arc fill closepath newpath 224.000000 93.000000 0.2 0 360 arc fill closepath newpath 225.000000 93.000000 0.2 0 360 arc fill closepath newpath 226.000000 93.000000 0.2 0 360 arc fill closepath newpath 227.000000 93.000000 0.2 0 360 arc fill closepath newpath 228.000000 93.000000 0.2 0 360 arc fill closepath newpath 229.000000 93.000000 0.2 0 360 arc fill closepath newpath 230.000000 93.000000 0.2 0 360 arc fill closepath newpath 231.000000 93.000000 0.2 0 360 arc fill closepath newpath 232.000000 93.000000 0.2 0 360 arc fill closepath newpath 233.000000 93.000000 0.2 0 360 arc fill closepath newpath 234.000000 93.000000 0.2 0 360 arc fill closepath newpath 235.000000 93.000000 0.2 0 360 arc fill closepath newpath 235.000000 92.000000 0.2 0 360 arc fill closepath newpath 236.000000 92.000000 0.2 0 360 arc fill closepath newpath 237.000000 92.000000 0.2 0 360 arc fill closepath newpath 237.000000 91.000000 0.2 0 360 arc fill closepath newpath 238.000000 91.000000 0.2 0 360 arc fill closepath newpath 239.000000 91.000000 0.2 0 360 arc fill closepath newpath 239.000000 90.000000 0.2 0 360 arc fill closepath newpath 239.000000 89.000000 0.2 0 360 arc fill closepath newpath 240.000000 89.000000 0.2 0 360 arc fill closepath newpath 240.000000 88.000000 0.2 0 360 arc fill closepath newpath 240.000000 87.000000 0.2 0 360 arc fill closepath newpath 240.000000 86.000000 0.2 0 360 arc fill closepath newpath 239.000000 86.000000 0.2 0 360 arc fill closepath newpath 239.000000 85.000000 0.2 0 360 arc fill closepath newpath 238.000000 85.000000 0.2 0 360 arc fill closepath newpath 238.000000 84.000000 0.2 0 360 arc fill closepath newpath 237.000000 84.000000 0.2 0 360 arc fill closepath newpath 236.000000 84.000000 0.2 0 360 arc fill closepath newpath 235.000000 84.000000 0.2 0 360 arc fill closepath newpath 235.000000 85.000000 0.2 0 360 arc fill closepath newpath 234.000000 85.000000 0.2 0 360 arc fill closepath newpath 233.000000 85.000000 0.2 0 360 arc fill closepath newpath 232.000000 85.000000 0.2 0 360 arc fill closepath newpath 231.000000 85.000000 0.2 0 360 arc fill closepath newpath 230.000000 85.000000 0.2 0 360 arc fill closepath newpath 229.000000 85.000000 0.2 0 360 arc fill closepath newpath 228.000000 85.000000 0.2 0 360 arc fill closepath newpath 227.000000 85.000000 0.2 0 360 arc fill closepath newpath 227.000000 84.000000 0.2 0 360 arc fill closepath newpath 226.000000 84.000000 0.2 0 360 arc fill closepath newpath 225.000000 84.000000 0.2 0 360 arc fill closepath newpath 224.000000 84.000000 0.2 0 360 arc fill closepath newpath 224.000000 83.000000 0.2 0 360 arc fill closepath newpath 223.000000 83.000000 0.2 0 360 arc fill closepath newpath 222.000000 83.000000 0.2 0 360 arc fill closepath newpath 221.000000 83.000000 0.2 0 360 arc fill closepath newpath 221.000000 82.000000 0.2 0 360 arc fill closepath newpath 220.000000 82.000000 0.2 0 360 arc fill closepath newpath 219.000000 82.000000 0.2 0 360 arc fill closepath newpath 218.000000 82.000000 0.2 0 360 arc fill closepath newpath 218.000000 81.000000 0.2 0 360 arc fill closepath newpath 217.000000 81.000000 0.2 0 360 arc fill closepath newpath 216.000000 81.000000 0.2 0 360 arc fill closepath newpath 216.000000 80.000000 0.2 0 360 arc fill closepath newpath 215.000000 80.000000 0.2 0 360 arc fill closepath newpath 215.000000 79.000000 0.2 0 360 arc fill closepath newpath 214.000000 79.000000 0.2 0 360 arc fill closepath newpath 213.000000 79.000000 0.2 0 360 arc fill closepath newpath 213.000000 78.000000 0.2 0 360 arc fill closepath newpath 212.000000 78.000000 0.2 0 360 arc fill closepath newpath 211.000000 78.000000 0.2 0 360 arc fill closepath newpath 211.000000 77.000000 0.2 0 360 arc fill closepath newpath 210.000000 77.000000 0.2 0 360 arc fill closepath newpath 209.000000 77.000000 0.2 0 360 arc fill closepath newpath 209.000000 76.000000 0.2 0 360 arc fill closepath newpath 208.000000 76.000000 0.2 0 360 arc fill closepath newpath 208.000000 75.000000 0.2 0 360 arc fill closepath newpath 207.000000 75.000000 0.2 0 360 arc fill closepath newpath 206.000000 75.000000 0.2 0 360 arc fill closepath newpath 206.000000 74.000000 0.2 0 360 arc fill closepath newpath 205.000000 74.000000 0.2 0 360 arc fill closepath newpath 205.000000 73.000000 0.2 0 360 arc fill closepath newpath 204.000000 73.000000 0.2 0 360 arc fill closepath newpath 203.000000 73.000000 0.2 0 360 arc fill closepath newpath 203.000000 72.000000 0.2 0 360 arc fill closepath newpath 202.000000 72.000000 0.2 0 360 arc fill closepath newpath 202.000000 71.000000 0.2 0 360 arc fill closepath newpath 201.000000 71.000000 0.2 0 360 arc fill closepath newpath 200.000000 71.000000 0.2 0 360 arc fill closepath newpath 200.000000 70.000000 0.2 0 360 arc fill closepath newpath 199.000000 70.000000 0.2 0 360 arc fill closepath newpath 198.000000 70.000000 0.2 0 360 arc fill closepath newpath 198.000000 69.000000 0.2 0 360 arc fill closepath newpath 197.000000 69.000000 0.2 0 360 arc fill closepath newpath 196.000000 69.000000 0.2 0 360 arc fill closepath newpath 195.000000 69.000000 0.2 0 360 arc fill closepath newpath 195.000000 68.000000 0.2 0 360 arc fill closepath newpath 194.000000 68.000000 0.2 0 360 arc fill closepath newpath 193.000000 68.000000 0.2 0 360 arc fill closepath newpath 193.000000 67.000000 0.2 0 360 arc fill closepath newpath 192.000000 67.000000 0.2 0 360 arc fill closepath newpath 191.000000 67.000000 0.2 0 360 arc fill closepath newpath 190.000000 67.000000 0.2 0 360 arc fill closepath newpath 189.000000 67.000000 0.2 0 360 arc fill closepath newpath 189.000000 66.000000 0.2 0 360 arc fill closepath newpath 188.000000 66.000000 0.2 0 360 arc fill closepath newpath 187.000000 66.000000 0.2 0 360 arc fill closepath newpath 186.000000 66.000000 0.2 0 360 arc fill closepath newpath 185.000000 66.000000 0.2 0 360 arc fill closepath newpath 184.000000 66.000000 0.2 0 360 arc fill closepath newpath 183.000000 66.000000 0.2 0 360 arc fill closepath newpath 182.000000 66.000000 0.2 0 360 arc fill closepath newpath 181.000000 66.000000 0.2 0 360 arc fill closepath newpath 180.000000 66.000000 0.2 0 360 arc fill closepath newpath 180.000000 65.000000 0.2 0 360 arc fill closepath newpath 179.000000 65.000000 0.2 0 360 arc fill closepath newpath 179.000000 64.000000 0.2 0 360 arc fill closepath newpath 179.000000 63.000000 0.2 0 360 arc fill closepath newpath 179.000000 62.000000 0.2 0 360 arc fill closepath newpath 179.000000 61.000000 0.2 0 360 arc fill closepath newpath 179.000000 60.000000 0.2 0 360 arc fill closepath newpath 179.000000 59.000000 0.2 0 360 arc fill closepath newpath 178.000000 59.000000 0.2 0 360 arc fill closepath newpath 178.000000 58.000000 0.2 0 360 arc fill closepath newpath 178.000000 57.000000 0.2 0 360 arc fill closepath newpath 178.000000 56.000000 0.2 0 360 arc fill closepath newpath 177.000000 56.000000 0.2 0 360 arc fill closepath newpath 177.000000 55.000000 0.2 0 360 arc fill closepath newpath 177.000000 54.000000 0.2 0 360 arc fill closepath newpath 177.000000 53.000000 0.2 0 360 arc fill closepath newpath 176.000000 53.000000 0.2 0 360 arc fill closepath newpath 176.000000 52.000000 0.2 0 360 arc fill closepath newpath 176.000000 51.000000 0.2 0 360 arc fill closepath newpath 175.000000 51.000000 0.2 0 360 arc fill closepath newpath 175.000000 50.000000 0.2 0 360 arc fill closepath newpath 175.000000 49.000000 0.2 0 360 arc fill closepath newpath 174.000000 49.000000 0.2 0 360 arc fill closepath newpath 174.000000 48.000000 0.2 0 360 arc fill closepath newpath 174.000000 47.000000 0.2 0 360 arc fill closepath newpath 173.000000 47.000000 0.2 0 360 arc fill closepath newpath 173.000000 46.000000 0.2 0 360 arc fill closepath newpath 173.000000 45.000000 0.2 0 360 arc fill closepath newpath 173.000000 44.000000 0.2 0 360 arc fill closepath newpath 173.000000 43.000000 0.2 0 360 arc fill closepath newpath 174.000000 43.000000 0.2 0 360 arc fill closepath newpath 174.000000 42.000000 0.2 0 360 arc fill closepath newpath 174.000000 41.000000 0.2 0 360 arc fill closepath newpath 175.000000 41.000000 0.2 0 360 arc fill closepath newpath 175.000000 40.000000 0.2 0 360 arc fill closepath newpath 175.000000 39.000000 0.2 0 360 arc fill closepath newpath 175.000000 38.000000 0.2 0 360 arc fill closepath newpath 175.000000 37.000000 0.2 0 360 arc fill closepath newpath 175.000000 36.000000 0.2 0 360 arc fill closepath newpath 175.000000 35.000000 0.2 0 360 arc fill closepath newpath 175.000000 34.000000 0.2 0 360 arc fill closepath newpath 175.000000 33.000000 0.2 0 360 arc fill closepath newpath 174.000000 33.000000 0.2 0 360 arc fill closepath newpath 174.000000 32.000000 0.2 0 360 arc fill closepath newpath 173.000000 32.000000 0.2 0 360 arc fill closepath newpath 173.000000 31.000000 0.2 0 360 arc fill closepath newpath 172.000000 31.000000 0.2 0 360 arc fill closepath newpath 172.000000 30.000000 0.2 0 360 arc fill closepath newpath 171.000000 30.000000 0.2 0 360 arc fill closepath newpath 171.000000 29.000000 0.2 0 360 arc fill closepath newpath 170.000000 29.000000 0.2 0 360 arc fill closepath newpath 170.000000 28.000000 0.2 0 360 arc fill closepath newpath 169.000000 28.000000 0.2 0 360 arc fill closepath newpath 169.000000 27.000000 0.2 0 360 arc fill closepath newpath 168.000000 27.000000 0.2 0 360 arc fill closepath newpath 167.000000 27.000000 0.2 0 360 arc fill closepath newpath 167.000000 26.000000 0.2 0 360 arc fill closepath newpath 166.000000 26.000000 0.2 0 360 arc fill closepath newpath 165.000000 26.000000 0.2 0 360 arc fill closepath newpath 165.000000 25.000000 0.2 0 360 arc fill closepath newpath 164.000000 25.000000 0.2 0 360 arc fill closepath newpath 163.000000 25.000000 0.2 0 360 arc fill closepath newpath 163.000000 24.000000 0.2 0 360 arc fill closepath newpath 162.000000 24.000000 0.2 0 360 arc fill closepath newpath 161.000000 24.000000 0.2 0 360 arc fill closepath newpath 161.000000 23.000000 0.2 0 360 arc fill closepath newpath 160.000000 23.000000 0.2 0 360 arc fill closepath newpath 159.000000 23.000000 0.2 0 360 arc fill closepath newpath 159.000000 22.000000 0.2 0 360 arc fill closepath newpath 158.000000 22.000000 0.2 0 360 arc fill closepath newpath 157.000000 22.000000 0.2 0 360 arc fill closepath newpath 157.000000 21.000000 0.2 0 360 arc fill closepath newpath 156.000000 21.000000 0.2 0 360 arc fill closepath newpath 155.000000 21.000000 0.2 0 360 arc fill closepath newpath 154.000000 21.000000 0.2 0 360 arc fill closepath newpath 154.000000 20.000000 0.2 0 360 arc fill closepath newpath 153.000000 20.000000 0.2 0 360 arc fill closepath newpath 153.000000 21.000000 0.2 0 360 arc fill closepath newpath 152.000000 21.000000 0.2 0 360 arc fill closepath newpath 151.000000 21.000000 0.2 0 360 arc fill closepath newpath 150.000000 21.000000 0.2 0 360 arc fill closepath newpath 149.000000 21.000000 0.2 0 360 arc fill closepath newpath 149.000000 22.000000 0.2 0 360 arc fill closepath newpath 148.000000 22.000000 0.2 0 360 arc fill closepath newpath 147.000000 22.000000 0.2 0 360 arc fill closepath newpath 146.000000 22.000000 0.2 0 360 arc fill closepath newpath 146.000000 23.000000 0.2 0 360 arc fill closepath newpath 145.000000 23.000000 0.2 0 360 arc fill closepath newpath 144.000000 23.000000 0.2 0 360 arc fill closepath newpath 144.000000 24.000000 0.2 0 360 arc fill closepath newpath 143.000000 24.000000 0.2 0 360 arc fill closepath newpath 143.000000 25.000000 0.2 0 360 arc fill closepath newpath 142.000000 25.000000 0.2 0 360 arc fill closepath newpath 142.000000 26.000000 0.2 0 360 arc fill closepath newpath 141.000000 26.000000 0.2 0 360 arc fill closepath newpath 141.000000 27.000000 0.2 0 360 arc fill closepath newpath 141.000000 28.000000 0.2 0 360 arc fill closepath newpath 140.000000 28.000000 0.2 0 360 arc fill closepath newpath 139.000000 28.000000 0.2 0 360 arc fill closepath newpath 138.000000 28.000000 0.2 0 360 arc fill closepath newpath 137.000000 28.000000 0.2 0 360 arc fill closepath newpath 136.000000 28.000000 0.2 0 360 arc fill closepath newpath 135.000000 28.000000 0.2 0 360 arc fill closepath newpath 135.000000 27.000000 0.2 0 360 arc fill closepath newpath 134.000000 27.000000 0.2 0 360 arc fill closepath newpath 133.000000 27.000000 0.2 0 360 arc fill closepath newpath 132.000000 27.000000 0.2 0 360 arc fill closepath newpath 131.000000 27.000000 0.2 0 360 arc fill closepath newpath 130.000000 27.000000 0.2 0 360 arc fill closepath newpath 130.000000 26.000000 0.2 0 360 arc fill closepath newpath 129.000000 26.000000 0.2 0 360 arc fill closepath newpath 128.000000 26.000000 0.2 0 360 arc fill closepath newpath 127.000000 26.000000 0.2 0 360 arc fill closepath newpath 126.000000 26.000000 0.2 0 360 arc fill closepath newpath 126.000000 25.000000 0.2 0 360 arc fill closepath newpath 125.000000 25.000000 0.2 0 360 arc fill closepath newpath 124.000000 25.000000 0.2 0 360 arc fill closepath newpath 123.000000 25.000000 0.2 0 360 arc fill closepath newpath 122.000000 25.000000 0.2 0 360 arc fill closepath newpath 122.000000 24.000000 0.2 0 360 arc fill closepath newpath 121.000000 24.000000 0.2 0 360 arc fill closepath newpath 121.000000 25.000000 0.2 0 360 arc fill closepath newpath 120.000000 25.000000 0.2 0 360 arc fill closepath newpath 119.000000 25.000000 0.2 0 360 arc fill closepath newpath 119.000000 24.000000 0.2 0 360 arc fill closepath newpath 118.000000 24.000000 0.2 0 360 arc fill closepath newpath 117.000000 24.000000 0.2 0 360 arc fill closepath newpath 116.000000 24.000000 0.2 0 360 arc fill closepath newpath 115.000000 24.000000 0.2 0 360 arc fill closepath newpath 115.000000 23.000000 0.2 0 360 arc fill closepath newpath 114.000000 23.000000 0.2 0 360 arc fill closepath newpath 113.000000 23.000000 0.2 0 360 arc fill closepath newpath 112.000000 23.000000 0.2 0 360 arc fill closepath newpath 112.000000 22.000000 0.2 0 360 arc fill closepath newpath 111.000000 22.000000 0.2 0 360 arc fill closepath newpath 110.000000 22.000000 0.2 0 360 arc fill closepath newpath 109.000000 22.000000 0.2 0 360 arc fill closepath newpath 108.000000 22.000000 0.2 0 360 arc fill closepath newpath 108.000000 21.000000 0.2 0 360 arc fill closepath newpath 107.000000 21.000000 0.2 0 360 arc fill closepath newpath 106.000000 21.000000 0.2 0 360 arc fill closepath newpath 105.000000 21.000000 0.2 0 360 arc fill closepath newpath 105.000000 20.000000 0.2 0 360 arc fill closepath newpath 104.000000 20.000000 0.2 0 360 arc fill closepath newpath 103.000000 20.000000 0.2 0 360 arc fill closepath newpath 102.000000 20.000000 0.2 0 360 arc fill closepath newpath 101.000000 20.000000 0.2 0 360 arc fill closepath newpath 101.000000 19.000000 0.2 0 360 arc fill closepath newpath 100.000000 19.000000 0.2 0 360 arc fill closepath newpath 99.000000 19.000000 0.2 0 360 arc fill closepath newpath 98.000000 19.000000 0.2 0 360 arc fill closepath newpath 98.000000 18.000000 0.2 0 360 arc fill closepath newpath 97.000000 18.000000 0.2 0 360 arc fill closepath newpath 96.000000 18.000000 0.2 0 360 arc fill closepath newpath 95.000000 18.000000 0.2 0 360 arc fill closepath newpath 94.000000 18.000000 0.2 0 360 arc fill closepath newpath 94.000000 17.000000 0.2 0 360 arc fill closepath newpath 93.000000 17.000000 0.2 0 360 arc fill closepath newpath 92.000000 17.000000 0.2 0 360 arc fill closepath newpath 91.000000 17.000000 0.2 0 360 arc fill closepath newpath 91.000000 16.000000 0.2 0 360 arc fill closepath newpath 90.000000 16.000000 0.2 0 360 arc fill closepath newpath 89.000000 16.000000 0.2 0 360 arc fill closepath newpath 88.000000 16.000000 0.2 0 360 arc fill closepath newpath 87.000000 16.000000 0.2 0 360 arc fill closepath newpath 87.000000 15.000000 0.2 0 360 arc fill closepath newpath 86.000000 15.000000 0.2 0 360 arc fill closepath newpath 85.000000 15.000000 0.2 0 360 arc fill closepath newpath 84.000000 15.000000 0.2 0 360 arc fill closepath newpath 84.000000 14.000000 0.2 0 360 arc fill closepath newpath 83.000000 14.000000 0.2 0 360 arc fill closepath newpath 82.000000 14.000000 0.2 0 360 arc fill closepath newpath 81.000000 14.000000 0.2 0 360 arc fill closepath newpath 80.000000 14.000000 0.2 0 360 arc fill closepath newpath 80.000000 13.000000 0.2 0 360 arc fill closepath newpath 79.000000 13.000000 0.2 0 360 arc fill closepath newpath 79.000000 14.000000 0.2 0 360 arc fill closepath newpath 78.000000 14.000000 0.2 0 360 arc fill closepath newpath 78.000000 13.000000 0.2 0 360 arc fill closepath newpath 77.000000 13.000000 0.2 0 360 arc fill closepath newpath 77.000000 12.000000 0.2 0 360 arc fill closepath newpath 76.000000 12.000000 0.2 0 360 arc fill closepath newpath 75.000000 12.000000 0.2 0 360 arc fill closepath newpath 75.000000 11.000000 0.2 0 360 arc fill closepath newpath 74.000000 11.000000 0.2 0 360 arc fill closepath newpath 74.000000 10.000000 0.2 0 360 arc fill closepath newpath 73.000000 10.000000 0.2 0 360 arc fill closepath newpath 72.000000 10.000000 0.2 0 360 arc fill closepath newpath 71.000000 10.000000 0.2 0 360 arc fill closepath newpath 70.000000 10.000000 0.2 0 360 arc fill closepath newpath 70.000000 11.000000 0.2 0 360 arc fill closepath newpath 69.000000 11.000000 0.2 0 360 arc fill closepath newpath 68.000000 11.000000 0.2 0 360 arc fill closepath newpath 67.000000 11.000000 0.2 0 360 arc fill closepath newpath 67.000000 12.000000 0.2 0 360 arc fill closepath newpath 66.000000 12.000000 0.2 0 360 arc fill closepath newpath 65.000000 12.000000 0.2 0 360 arc fill closepath newpath 65.000000 13.000000 0.2 0 360 arc fill closepath newpath 64.000000 13.000000 0.2 0 360 arc fill closepath newpath 63.000000 13.000000 0.2 0 360 arc fill closepath newpath 62.000000 13.000000 0.2 0 360 arc fill closepath newpath 62.000000 14.000000 0.2 0 360 arc fill closepath newpath 61.000000 14.000000 0.2 0 360 arc fill closepath newpath 60.000000 14.000000 0.2 0 360 arc fill closepath newpath 60.000000 15.000000 0.2 0 360 arc fill closepath newpath 59.000000 15.000000 0.2 0 360 arc fill closepath newpath 58.000000 15.000000 0.2 0 360 arc fill closepath newpath 58.000000 16.000000 0.2 0 360 arc fill closepath newpath 57.000000 16.000000 0.2 0 360 arc fill closepath newpath 57.000000 15.000000 0.2 0 360 arc fill closepath newpath 56.000000 15.000000 0.2 0 360 arc fill closepath newpath 55.000000 15.000000 0.2 0 360 arc fill closepath newpath 54.000000 15.000000 0.2 0 360 arc fill closepath newpath 53.000000 15.000000 0.2 0 360 arc fill closepath newpath 52.000000 15.000000 0.2 0 360 arc fill closepath newpath 51.000000 15.000000 0.2 0 360 arc fill closepath newpath 51.000000 16.000000 0.2 0 360 arc fill closepath newpath 50.000000 16.000000 0.2 0 360 arc fill closepath newpath 49.000000 16.000000 0.2 0 360 arc fill closepath newpath 49.000000 17.000000 0.2 0 360 arc fill closepath newpath 48.000000 17.000000 0.2 0 360 arc fill closepath newpath 48.000000 18.000000 0.2 0 360 arc fill closepath newpath 47.000000 18.000000 0.2 0 360 arc fill closepath newpath 47.000000 19.000000 0.2 0 360 arc fill closepath newpath 47.000000 20.000000 0.2 0 360 arc fill closepath newpath 47.000000 21.000000 0.2 0 360 arc fill closepath newpath 47.000000 22.000000 0.2 0 360 arc fill closepath newpath 47.000000 23.000000 0.2 0 360 arc fill closepath newpath 47.000000 24.000000 0.2 0 360 arc fill closepath newpath 48.000000 24.000000 0.2 0 360 arc fill closepath newpath 48.000000 25.000000 0.2 0 360 arc fill closepath newpath 48.000000 26.000000 0.2 0 360 arc fill closepath newpath 49.000000 26.000000 0.2 0 360 arc fill closepath newpath 49.000000 27.000000 0.2 0 360 arc fill closepath newpath 50.000000 27.000000 0.2 0 360 arc fill closepath newpath 51.000000 27.000000 0.2 0 360 arc fill closepath newpath 51.000000 28.000000 0.2 0 360 arc fill closepath newpath 52.000000 28.000000 0.2 0 360 arc fill closepath newpath 52.000000 29.000000 0.2 0 360 arc fill closepath newpath 53.000000 29.000000 0.2 0 360 arc fill closepath newpath 54.000000 29.000000 0.2 0 360 arc fill closepath newpath 54.000000 30.000000 0.2 0 360 arc fill closepath newpath 55.000000 30.000000 0.2 0 360 arc fill closepath newpath 56.000000 30.000000 0.2 0 360 arc fill closepath newpath 56.000000 31.000000 0.2 0 360 arc fill closepath newpath 57.000000 31.000000 0.2 0 360 arc fill closepath newpath 58.000000 31.000000 0.2 0 360 arc fill closepath newpath 58.000000 32.000000 0.2 0 360 arc fill closepath newpath 59.000000 32.000000 0.2 0 360 arc fill closepath newpath 59.000000 33.000000 0.2 0 360 arc fill closepath newpath 58.000000 33.000000 0.2 0 360 arc fill closepath newpath 58.000000 34.000000 0.2 0 360 arc fill closepath newpath 57.000000 34.000000 0.2 0 360 arc fill closepath newpath 57.000000 35.000000 0.2 0 360 arc fill closepath newpath 56.000000 35.000000 0.2 0 360 arc fill closepath newpath 56.000000 36.000000 0.2 0 360 arc fill closepath newpath 55.000000 36.000000 0.2 0 360 arc fill closepath newpath 55.000000 37.000000 0.2 0 360 arc fill closepath newpath 54.000000 37.000000 0.2 0 360 arc fill closepath newpath 54.000000 38.000000 0.2 0 360 arc fill closepath newpath 53.000000 38.000000 0.2 0 360 arc fill closepath newpath 53.000000 39.000000 0.2 0 360 arc fill closepath newpath 52.000000 39.000000 0.2 0 360 arc fill closepath newpath 52.000000 40.000000 0.2 0 360 arc fill closepath newpath 52.000000 41.000000 0.2 0 360 arc fill closepath newpath 51.000000 41.000000 0.2 0 360 arc fill closepath newpath 51.000000 42.000000 0.2 0 360 arc fill closepath newpath 50.000000 42.000000 0.2 0 360 arc fill closepath newpath 50.000000 43.000000 0.2 0 360 arc fill closepath newpath 49.000000 43.000000 0.2 0 360 arc fill closepath newpath 49.000000 44.000000 0.2 0 360 arc fill closepath newpath 48.000000 44.000000 0.2 0 360 arc fill closepath newpath 48.000000 45.000000 0.2 0 360 arc fill closepath newpath 48.000000 46.000000 0.2 0 360 arc fill closepath newpath 47.000000 46.000000 0.2 0 360 arc fill closepath newpath 47.000000 47.000000 0.2 0 360 arc fill closepath newpath 46.000000 47.000000 0.2 0 360 arc fill closepath newpath 46.000000 48.000000 0.2 0 360 arc fill closepath newpath 46.000000 49.000000 0.2 0 360 arc fill closepath newpath 45.000000 49.000000 0.2 0 360 arc fill closepath newpath 45.000000 50.000000 0.2 0 360 arc fill closepath newpath 44.000000 50.000000 0.2 0 360 arc fill closepath newpath 44.000000 51.000000 0.2 0 360 arc fill closepath newpath 43.000000 51.000000 0.2 0 360 arc fill closepath newpath 43.000000 52.000000 0.2 0 360 arc fill closepath newpath 42.000000 52.000000 0.2 0 360 arc fill closepath newpath 42.000000 53.000000 0.2 0 360 arc fill closepath newpath 41.000000 53.000000 0.2 0 360 arc fill closepath newpath 41.000000 54.000000 0.2 0 360 arc fill closepath newpath 40.000000 54.000000 0.2 0 360 arc fill closepath newpath 40.000000 55.000000 0.2 0 360 arc fill closepath newpath 39.000000 55.000000 0.2 0 360 arc fill closepath newpath 39.000000 56.000000 0.2 0 360 arc fill closepath newpath 38.000000 56.000000 0.2 0 360 arc fill closepath newpath 38.000000 57.000000 0.2 0 360 arc fill closepath newpath 37.000000 57.000000 0.2 0 360 arc fill closepath newpath 37.000000 58.000000 0.2 0 360 arc fill closepath newpath 36.000000 58.000000 0.2 0 360 arc fill closepath newpath 35.000000 58.000000 0.2 0 360 arc fill closepath newpath 35.000000 59.000000 0.2 0 360 arc fill closepath newpath 34.000000 59.000000 0.2 0 360 arc fill closepath newpath 34.000000 60.000000 0.2 0 360 arc fill closepath newpath 33.000000 60.000000 0.2 0 360 arc fill closepath newpath 33.000000 61.000000 0.2 0 360 arc fill closepath newpath 32.000000 61.000000 0.2 0 360 arc fill closepath newpath 32.000000 62.000000 0.2 0 360 arc fill closepath newpath 32.000000 63.000000 0.2 0 360 arc fill closepath newpath 31.000000 63.000000 0.2 0 360 arc fill closepath newpath 31.000000 64.000000 0.2 0 360 arc fill closepath newpath 30.000000 64.000000 0.2 0 360 arc fill closepath newpath 30.000000 65.000000 0.2 0 360 arc fill closepath newpath 29.000000 65.000000 0.2 0 360 arc fill closepath newpath 29.000000 66.000000 0.2 0 360 arc fill closepath newpath 28.000000 66.000000 0.2 0 360 arc fill closepath newpath 28.000000 67.000000 0.2 0 360 arc fill closepath newpath 27.000000 67.000000 0.2 0 360 arc fill closepath newpath 27.000000 68.000000 0.2 0 360 arc fill closepath newpath 26.000000 68.000000 0.2 0 360 arc fill closepath newpath 26.000000 69.000000 0.2 0 360 arc fill closepath newpath 25.000000 69.000000 0.2 0 360 arc fill closepath newpath 25.000000 70.000000 0.2 0 360 arc fill closepath newpath 24.000000 70.000000 0.2 0 360 arc fill closepath newpath 24.000000 71.000000 0.2 0 360 arc fill closepath newpath 24.000000 72.000000 0.2 0 360 arc fill closepath newpath 23.000000 72.000000 0.2 0 360 arc fill closepath newpath 23.000000 73.000000 0.2 0 360 arc fill closepath newpath 22.000000 73.000000 0.2 0 360 arc fill closepath newpath 22.000000 74.000000 0.2 0 360 arc fill closepath newpath 21.000000 74.000000 0.2 0 360 arc fill closepath newpath 21.000000 75.000000 0.2 0 360 arc fill closepath newpath 21.000000 76.000000 0.2 0 360 arc fill closepath newpath 20.000000 76.000000 0.2 0 360 arc fill closepath newpath 20.000000 77.000000 0.2 0 360 arc fill closepath newpath 19.000000 77.000000 0.2 0 360 arc fill closepath newpath 19.000000 78.000000 0.2 0 360 arc fill closepath newpath 19.000000 79.000000 0.2 0 360 arc fill closepath newpath 18.000000 79.000000 0.2 0 360 arc fill closepath newpath 18.000000 80.000000 0.2 0 360 arc fill closepath newpath 18.000000 81.000000 0.2 0 360 arc fill closepath newpath 17.000000 81.000000 0.2 0 360 arc fill closepath newpath 17.000000 82.000000 0.2 0 360 arc fill closepath newpath 17.000000 83.000000 0.2 0 360 arc fill closepath newpath 16.000000 83.000000 0.2 0 360 arc fill closepath newpath 16.000000 84.000000 0.2 0 360 arc fill closepath newpath 16.000000 85.000000 0.2 0 360 arc fill closepath newpath 15.000000 85.000000 0.2 0 360 arc fill closepath newpath 15.000000 86.000000 0.2 0 360 arc fill closepath newpath 15.000000 87.000000 0.2 0 360 arc fill closepath newpath 15.000000 88.000000 0.2 0 360 arc fill closepath newpath 15.000000 89.000000 0.2 0 360 arc fill closepath newpath 14.000000 89.000000 0.2 0 360 arc fill closepath newpath 14.000000 90.000000 0.2 0 360 arc fill closepath newpath 14.000000 91.000000 0.2 0 360 arc fill closepath newpath 14.000000 92.000000 0.2 0 360 arc fill closepath newpath 14.000000 93.000000 0.2 0 360 arc fill closepath newpath 14.000000 94.000000 0.2 0 360 arc fill closepath newpath 13.000000 94.000000 0.2 0 360 arc fill closepath newpath 13.000000 95.000000 0.2 0 360 arc fill closepath newpath 13.000000 96.000000 0.2 0 360 arc fill closepath newpath 13.000000 97.000000 0.2 0 360 arc fill closepath newpath 13.000000 98.000000 0.2 0 360 arc fill closepath newpath 13.000000 99.000000 0.2 0 360 arc fill closepath newpath 13.000000 100.000000 0.2 0 360 arc fill closepath newpath 13.000000 101.000000 0.2 0 360 arc fill closepath newpath 13.000000 102.000000 0.2 0 360 arc fill closepath newpath 12.000000 102.000000 0.2 0 360 arc fill closepath newpath 12.000000 103.000000 0.2 0 360 arc fill closepath newpath 11.000000 103.000000 0.2 0 360 arc fill closepath newpath 11.000000 104.000000 0.2 0 360 arc fill closepath newpath 11.000000 105.000000 0.2 0 360 arc fill closepath newpath 10.000000 105.000000 0.2 0 360 arc fill closepath newpath 10.000000 106.000000 0.2 0 360 arc fill closepath newpath 10.000000 107.000000 0.2 0 360 arc fill closepath newpath 10.000000 108.000000 0.2 0 360 arc fill closepath newpath 9.000000 108.000000 0.2 0 360 arc fill closepath newpath 9.000000 109.000000 0.2 0 360 arc fill closepath newpath 9.000000 110.000000 0.2 0 360 arc fill closepath newpath 9.000000 111.000000 0.2 0 360 arc fill closepath newpath 9.000000 112.000000 0.2 0 360 arc fill closepath newpath 8.000000 112.000000 0.2 0 360 arc fill closepath newpath 8.000000 113.000000 0.2 0 360 arc fill closepath newpath 8.000000 114.000000 0.2 0 360 arc fill closepath newpath 8.000000 115.000000 0.2 0 360 arc fill closepath newpath 8.000000 116.000000 0.2 0 360 arc fill closepath newpath 8.000000 117.000000 0.2 0 360 arc fill closepath newpath 7.000000 117.000000 0.2 0 360 arc fill closepath newpath 7.000000 118.000000 0.2 0 360 arc fill closepath newpath 7.000000 119.000000 0.2 0 360 arc fill closepath newpath 7.000000 120.000000 0.2 0 360 arc fill closepath newpath 7.000000 121.000000 0.2 0 360 arc fill closepath newpath 7.000000 122.000000 0.2 0 360 arc fill closepath newpath 7.000000 123.000000 0.2 0 360 arc fill closepath newpath 6.000000 123.000000 0.2 0 360 arc fill closepath newpath 6.000000 124.000000 0.2 0 360 arc fill closepath newpath 6.000000 125.000000 0.2 0 360 arc fill closepath newpath 6.000000 126.000000 0.2 0 360 arc fill closepath newpath 6.000000 127.000000 0.2 0 360 arc fill closepath newpath 6.000000 128.000000 0.2 0 360 arc fill closepath newpath 6.000000 129.000000 0.2 0 360 arc fill closepath newpath 5.000000 129.000000 0.2 0 360 arc fill closepath newpath 5.000000 130.000000 0.2 0 360 arc fill closepath newpath 5.000000 131.000000 0.2 0 360 arc fill closepath newpath 6.000000 131.000000 0.2 0 360 arc fill closepath newpath 6.000000 132.000000 0.2 0 360 arc fill closepath newpath 6.000000 133.000000 0.2 0 360 arc fill closepath newpath 7.000000 133.000000 0.2 0 360 arc fill closepath newpath 8.000000 133.000000 0.2 0 360 arc fill closepath newpath 8.000000 134.000000 0.2 0 360 arc fill closepath newpath 9.000000 134.000000 0.2 0 360 arc fill closepath newpath 10.000000 134.000000 0.2 0 360 arc fill closepath newpath 10.000000 133.000000 0.2 0 360 arc fill closepath newpath 11.000000 133.000000 0.2 0 360 arc fill closepath newpath 12.000000 133.000000 0.2 0 360 arc fill closepath newpath 12.000000 132.000000 0.2 0 360 arc fill closepath newpath 13.000000 132.000000 0.2 0 360 arc fill closepath newpath 13.000000 131.000000 0.2 0 360 arc fill closepath newpath 14.000000 131.000000 0.2 0 360 arc fill closepath newpath 14.000000 130.000000 0.2 0 360 arc fill closepath newpath 15.000000 130.000000 0.2 0 360 arc fill closepath newpath 16.000000 130.000000 0.2 0 360 arc fill closepath newpath 16.000000 129.000000 0.2 0 360 arc fill closepath newpath 17.000000 129.000000 0.2 0 360 arc fill closepath newpath 17.000000 128.000000 0.2 0 360 arc fill closepath newpath 18.000000 128.000000 0.2 0 360 arc fill closepath newpath 18.000000 127.000000 0.2 0 360 arc fill closepath newpath 19.000000 127.000000 0.2 0 360 arc fill closepath newpath 19.000000 126.000000 0.2 0 360 arc fill closepath newpath 20.000000 126.000000 0.2 0 360 arc fill closepath newpath 20.000000 125.000000 0.2 0 360 arc fill closepath newpath 21.000000 125.000000 0.2 0 360 arc fill closepath newpath 21.000000 124.000000 0.2 0 360 arc fill closepath newpath 22.000000 124.000000 0.2 0 360 arc fill closepath newpath 22.000000 123.000000 0.2 0 360 arc fill closepath newpath 23.000000 123.000000 0.2 0 360 arc fill closepath newpath 24.000000 123.000000 0.2 0 360 arc fill closepath newpath 24.000000 122.000000 0.2 0 360 arc fill closepath newpath 25.000000 122.000000 0.2 0 360 arc fill closepath newpath 25.000000 121.000000 0.2 0 360 arc fill closepath newpath 26.000000 121.000000 0.2 0 360 arc fill closepath newpath 26.000000 120.000000 0.2 0 360 arc fill closepath newpath 27.000000 120.000000 0.2 0 360 arc fill closepath newpath 27.000000 119.000000 0.2 0 360 arc fill closepath newpath 28.000000 119.000000 0.2 0 360 arc fill closepath newpath 29.000000 119.000000 0.2 0 360 arc fill closepath newpath 29.000000 118.000000 0.2 0 360 arc fill closepath newpath 30.000000 118.000000 0.2 0 360 arc fill closepath newpath 31.000000 118.000000 0.2 0 360 arc fill closepath newpath 32.000000 118.000000 0.2 0 360 arc fill closepath newpath 33.000000 118.000000 0.2 0 360 arc fill closepath newpath 34.000000 118.000000 0.2 0 360 arc fill closepath newpath 35.000000 118.000000 0.2 0 360 arc fill closepath newpath 36.000000 118.000000 0.2 0 360 arc fill closepath newpath 36.000000 119.000000 0.2 0 360 arc fill closepath newpath 37.000000 119.000000 0.2 0 360 arc fill closepath newpath 38.000000 119.000000 0.2 0 360 arc fill closepath newpath 39.000000 119.000000 0.2 0 360 arc fill closepath newpath 40.000000 119.000000 0.2 0 360 arc fill closepath newpath 41.000000 119.000000 0.2 0 360 arc fill closepath newpath 42.000000 119.000000 0.2 0 360 arc fill closepath newpath 42.000000 120.000000 0.2 0 360 arc fill closepath newpath 43.000000 120.000000 0.2 0 360 arc fill closepath newpath 44.000000 120.000000 0.2 0 360 arc fill closepath newpath 45.000000 120.000000 0.2 0 360 arc fill closepath newpath 46.000000 120.000000 0.2 0 360 arc fill closepath newpath 47.000000 120.000000 0.2 0 360 arc fill closepath newpath 48.000000 120.000000 0.2 0 360 arc fill closepath newpath 49.000000 120.000000 0.2 0 360 arc fill closepath newpath 50.000000 120.000000 0.2 0 360 arc fill closepath newpath 51.000000 120.000000 0.2 0 360 arc fill closepath newpath 51.000000 121.000000 0.2 0 360 arc fill closepath newpath 52.000000 121.000000 0.2 0 360 arc fill closepath newpath 53.000000 121.000000 0.2 0 360 arc fill closepath newpath 53.000000 122.000000 0.2 0 360 arc fill closepath newpath 54.000000 122.000000 0.2 0 360 arc fill closepath newpath 54.000000 123.000000 0.2 0 360 arc fill closepath newpath 55.000000 123.000000 0.2 0 360 arc fill closepath newpath 56.000000 123.000000 0.2 0 360 arc fill closepath newpath 56.000000 124.000000 0.2 0 360 arc fill closepath newpath 57.000000 124.000000 0.2 0 360 arc fill closepath newpath 57.000000 125.000000 0.2 0 360 arc fill closepath newpath 58.000000 125.000000 0.2 0 360 arc fill closepath newpath 58.000000 126.000000 0.2 0 360 arc fill closepath newpath 59.000000 126.000000 0.2 0 360 arc fill closepath newpath 59.000000 127.000000 0.2 0 360 arc fill closepath newpath 60.000000 127.000000 0.2 0 360 arc fill closepath newpath 60.000000 128.000000 0.2 0 360 arc fill closepath newpath 61.000000 128.000000 0.2 0 360 arc fill closepath newpath 61.000000 129.000000 0.2 0 360 arc fill closepath newpath 62.000000 129.000000 0.2 0 360 arc fill closepath newpath 62.000000 130.000000 0.2 0 360 arc fill closepath newpath 63.000000 130.000000 0.2 0 360 arc fill closepath newpath 63.000000 131.000000 0.2 0 360 arc fill closepath newpath 64.000000 131.000000 0.2 0 360 arc fill closepath newpath 64.000000 132.000000 0.2 0 360 arc fill closepath newpath 65.000000 132.000000 0.2 0 360 arc fill closepath newpath 65.000000 133.000000 0.2 0 360 arc fill closepath newpath 66.000000 133.000000 0.2 0 360 arc fill closepath newpath 66.000000 134.000000 0.2 0 360 arc fill closepath newpath 67.000000 134.000000 0.2 0 360 arc fill closepath newpath 67.000000 135.000000 0.2 0 360 arc fill closepath newpath 68.000000 135.000000 0.2 0 360 arc fill closepath newpath 68.000000 136.000000 0.2 0 360 arc fill closepath newpath 69.000000 136.000000 0.2 0 360 arc fill closepath newpath 69.000000 137.000000 0.2 0 360 arc fill closepath newpath 70.000000 137.000000 0.2 0 360 arc fill closepath newpath 70.000000 138.000000 0.2 0 360 arc fill closepath showpage
