%!PS-Adobe-3.0 EPSF-3.0
%%BoundingBox: 0 0 2000 1500
1710.000000 1458.000000 moveto 1710.000000 1458.000000 lineto 1722.000000 1453.000000 lineto 1717.000000 1390.000000 lineto 1724.000000 1391.000000 lineto 1744.000000 1415.000000 lineto 1761.000000 1429.000000 lineto 1768.000000 1430.000000 lineto 1773.000000 1440.000000 lineto 1776.000000 1439.000000 lineto 1778.000000 1412.000000 lineto 1760.000000 1393.000000 lineto 1752.000000 1367.000000 lineto 1753.000000 1362.000000 lineto 1800.000000 1358.000000 lineto 1812.000000 1375.000000 lineto 1812.000000 1390.000000 lineto 1819.000000 1385.000000 lineto 1817.000000 1373.000000 lineto 1803.000000 1357.000000 lineto 1766.000000 1357.000000 lineto 1767.000000 1350.000000 lineto 1774.000000 1347.000000 lineto 1798.000000 1349.000000 lineto 1800.000000 1342.000000 lineto 1796.000000 1337.000000 lineto 1770.000000 1329.000000 lineto 1760.000000 1331.000000 lineto 1749.000000 1340.000000 lineto 1726.000000 1337.000000 lineto 1704.000000 1300.000000 lineto 1705.000000 1292.000000 lineto 1709.000000 1290.000000 lineto 1724.000000 1296.000000 lineto 1734.000000 1305.000000 lineto 1747.000000 1304.000000 lineto 1753.000000 1300.000000 lineto 1749.000000 1290.000000 lineto 1774.000000 1290.000000 lineto 1782.000000 1286.000000 lineto 1787.000000 1273.000000 lineto 1782.000000 1269.000000 lineto 1757.000000 1263.000000 lineto 1751.000000 1263.000000 lineto 1746.000000 1273.000000 lineto 1731.000000 1273.000000 lineto 1727.000000 1271.000000 lineto 1731.000000 1258.000000 lineto 1726.000000 1255.000000 lineto 1709.000000 1265.000000 lineto 1702.000000 1276.000000 lineto 1698.000000 1276.000000 lineto 1693.000000 1268.000000 lineto 1688.000000 1268.000000 lineto 1680.000000 1274.000000 lineto 1679.000000 1279.000000 lineto 1675.000000 1279.000000 lineto 1622.000000 1245.000000 lineto 1598.000000 1244.000000 lineto 1611.000000 1227.000000 lineto 1624.000000 1225.000000 lineto 1625.000000 1213.000000 lineto 1611.000000 1212.000000 lineto 1600.000000 1217.000000 lineto 1585.000000 1236.000000 lineto 1581.000000 1236.000000 lineto 1575.000000 1230.000000 lineto 1575.000000 1220.000000 lineto 1582.000000 1197.000000 lineto 1575.000000 1195.000000 lineto 1567.000000 1202.000000 lineto 1558.000000 1219.000000 lineto 1556.000000 1238.000000 lineto 1561.000000 1248.000000 lineto 1579.000000 1262.000000 lineto 1583.000000 1278.000000 lineto 1578.000000 1276.000000 lineto 1565.000000 1264.000000 lineto 1541.000000 1232.000000 lineto 1538.000000 1222.000000 lineto 1529.000000 1216.000000 lineto 1512.000000 1191.000000 lineto 1499.000000 1179.000000 lineto 1488.000000 1163.000000 lineto 1462.000000 1111.000000 lineto 1454.000000 1107.000000 lineto 1447.000000 1096.000000 lineto 1448.000000 1093.000000 lineto 1466.000000 1090.000000 lineto 1473.000000 1093.000000 lineto 1477.000000 1097.000000 lineto 1472.000000 1104.000000 lineto 1473.000000 1115.000000 lineto 1495.000000 1116.000000 lineto 1492.000000 1124.000000 lineto 1507.000000 1128.000000 lineto 1503.000000 1130.000000 lineto 1503.000000 1138.000000 lineto 1523.000000 1137.000000 lineto 1543.000000 1120.000000 lineto 1548.000000 1109.000000 lineto 1546.000000 1101.000000 lineto 1534.000000 1100.000000 lineto 1526.000000 1107.000000 lineto 1512.000000 1107.000000 lineto 1511.000000 1104.000000 lineto 1565.000000 1074.000000 lineto 1576.000000 1062.000000 lineto 1577.000000 1051.000000 lineto 1567.000000 1046.000000 lineto 1556.000000 1048.000000 lineto 1528.000000 1063.000000 lineto 1513.000000 1079.000000 lineto 1508.000000 1080.000000 lineto 1507.000000 1074.000000 lineto 1523.000000 1064.000000 lineto 1536.000000 1051.000000 lineto 1556.000000 1023.000000 lineto 1579.000000 1009.000000 lineto 1583.000000 999.000000 lineto 1568.000000 997.000000 lineto 1536.000000 1009.000000 lineto 1495.000000 1047.000000 lineto 1482.000000 1049.000000 lineto 1477.000000 1048.000000 lineto 1476.000000 1044.000000 lineto 1544.000000 975.000000 lineto 1557.000000 952.000000 lineto 1556.000000 946.000000 lineto 1544.000000 946.000000 lineto 1527.000000 954.000000 lineto 1515.000000 962.000000 lineto 1486.000000 991.000000 lineto 1463.000000 1008.000000 lineto 1452.000000 1012.000000 lineto 1440.000000 1012.000000 lineto 1435.000000 1005.000000 lineto 1469.000000 982.000000 lineto 1481.000000 957.000000 lineto 1480.000000 944.000000 lineto 1475.000000 947.000000 lineto 1445.000000 989.000000 lineto 1429.000000 1002.000000 lineto 1417.000000 995.000000 lineto 1408.000000 980.000000 lineto 1398.000000 986.000000 lineto 1369.000000 976.000000 lineto 1343.000000 973.000000 lineto 1325.000000 981.000000 lineto 1338.000000 986.000000 lineto 1347.000000 995.000000 lineto 1344.000000 997.000000 lineto 1334.000000 991.000000 lineto 1329.000000 992.000000 lineto 1322.000000 985.000000 lineto 1317.000000 987.000000 lineto 1291.000000 973.000000 lineto 1263.000000 973.000000 lineto 1251.000000 964.000000 lineto 1206.000000 953.000000 lineto 1191.000000 953.000000 lineto 1134.000000 966.000000 lineto 1123.000000 971.000000 lineto 1116.000000 968.000000 lineto 1116.000000 965.000000 lineto 1106.000000 968.000000 lineto 1102.000000 978.000000 lineto 1116.000000 974.000000 lineto 1118.000000 979.000000 lineto 1122.000000 980.000000 lineto 1196.000000 968.000000 lineto 1230.000000 977.000000 lineto 1246.000000 989.000000 lineto 1276.000000 992.000000 lineto 1289.000000 1002.000000 lineto 1284.000000 1010.000000 lineto 1265.000000 1012.000000 lineto 1232.000000 1027.000000 lineto 1215.000000 1022.000000 lineto 1210.000000 1027.000000 lineto 1211.000000 1031.000000 lineto 1234.000000 1049.000000 lineto 1213.000000 1059.000000 lineto 1208.000000 1059.000000 lineto 1193.000000 1045.000000 lineto 1172.000000 1036.000000 lineto 1167.000000 1050.000000 lineto 1185.000000 1060.000000 lineto 1206.000000 1066.000000 lineto 1193.000000 1091.000000 lineto 1180.000000 1097.000000 lineto 1162.000000 1094.000000 lineto 1153.000000 1086.000000 lineto 1152.000000 1073.000000 lineto 1144.000000 1066.000000 lineto 1139.000000 1068.000000 lineto 1140.000000 1081.000000 lineto 1145.000000 1089.000000 lineto 1161.000000 1102.000000 lineto 1200.000000 1105.000000 lineto 1185.000000 1113.000000 lineto 1172.000000 1132.000000 lineto 1164.000000 1137.000000 lineto 1137.000000 1130.000000 lineto 1130.000000 1124.000000 lineto 1116.000000 1119.000000 lineto 1116.000000 1127.000000 lineto 1132.000000 1146.000000 lineto 1156.000000 1158.000000 lineto 1179.000000 1161.000000 lineto 1193.000000 1157.000000 lineto 1221.000000 1136.000000 lineto 1235.000000 1135.000000 lineto 1246.000000 1139.000000 lineto 1268.000000 1171.000000 lineto 1284.000000 1188.000000 lineto 1314.000000 1205.000000 lineto 1309.000000 1211.000000 lineto 1300.000000 1211.000000 lineto 1285.000000 1205.000000 lineto 1258.000000 1186.000000 lineto 1247.000000 1185.000000 lineto 1260.000000 1203.000000 lineto 1284.000000 1218.000000 lineto 1284.000000 1221.000000 lineto 1279.000000 1223.000000 lineto 1280.000000 1229.000000 lineto 1271.000000 1230.000000 lineto 1267.000000 1234.000000 lineto 1257.000000 1232.000000 lineto 1266.000000 1240.000000 lineto 1285.000000 1243.000000 lineto 1301.000000 1241.000000 lineto 1358.000000 1210.000000 lineto 1374.000000 1207.000000 lineto 1386.000000 1224.000000 lineto 1406.000000 1238.000000 lineto 1406.000000 1243.000000 lineto 1396.000000 1240.000000 lineto 1377.000000 1248.000000 lineto 1366.000000 1261.000000 lineto 1364.000000 1276.000000 lineto 1367.000000 1276.000000 lineto 1371.000000 1263.000000 lineto 1383.000000 1257.000000 lineto 1391.000000 1257.000000 lineto 1412.000000 1276.000000 lineto 1418.000000 1294.000000 lineto 1431.000000 1309.000000 lineto 1442.000000 1316.000000 lineto 1450.000000 1314.000000 lineto 1461.000000 1319.000000 lineto 1459.000000 1346.000000 lineto 1464.000000 1363.000000 lineto 1461.000000 1379.000000 lineto 1466.000000 1378.000000 lineto 1472.000000 1370.000000 lineto 1473.000000 1336.000000 lineto 1477.000000 1335.000000 lineto 1481.000000 1328.000000 lineto 1512.000000 1337.000000 lineto 1525.000000 1337.000000 lineto 1535.000000 1333.000000 lineto 1538.000000 1339.000000 lineto 1517.000000 1343.000000 lineto 1510.000000 1346.000000 lineto 1510.000000 1349.000000 lineto 1534.000000 1366.000000 lineto 1551.000000 1374.000000 lineto 1549.000000 1377.000000 lineto 1536.000000 1380.000000 lineto 1584.000000 1387.000000 lineto 1597.000000 1384.000000 lineto 1602.000000 1386.000000 lineto 1598.000000 1396.000000 lineto 1597.000000 1420.000000 lineto 1575.000000 1434.000000 lineto 1560.000000 1431.000000 lineto 1552.000000 1424.000000 lineto 1558.000000 1432.000000 lineto 1579.000000 1437.000000 lineto 1602.000000 1435.000000 lineto 1612.000000 1428.000000 lineto 1618.000000 1408.000000 lineto 1630.000000 1409.000000 lineto 1643.000000 1402.000000 lineto 1661.000000 1401.000000 lineto 1667.000000 1406.000000 lineto 1645.000000 1429.000000 lineto 1657.000000 1430.000000 lineto 1671.000000 1417.000000 lineto 1675.000000 1417.000000 lineto 1685.000000 1432.000000 lineto 1696.000000 1438.000000 lineto 1703.000000 1446.000000 lineto 1710.000000 1458.000000 lineto 1711.000000 1380.000000 moveto 1711.000000 1380.000000 lineto 1712.000000 1386.000000 lineto 1702.000000 1380.000000 lineto 1707.000000 1371.000000 lineto 1711.000000 1375.000000 lineto 1711.000000 1380.000000 lineto 1609.000000 1374.000000 moveto 1609.000000 1374.000000 lineto 1613.000000 1372.000000 lineto 1613.000000 1375.000000 lineto 1609.000000 1374.000000 lineto 1705.000000 1367.000000 moveto 1705.000000 1367.000000 lineto 1707.000000 1369.000000 lineto 1705.000000 1367.000000 lineto 1692.000000 1365.000000 moveto 1692.000000 1365.000000 lineto 1696.000000 1367.000000 lineto 1691.000000 1369.000000 lineto 1687.000000 1366.000000 lineto 1692.000000 1365.000000 lineto 1724.000000 1359.000000 moveto 1724.000000 1359.000000 lineto 1726.000000 1363.000000 lineto 1724.000000 1359.000000 lineto 1705.000000 1328.000000 moveto 1705.000000 1328.000000 lineto 1705.000000 1333.000000 lineto 1699.000000 1333.000000 lineto 1657.000000 1326.000000 lineto 1649.000000 1317.000000 lineto 1645.000000 1290.000000 lineto 1636.000000 1277.000000 lineto 1611.000000 1276.000000 lineto 1601.000000 1272.000000 lineto 1597.000000 1267.000000 lineto 1640.000000 1268.000000 lineto 1669.000000 1278.000000 lineto 1678.000000 1287.000000 lineto 1678.000000 1296.000000 lineto 1671.000000 1313.000000 lineto 1689.000000 1314.000000 lineto 1700.000000 1308.000000 lineto 1705.000000 1328.000000 lineto 1220.000000 1265.000000 moveto 1220.000000 1265.000000 lineto 1240.000000 1263.000000 lineto 1253.000000 1252.000000 lineto 1244.000000 1252.000000 lineto 1229.000000 1258.000000 lineto 1216.000000 1256.000000 lineto 1197.000000 1241.000000 lineto 1193.000000 1231.000000 lineto 1192.000000 1213.000000 lineto 1199.000000 1204.000000 lineto 1231.000000 1197.000000 lineto 1227.000000 1184.000000 lineto 1219.000000 1176.000000 lineto 1174.000000 1183.000000 lineto 1165.000000 1200.000000 lineto 1165.000000 1208.000000 lineto 1174.000000 1233.000000 lineto 1195.000000 1255.000000 lineto 1220.000000 1265.000000 lineto 1654.000000 1242.000000 moveto 1654.000000 1242.000000 lineto 1667.000000 1240.000000 lineto 1665.000000 1226.000000 lineto 1655.000000 1213.000000 lineto 1655.000000 1209.000000 lineto 1661.000000 1205.000000 lineto 1708.000000 1190.000000 lineto 1740.000000 1196.000000 lineto 1766.000000 1208.000000 lineto 1770.000000 1204.000000 lineto 1785.000000 1202.000000 lineto 1808.000000 1189.000000 lineto 1806.000000 1181.000000 lineto 1790.000000 1189.000000 lineto 1785.000000 1188.000000 lineto 1787.000000 1184.000000 lineto 1803.000000 1175.000000 lineto 1842.000000 1169.000000 lineto 1861.000000 1163.000000 lineto 1865.000000 1164.000000 lineto 1861.000000 1177.000000 lineto 1837.000000 1190.000000 lineto 1854.000000 1191.000000 lineto 1855.000000 1199.000000 lineto 1860.000000 1202.000000 lineto 1857.000000 1218.000000 lineto 1861.000000 1226.000000 lineto 1868.000000 1233.000000 lineto 1876.000000 1234.000000 lineto 1887.000000 1224.000000 lineto 1887.000000 1217.000000 lineto 1880.000000 1214.000000 lineto 1881.000000 1209.000000 lineto 1889.000000 1210.000000 lineto 1892.000000 1216.000000 lineto 1896.000000 1213.000000 lineto 1914.000000 1215.000000 lineto 1931.000000 1205.000000 lineto 1951.000000 1164.000000 lineto 1949.000000 1145.000000 lineto 1932.000000 1144.000000 lineto 1930.000000 1141.000000 lineto 1928.000000 1109.000000 lineto 1915.000000 1107.000000 lineto 1904.000000 1101.000000 lineto 1880.000000 1102.000000 lineto 1870.000000 1109.000000 lineto 1860.000000 1111.000000 lineto 1839.000000 1133.000000 lineto 1812.000000 1135.000000 lineto 1781.000000 1151.000000 lineto 1777.000000 1150.000000 lineto 1775.000000 1145.000000 lineto 1748.000000 1131.000000 lineto 1716.000000 1121.000000 lineto 1708.000000 1027.000000 lineto 1692.000000 916.000000 lineto 1692.000000 903.000000 lineto 1706.000000 873.000000 lineto 1715.000000 837.000000 lineto 1715.000000 789.000000 lineto 1694.000000 723.000000 lineto 1674.000000 698.000000 lineto 1677.000000 684.000000 lineto 1676.000000 656.000000 lineto 1667.000000 645.000000 lineto 1652.000000 614.000000 lineto 1629.000000 599.000000 lineto 1632.000000 589.000000 lineto 1624.000000 587.000000 lineto 1622.000000 583.000000 lineto 1612.000000 592.000000 lineto 1604.000000 592.000000 lineto 1599.000000 598.000000 lineto 1582.000000 606.000000 lineto 1558.000000 605.000000 lineto 1556.000000 601.000000 lineto 1546.000000 602.000000 lineto 1538.000000 599.000000 lineto 1534.000000 609.000000 lineto 1538.000000 610.000000 lineto 1539.000000 625.000000 lineto 1553.000000 630.000000 lineto 1550.000000 638.000000 lineto 1554.000000 639.000000 lineto 1554.000000 645.000000 lineto 1549.000000 652.000000 lineto 1551.000000 661.000000 lineto 1539.000000 669.000000 lineto 1528.000000 684.000000 lineto 1508.000000 669.000000 lineto 1492.000000 668.000000 lineto 1482.000000 671.000000 lineto 1474.000000 668.000000 lineto 1463.000000 661.000000 lineto 1447.000000 642.000000 lineto 1448.000000 635.000000 lineto 1451.000000 634.000000 lineto 1464.000000 644.000000 lineto 1486.000000 653.000000 lineto 1490.000000 661.000000 lineto 1530.000000 662.000000 lineto 1533.000000 659.000000 lineto 1531.000000 641.000000 lineto 1513.000000 628.000000 lineto 1507.000000 612.000000 lineto 1502.000000 610.000000 lineto 1501.000000 606.000000 lineto 1530.000000 589.000000 lineto 1609.000000 570.000000 lineto 1648.000000 553.000000 lineto 1652.000000 548.000000 lineto 1652.000000 544.000000 lineto 1648.000000 542.000000 lineto 1650.000000 533.000000 lineto 1654.000000 528.000000 lineto 1661.000000 527.000000 lineto 1674.000000 514.000000 lineto 1667.000000 509.000000 lineto 1667.000000 505.000000 lineto 1673.000000 490.000000 lineto 1686.000000 477.000000 lineto 1687.000000 485.000000 lineto 1676.000000 512.000000 lineto 1675.000000 525.000000 lineto 1678.000000 535.000000 lineto 1683.000000 534.000000 lineto 1692.000000 524.000000 lineto 1702.000000 521.000000 lineto 1709.000000 510.000000 lineto 1708.000000 499.000000 lineto 1702.000000 496.000000 lineto 1702.000000 488.000000 lineto 1711.000000 474.000000 lineto 1714.000000 463.000000 lineto 1712.000000 456.000000 lineto 1702.000000 445.000000 lineto 1686.000000 445.000000 lineto 1681.000000 451.000000 lineto 1672.000000 450.000000 lineto 1646.000000 413.000000 lineto 1641.000000 412.000000 lineto 1631.000000 399.000000 lineto 1656.000000 409.000000 lineto 1673.000000 420.000000 lineto 1677.000000 419.000000 lineto 1676.000000 404.000000 lineto 1651.000000 382.000000 lineto 1616.000000 360.000000 lineto 1582.000000 330.000000 lineto 1573.000000 325.000000 lineto 1567.000000 326.000000 lineto 1531.000000 287.000000 lineto 1514.000000 264.000000 lineto 1501.000000 269.000000 lineto 1496.000000 277.000000 lineto 1486.000000 263.000000 lineto 1476.000000 262.000000 lineto 1468.000000 268.000000 lineto 1455.000000 286.000000 lineto 1457.000000 266.000000 lineto 1454.000000 265.000000 lineto 1453.000000 269.000000 lineto 1450.000000 269.000000 lineto 1445.000000 265.000000 lineto 1433.000000 264.000000 lineto 1433.000000 258.000000 lineto 1438.000000 255.000000 lineto 1440.000000 246.000000 lineto 1436.000000 226.000000 lineto 1411.000000 215.000000 lineto 1372.000000 209.000000 lineto 1360.000000 194.000000 lineto 1352.000000 190.000000 lineto 1342.000000 200.000000 lineto 1333.000000 203.000000 lineto 1297.000000 170.000000 lineto 1238.000000 136.000000 lineto 1212.000000 131.000000 lineto 1202.000000 135.000000 lineto 1196.000000 144.000000 lineto 1189.000000 141.000000 lineto 1174.000000 144.000000 lineto 1095.000000 136.000000 lineto 1071.000000 139.000000 lineto 1059.000000 157.000000 lineto 1059.000000 180.000000 lineto 1072.000000 219.000000 lineto 1078.000000 230.000000 lineto 1084.000000 234.000000 lineto 1087.000000 231.000000 lineto 1112.000000 232.000000 lineto 1124.000000 207.000000 lineto 1151.000000 192.000000 lineto 1158.000000 183.000000 lineto 1163.000000 183.000000 lineto 1171.000000 187.000000 lineto 1172.000000 198.000000 lineto 1181.000000 214.000000 lineto 1187.000000 213.000000 lineto 1190.000000 207.000000 lineto 1198.000000 203.000000 lineto 1239.000000 208.000000 lineto 1312.000000 250.000000 lineto 1313.000000 255.000000 lineto 1304.000000 284.000000 lineto 1299.000000 288.000000 lineto 1301.000000 294.000000 lineto 1310.000000 291.000000 lineto 1321.000000 262.000000 lineto 1325.000000 262.000000 lineto 1316.000000 283.000000 lineto 1317.000000 295.000000 lineto 1327.000000 300.000000 lineto 1340.000000 301.000000 lineto 1340.000000 304.000000 lineto 1330.000000 324.000000 lineto 1313.000000 402.000000 lineto 1297.000000 435.000000 lineto 1282.000000 480.000000 lineto 1279.000000 498.000000 lineto 1270.000000 510.000000 lineto 1281.000000 549.000000 lineto 1281.000000 561.000000 lineto 1220.000000 549.000000 lineto 1178.000000 547.000000 lineto 1155.000000 549.000000 lineto 1134.000000 556.000000 lineto 1100.000000 560.000000 lineto 1074.000000 568.000000 lineto 1052.000000 570.000000 lineto 998.000000 583.000000 lineto 992.000000 578.000000 lineto 985.000000 577.000000 lineto 980.000000 571.000000 lineto 949.000000 569.000000 lineto 946.000000 566.000000 lineto 935.000000 565.000000 lineto 918.000000 566.000000 lineto 901.000000 554.000000 lineto 890.000000 555.000000 lineto 877.000000 548.000000 lineto 868.000000 557.000000 lineto 863.000000 558.000000 lineto 862.000000 572.000000 lineto 879.000000 602.000000 lineto 901.000000 616.000000 lineto 909.000000 630.000000 lineto 923.000000 644.000000 lineto 923.000000 686.000000 lineto 913.000000 767.000000 lineto 899.000000 780.000000 lineto 855.000000 807.000000 lineto 849.000000 822.000000 lineto 849.000000 848.000000 lineto 854.000000 852.000000 lineto 860.000000 851.000000 lineto 868.000000 837.000000 lineto 902.000000 835.000000 lineto 983.000000 815.000000 lineto 1003.000000 807.000000 lineto 1021.000000 795.000000 lineto 1013.000000 833.000000 lineto 986.000000 844.000000 lineto 959.000000 862.000000 lineto 924.000000 898.000000 lineto 928.000000 909.000000 lineto 937.000000 910.000000 lineto 942.000000 918.000000 lineto 947.000000 919.000000 lineto 986.000000 898.000000 lineto 987.000000 885.000000 lineto 1040.000000 860.000000 lineto 1088.000000 829.000000 lineto 1104.000000 824.000000 lineto 1117.000000 815.000000 lineto 1123.000000 808.000000 lineto 1132.000000 779.000000 lineto 1133.000000 746.000000 lineto 1140.000000 747.000000 lineto 1142.000000 767.000000 lineto 1148.000000 766.000000 lineto 1149.000000 773.000000 lineto 1156.000000 774.000000 lineto 1154.000000 780.000000 lineto 1172.000000 786.000000 lineto 1175.000000 791.000000 lineto 1187.000000 789.000000 lineto 1225.000000 795.000000 lineto 1232.000000 789.000000 lineto 1239.000000 789.000000 lineto 1269.000000 802.000000 lineto 1274.000000 802.000000 lineto 1276.000000 796.000000 lineto 1250.000000 783.000000 lineto 1246.000000 778.000000 lineto 1252.000000 763.000000 lineto 1261.000000 767.000000 lineto 1258.000000 773.000000 lineto 1260.000000 777.000000 lineto 1271.000000 776.000000 lineto 1274.000000 780.000000 lineto 1297.000000 779.000000 lineto 1302.000000 781.000000 lineto 1308.000000 791.000000 lineto 1326.000000 792.000000 lineto 1344.000000 782.000000 lineto 1364.000000 764.000000 lineto 1390.000000 762.000000 lineto 1386.000000 792.000000 lineto 1376.000000 795.000000 lineto 1372.000000 802.000000 lineto 1368.000000 802.000000 lineto 1366.000000 797.000000 lineto 1356.000000 798.000000 lineto 1347.000000 791.000000 lineto 1338.000000 790.000000 lineto 1322.000000 812.000000 lineto 1316.000000 811.000000 lineto 1314.000000 821.000000 lineto 1309.000000 823.000000 lineto 1299.000000 847.000000 lineto 1338.000000 867.000000 lineto 1352.000000 868.000000 lineto 1386.000000 836.000000 lineto 1398.000000 812.000000 lineto 1424.000000 816.000000 lineto 1426.000000 813.000000 lineto 1446.000000 810.000000 lineto 1442.000000 828.000000 lineto 1436.000000 837.000000 lineto 1440.000000 858.000000 lineto 1446.000000 870.000000 lineto 1441.000000 870.000000 lineto 1432.000000 863.000000 lineto 1423.000000 864.000000 lineto 1416.000000 870.000000 lineto 1416.000000 877.000000 lineto 1421.000000 884.000000 lineto 1453.000000 894.000000 lineto 1464.000000 909.000000 lineto 1474.000000 913.000000 lineto 1490.000000 913.000000 lineto 1526.000000 901.000000 lineto 1543.000000 889.000000 lineto 1545.000000 892.000000 lineto 1555.000000 889.000000 lineto 1546.000000 917.000000 lineto 1547.000000 925.000000 lineto 1550.000000 920.000000 lineto 1555.000000 925.000000 lineto 1566.000000 902.000000 lineto 1571.000000 903.000000 lineto 1578.000000 916.000000 lineto 1570.000000 939.000000 lineto 1572.000000 950.000000 lineto 1583.000000 955.000000 lineto 1590.000000 965.000000 lineto 1611.000000 1175.000000 lineto 1623.000000 1176.000000 lineto 1626.000000 1173.000000 lineto 1636.000000 1153.000000 lineto 1642.000000 1127.000000 lineto 1642.000000 995.000000 lineto 1653.000000 1032.000000 lineto 1668.000000 1124.000000 lineto 1657.000000 1130.000000 lineto 1641.000000 1150.000000 lineto 1639.000000 1177.000000 lineto 1635.000000 1186.000000 lineto 1639.000000 1190.000000 lineto 1647.000000 1189.000000 lineto 1648.000000 1193.000000 lineto 1643.000000 1207.000000 lineto 1633.000000 1212.000000 lineto 1630.000000 1229.000000 lineto 1634.000000 1237.000000 lineto 1654.000000 1242.000000 lineto 1874.000000 1196.000000 moveto 1874.000000 1196.000000 lineto 1879.000000 1185.000000 lineto 1885.000000 1184.000000 lineto 1889.000000 1187.000000 lineto 1889.000000 1193.000000 lineto 1884.000000 1198.000000 lineto 1875.000000 1200.000000 lineto 1874.000000 1196.000000 lineto 1521.000000 1156.000000 moveto 1521.000000 1156.000000 lineto 1545.000000 1154.000000 lineto 1546.000000 1151.000000 lineto 1527.000000 1147.000000 lineto 1509.000000 1151.000000 lineto 1521.000000 1156.000000 lineto 493.000000 1106.000000 moveto 493.000000 1106.000000 lineto 528.000000 1106.000000 lineto 573.000000 1091.000000 lineto 625.000000 1048.000000 lineto 635.000000 1034.000000 lineto 636.000000 1025.000000 lineto 631.000000 1024.000000 lineto 632.000000 1012.000000 lineto 626.000000 999.000000 lineto 606.000000 1005.000000 lineto 576.000000 1005.000000 lineto 562.000000 998.000000 lineto 547.000000 983.000000 lineto 535.000000 959.000000 lineto 538.000000 927.000000 lineto 534.000000 905.000000 lineto 526.000000 887.000000 lineto 492.000000 842.000000 lineto 466.000000 816.000000 lineto 443.000000 799.000000 lineto 419.000000 785.000000 lineto 401.000000 779.000000 lineto 391.000000 779.000000 lineto 390.000000 784.000000 lineto 369.000000 785.000000 lineto 352.000000 792.000000 lineto 333.000000 795.000000 lineto 310.000000 796.000000 lineto 298.000000 793.000000 lineto 286.000000 780.000000 lineto 280.000000 762.000000 lineto 280.000000 747.000000 lineto 285.000000 725.000000 lineto 295.000000 709.000000 lineto 282.000000 710.000000 lineto 280.000000 713.000000 lineto 272.000000 744.000000 lineto 272.000000 766.000000 lineto 275.000000 779.000000 lineto 284.000000 794.000000 lineto 300.000000 805.000000 lineto 316.000000 809.000000 lineto 346.000000 807.000000 lineto 373.000000 796.000000 lineto 404.000000 799.000000 lineto 425.000000 808.000000 lineto 452.000000 827.000000 lineto 487.000000 863.000000 lineto 514.000000 901.000000 lineto 518.000000 923.000000 lineto 514.000000 950.000000 lineto 520.000000 974.000000 lineto 516.000000 974.000000 lineto 513.000000 962.000000 lineto 491.000000 929.000000 lineto 471.000000 905.000000 lineto 458.000000 895.000000 lineto 448.000000 877.000000 lineto 428.000000 859.000000 lineto 397.000000 844.000000 lineto 366.000000 836.000000 lineto 351.000000 836.000000 lineto 348.000000 840.000000 lineto 332.000000 844.000000 lineto 315.000000 854.000000 lineto 281.000000 842.000000 lineto 254.000000 840.000000 lineto 232.000000 849.000000 lineto 212.000000 872.000000 lineto 208.000000 864.000000 lineto 208.000000 853.000000 lineto 222.000000 833.000000 lineto 232.000000 826.000000 lineto 232.000000 821.000000 lineto 226.000000 817.000000 lineto 263.000000 827.000000 lineto 268.000000 826.000000 lineto 251.000000 805.000000 lineto 241.000000 801.000000 lineto 222.000000 802.000000 lineto 209.000000 813.000000 lineto 205.000000 813.000000 lineto 204.000000 810.000000 lineto 195.000000 813.000000 lineto 187.000000 829.000000 lineto 185.000000 861.000000 lineto 197.000000 908.000000 lineto 178.000000 919.000000 lineto 159.000000 923.000000 lineto 128.000000 920.000000 lineto 115.000000 913.000000 lineto 104.000000 902.000000 lineto 91.000000 874.000000 lineto 87.000000 844.000000 lineto 82.000000 844.000000 lineto 81.000000 854.000000 lineto 91.000000 899.000000 lineto 90.000000 905.000000 lineto 107.000000 934.000000 lineto 132.000000 957.000000 lineto 174.000000 969.000000 lineto 186.000000 968.000000 lineto 187.000000 973.000000 lineto 190.000000 973.000000 lineto 216.000000 964.000000 lineto 231.000000 954.000000 lineto 242.000000 942.000000 lineto 249.000000 944.000000 lineto 246.000000 993.000000 lineto 237.000000 1013.000000 lineto 225.000000 1019.000000 lineto 215.000000 1019.000000 lineto 214.000000 1016.000000 lineto 194.000000 1011.000000 lineto 171.000000 997.000000 lineto 195.000000 1017.000000 lineto 215.000000 1024.000000 lineto 237.000000 1022.000000 lineto 250.000000 1010.000000 lineto 262.000000 978.000000 lineto 276.000000 955.000000 lineto 284.000000 958.000000 lineto 282.000000 971.000000 lineto 290.000000 959.000000 lineto 313.000000 955.000000 lineto 348.000000 991.000000 lineto 379.000000 1017.000000 lineto 398.000000 1052.000000 lineto 422.000000 1078.000000 lineto 457.000000 1097.000000 lineto 493.000000 1106.000000 lineto 1212.000000 1101.000000 moveto 1212.000000 1101.000000 lineto 1218.000000 1099.000000 lineto 1216.000000 1103.000000 lineto 1212.000000 1101.000000 lineto 1279.000000 1041.000000 moveto 1279.000000 1041.000000 lineto 1296.000000 1036.000000 lineto 1302.000000 1036.000000 lineto 1307.000000 1040.000000 lineto 1306.000000 1044.000000 lineto 1290.000000 1045.000000 lineto 1287.000000 1055.000000 lineto 1282.000000 1053.000000 lineto 1279.000000 1041.000000 lineto 650.000000 1024.000000 moveto 650.000000 1024.000000 lineto 666.000000 1013.000000 lineto 692.000000 1013.000000 lineto 704.000000 1009.000000 lineto 715.000000 999.000000 lineto 711.000000 986.000000 lineto 700.000000 983.000000 lineto 699.000000 978.000000 lineto 689.000000 970.000000 lineto 658.000000 975.000000 lineto 642.000000 995.000000 lineto 638.000000 1008.000000 lineto 639.000000 1022.000000 lineto 650.000000 1024.000000 lineto 788.000000 1014.000000 moveto 788.000000 1014.000000 lineto 791.000000 1013.000000 lineto 783.000000 1007.000000 lineto 743.000000 987.000000 lineto 731.000000 984.000000 lineto 757.000000 1004.000000 lineto 777.000000 1013.000000 lineto 788.000000 1014.000000 lineto 1418.000000 977.000000 moveto 1418.000000 977.000000 lineto 1429.000000 973.000000 lineto 1443.000000 957.000000 lineto 1446.000000 947.000000 lineto 1442.000000 943.000000 lineto 1413.000000 967.000000 lineto 1418.000000 977.000000 lineto 685.000000 905.000000 moveto 685.000000 905.000000 lineto 688.000000 903.000000 lineto 687.000000 876.000000 lineto 680.000000 867.000000 lineto 676.000000 855.000000 lineto 675.000000 812.000000 lineto 688.000000 801.000000 lineto 723.000000 725.000000 lineto 741.000000 696.000000 lineto 809.000000 634.000000 lineto 816.000000 620.000000 lineto 830.000000 566.000000 lineto 832.000000 573.000000 lineto 826.000000 589.000000 lineto 822.000000 622.000000 lineto 824.000000 627.000000 lineto 835.000000 618.000000 lineto 839.000000 601.000000 lineto 848.000000 585.000000 lineto 847.000000 538.000000 lineto 838.000000 494.000000 lineto 826.000000 466.000000 lineto 805.000000 439.000000 lineto 804.000000 434.000000 lineto 813.000000 432.000000 lineto 820.000000 424.000000 lineto 820.000000 416.000000 lineto 817.000000 413.000000 lineto 856.000000 410.000000 lineto 905.000000 391.000000 lineto 931.000000 376.000000 lineto 928.000000 370.000000 lineto 897.000000 365.000000 lineto 879.000000 366.000000 lineto 849.000000 378.000000 lineto 836.000000 377.000000 lineto 834.000000 372.000000 lineto 870.000000 363.000000 lineto 934.000000 333.000000 lineto 937.000000 335.000000 lineto 933.000000 339.000000 lineto 942.000000 343.000000 lineto 1011.000000 320.000000 lineto 1026.000000 310.000000 lineto 1028.000000 290.000000 lineto 1036.000000 306.000000 lineto 1042.000000 305.000000 lineto 1046.000000 308.000000 lineto 1051.000000 303.000000 lineto 1051.000000 265.000000 lineto 1044.000000 265.000000 lineto 1036.000000 278.000000 lineto 1032.000000 270.000000 lineto 1032.000000 250.000000 lineto 1041.000000 236.000000 lineto 1040.000000 218.000000 lineto 1028.000000 209.000000 lineto 1012.000000 204.000000 lineto 1011.000000 196.000000 lineto 1017.000000 190.000000 lineto 1018.000000 182.000000 lineto 994.000000 163.000000 lineto 1000.000000 154.000000 lineto 1000.000000 149.000000 lineto 996.000000 146.000000 lineto 990.000000 149.000000 lineto 985.000000 160.000000 lineto 974.000000 164.000000 lineto 961.000000 157.000000 lineto 955.000000 147.000000 lineto 942.000000 143.000000 lineto 938.000000 138.000000 lineto 929.000000 138.000000 lineto 905.000000 160.000000 lineto 876.000000 173.000000 lineto 879.000000 144.000000 lineto 872.000000 142.000000 lineto 863.000000 148.000000 lineto 847.000000 174.000000 lineto 841.000000 208.000000 lineto 853.000000 211.000000 lineto 865.000000 195.000000 lineto 870.000000 193.000000 lineto 866.000000 198.000000 lineto 868.000000 202.000000 lineto 883.000000 203.000000 lineto 920.000000 235.000000 lineto 936.000000 244.000000 lineto 949.000000 246.000000 lineto 948.000000 254.000000 lineto 980.000000 248.000000 lineto 979.000000 277.000000 lineto 924.000000 294.000000 lineto 868.000000 320.000000 lineto 849.000000 332.000000 lineto 791.000000 344.000000 lineto 761.000000 360.000000 lineto 744.000000 377.000000 lineto 740.000000 387.000000 lineto 727.000000 402.000000 lineto 720.000000 435.000000 lineto 720.000000 443.000000 lineto 746.000000 487.000000 lineto 733.000000 483.000000 lineto 711.000000 486.000000 lineto 696.000000 492.000000 lineto 675.000000 510.000000 lineto 677.000000 514.000000 lineto 673.000000 520.000000 lineto 673.000000 542.000000 lineto 677.000000 552.000000 lineto 694.000000 568.000000 lineto 738.000000 590.000000 lineto 751.000000 605.000000 lineto 752.000000 616.000000 lineto 758.000000 621.000000 lineto 773.000000 607.000000 lineto 775.000000 579.000000 lineto 753.000000 520.000000 lineto 753.000000 511.000000 lineto 748.000000 506.000000 lineto 750.000000 494.000000 lineto 774.000000 545.000000 lineto 781.000000 590.000000 lineto 779.000000 604.000000 lineto 769.000000 620.000000 lineto 756.000000 624.000000 lineto 737.000000 622.000000 lineto 721.000000 626.000000 lineto 681.000000 646.000000 lineto 653.000000 674.000000 lineto 640.000000 700.000000 lineto 636.000000 728.000000 lineto 637.000000 815.000000 lineto 640.000000 833.000000 lineto 654.000000 865.000000 lineto 656.000000 879.000000 lineto 661.000000 885.000000 lineto 661.000000 894.000000 lineto 672.000000 896.000000 lineto 685.000000 905.000000 lineto 300.000000 903.000000 moveto 300.000000 903.000000 lineto 309.000000 896.000000 lineto 320.000000 897.000000 lineto 309.000000 906.000000 lineto 302.000000 907.000000 lineto 300.000000 903.000000 lineto 278.000000 900.000000 moveto 278.000000 900.000000 lineto 286.000000 898.000000 lineto 283.000000 902.000000 lineto 278.000000 900.000000 lineto 432.000000 881.000000 moveto 432.000000 881.000000 lineto 433.000000 883.000000 lineto 398.000000 881.000000 lineto 373.000000 888.000000 lineto 366.000000 881.000000 lineto 344.000000 870.000000 lineto 343.000000 866.000000 lineto 357.000000 856.000000 lineto 362.000000 860.000000 lineto 388.000000 860.000000 lineto 411.000000 866.000000 lineto 426.000000 874.000000 lineto 432.000000 881.000000 lineto 744.000000 841.000000 moveto 744.000000 841.000000 lineto 755.000000 835.000000 lineto 769.000000 818.000000 lineto 783.000000 811.000000 lineto 784.000000 802.000000 lineto 777.000000 794.000000 lineto 768.000000 793.000000 lineto 756.000000 798.000000 lineto 754.000000 796.000000 lineto 785.000000 753.000000 lineto 822.000000 758.000000 lineto 860.000000 749.000000 lineto 880.000000 725.000000 lineto 897.000000 695.000000 lineto 907.000000 672.000000 lineto 905.000000 638.000000 lineto 881.000000 628.000000 lineto 879.000000 612.000000 lineto 865.000000 591.000000 lineto 856.000000 597.000000 lineto 854.000000 603.000000 lineto 846.000000 604.000000 lineto 846.000000 668.000000 lineto 823.000000 689.000000 lineto 790.000000 697.000000 lineto 755.000000 721.000000 lineto 733.000000 744.000000 lineto 713.000000 780.000000 lineto 708.000000 819.000000 lineto 722.000000 818.000000 lineto 741.000000 809.000000 lineto 733.000000 823.000000 lineto 742.000000 823.000000 lineto 753.000000 817.000000 lineto 747.000000 827.000000 lineto 740.000000 831.000000 lineto 740.000000 837.000000 lineto 744.000000 841.000000 lineto 1517.000000 817.000000 moveto 1517.000000 817.000000 lineto 1525.000000 808.000000 lineto 1541.000000 805.000000 lineto 1542.000000 818.000000 lineto 1539.000000 823.000000 lineto 1531.000000 824.000000 lineto 1524.000000 819.000000 lineto 1517.000000 820.000000 lineto 1517.000000 817.000000 lineto 1523.000000 797.000000 moveto 1523.000000 797.000000 lineto 1530.000000 795.000000 lineto 1525.000000 802.000000 lineto 1523.000000 797.000000 lineto 1472.000000 796.000000 moveto 1472.000000 796.000000 lineto 1481.000000 789.000000 lineto 1492.000000 789.000000 lineto 1512.000000 783.000000 lineto 1521.000000 772.000000 lineto 1525.000000 764.000000 lineto 1526.000000 742.000000 lineto 1520.000000 736.000000 lineto 1514.000000 743.000000 lineto 1511.000000 740.000000 lineto 1520.000000 732.000000 lineto 1522.000000 709.000000 lineto 1529.000000 705.000000 lineto 1535.000000 712.000000 lineto 1542.000000 712.000000 lineto 1557.000000 721.000000 lineto 1558.000000 744.000000 lineto 1553.000000 759.000000 lineto 1523.000000 795.000000 lineto 1514.000000 793.000000 lineto 1510.000000 796.000000 lineto 1504.000000 816.000000 lineto 1498.000000 805.000000 lineto 1476.000000 802.000000 lineto 1472.000000 796.000000 lineto 1503.000000 755.000000 moveto 1503.000000 755.000000 lineto 1510.000000 752.000000 lineto 1506.000000 760.000000 lineto 1503.000000 760.000000 lineto 1503.000000 755.000000 lineto 1494.000000 746.000000 moveto 1494.000000 746.000000 lineto 1501.000000 744.000000 lineto 1497.000000 750.000000 lineto 1494.000000 746.000000 lineto 1462.000000 687.000000 moveto 1462.000000 687.000000 lineto 1462.000000 691.000000 lineto 1457.000000 693.000000 lineto 1443.000000 681.000000 lineto 1424.000000 674.000000 lineto 1417.000000 666.000000 lineto 1409.000000 664.000000 lineto 1415.000000 653.000000 lineto 1410.000000 634.000000 lineto 1435.000000 670.000000 lineto 1462.000000 687.000000 lineto 1223.000000 658.000000 moveto 1223.000000 658.000000 lineto 1199.000000 656.000000 lineto 1160.000000 645.000000 lineto 1127.000000 641.000000 lineto 1106.000000 642.000000 lineto 1105.000000 637.000000 lineto 1163.000000 636.000000 lineto 1223.000000 658.000000 lineto 878.000000 526.000000 moveto 878.000000 526.000000 lineto 884.000000 526.000000 lineto 896.000000 518.000000 lineto 947.000000 504.000000 lineto 952.000000 505.000000 lineto 939.000000 521.000000 lineto 940.000000 525.000000 lineto 991.000000 510.000000 lineto 1055.000000 501.000000 lineto 1073.000000 494.000000 lineto 1078.000000 476.000000 lineto 1099.000000 467.000000 lineto 1110.000000 455.000000 lineto 1109.000000 430.000000 lineto 1121.000000 409.000000 lineto 1121.000000 404.000000 lineto 1107.000000 396.000000 lineto 1100.000000 387.000000 lineto 1091.000000 362.000000 lineto 1082.000000 352.000000 lineto 1084.000000 347.000000 lineto 1080.000000 343.000000 lineto 1085.000000 340.000000 lineto 1085.000000 336.000000 lineto 1079.000000 336.000000 lineto 1079.000000 329.000000 lineto 1069.000000 327.000000 lineto 1045.000000 343.000000 lineto 1034.000000 356.000000 lineto 1018.000000 362.000000 lineto 995.000000 377.000000 lineto 997.000000 383.000000 lineto 1007.000000 387.000000 lineto 1006.000000 398.000000 lineto 1013.000000 407.000000 lineto 1011.000000 412.000000 lineto 1025.000000 425.000000 lineto 1045.000000 434.000000 lineto 1040.000000 449.000000 lineto 1018.000000 450.000000 lineto 1011.000000 444.000000 lineto 961.000000 438.000000 lineto 910.000000 448.000000 lineto 891.000000 456.000000 lineto 875.000000 457.000000 lineto 860.000000 469.000000 lineto 854.000000 492.000000 lineto 864.000000 521.000000 lineto 878.000000 526.000000 lineto 1623.000000 508.000000 moveto 1623.000000 508.000000 lineto 1630.000000 505.000000 lineto 1625.000000 513.000000 lineto 1623.000000 508.000000 lineto 1643.000000 483.000000 moveto 1643.000000 483.000000 lineto 1645.000000 479.000000 lineto 1648.000000 480.000000 lineto 1644.000000 487.000000 lineto 1643.000000 483.000000 lineto 1618.000000 472.000000 moveto 1618.000000 472.000000 lineto 1619.000000 476.000000 lineto 1613.000000 486.000000 lineto 1604.000000 491.000000 lineto 1571.000000 490.000000 lineto 1535.000000 494.000000 lineto 1447.000000 511.000000 lineto 1423.000000 512.000000 lineto 1412.000000 492.000000 lineto 1411.000000 466.000000 lineto 1419.000000 431.000000 lineto 1415.000000 418.000000 lineto 1424.000000 344.000000 lineto 1417.000000 342.000000 lineto 1415.000000 316.000000 lineto 1412.000000 311.000000 lineto 1392.000000 304.000000 lineto 1371.000000 305.000000 lineto 1366.000000 300.000000 lineto 1358.000000 300.000000 lineto 1360.000000 254.000000 lineto 1383.000000 243.000000 lineto 1415.000000 253.000000 lineto 1422.000000 266.000000 lineto 1422.000000 272.000000 lineto 1405.000000 289.000000 lineto 1401.000000 302.000000 lineto 1414.000000 308.000000 lineto 1422.000000 308.000000 lineto 1431.000000 315.000000 lineto 1438.000000 313.000000 lineto 1435.000000 323.000000 lineto 1427.000000 331.000000 lineto 1428.000000 335.000000 lineto 1453.000000 351.000000 lineto 1539.000000 382.000000 lineto 1581.000000 405.000000 lineto 1599.000000 421.000000 lineto 1610.000000 438.000000 lineto 1618.000000 472.000000 lineto 791.000000 419.000000 moveto 791.000000 419.000000 lineto 796.000000 411.000000 lineto 813.000000 412.000000 lineto 795.000000 424.000000 lineto 791.000000 424.000000 lineto 791.000000 419.000000 lineto 569.000000 323.000000 moveto 569.000000 323.000000 lineto 572.000000 322.000000 lineto 566.000000 311.000000 lineto 563.000000 315.000000 lineto 558.000000 315.000000 lineto 561.000000 320.000000 lineto 569.000000 323.000000 lineto 1527.000000 310.000000 moveto 1527.000000 310.000000 lineto 1527.000000 310.000000 lineto 1526.000000 308.000000 moveto 1526.000000 308.000000 lineto 1527.000000 310.000000 lineto 1523.000000 309.000000 lineto 1511.000000 300.000000 lineto 1502.000000 283.000000 lineto 1526.000000 308.000000 lineto 713.000000 279.000000 moveto 713.000000 279.000000 lineto 717.000000 276.000000 lineto 717.000000 268.000000 lineto 713.000000 270.000000 lineto 713.000000 279.000000 lineto 804.000000 278.000000 moveto 804.000000 278.000000 lineto 816.000000 278.000000 lineto 822.000000 274.000000 lineto 825.000000 271.000000 lineto 825.000000 262.000000 lineto 819.000000 260.000000 lineto 814.000000 266.000000 lineto 796.000000 272.000000 lineto 804.000000 278.000000 lineto 1185.000000 267.000000 moveto 1185.000000 267.000000 lineto 1195.000000 263.000000 lineto 1198.000000 257.000000 lineto 1196.000000 249.000000 lineto 1189.000000 252.000000 lineto 1185.000000 267.000000 lineto 1018.000000 266.000000 moveto 1018.000000 266.000000 lineto 1019.000000 269.000000 lineto 1018.000000 266.000000 lineto 1453.000000 252.000000 moveto 1453.000000 252.000000 lineto 1464.000000 244.000000 lineto 1463.000000 235.000000 lineto 1455.000000 236.000000 lineto 1453.000000 252.000000 lineto 862.000000 244.000000 moveto 862.000000 244.000000 lineto 872.000000 243.000000 lineto 875.000000 232.000000 lineto 869.000000 231.000000 lineto 862.000000 244.000000 lineto 1478.000000 201.000000 moveto 1478.000000 201.000000 lineto 1483.000000 197.000000 lineto 1482.000000 191.000000 lineto 1477.000000 194.000000 lineto 1478.000000 201.000000 lineto 1449.000000 196.000000 moveto 1449.000000 196.000000 lineto 1454.000000 192.000000 lineto 1452.000000 187.000000 lineto 1446.000000 190.000000 lineto 1449.000000 196.000000 lineto 1183.000000 190.000000 moveto 1183.000000 190.000000 lineto 1187.000000 189.000000 lineto 1187.000000 192.000000 lineto 1184.000000 193.000000 lineto 1183.000000 190.000000 lineto 1112.000000 187.000000 moveto 1112.000000 187.000000 lineto 1116.000000 182.000000 lineto 1116.000000 190.000000 lineto 1112.000000 187.000000 lineto 1184.000000 179.000000 moveto 1184.000000 179.000000 lineto 1185.000000 184.000000 lineto 1181.000000 185.000000 lineto 1176.000000 175.000000 lineto 1180.000000 167.000000 lineto 1183.000000 167.000000 lineto 1184.000000 179.000000 lineto 1158.000000 170.000000 moveto 1158.000000 170.000000 lineto 1162.000000 165.000000 lineto 1161.000000 175.000000 lineto 1158.000000 174.000000 lineto 1158.000000 170.000000 lineto 1310.000000 157.000000 moveto 1310.000000 157.000000 lineto 1316.000000 155.000000 lineto 1318.000000 146.000000 lineto 1309.000000 149.000000 lineto 1310.000000 157.000000 lineto 1274.000000 134.000000 moveto 1274.000000 134.000000 lineto 1283.000000 129.000000 lineto 1281.000000 112.000000 lineto 1276.000000 108.000000 lineto 1258.000000 111.000000 lineto 1257.000000 122.000000 lineto 1269.000000 128.000000 lineto 1269.000000 132.000000 lineto 1274.000000 134.000000 lineto 1226.000000 125.000000 moveto 1226.000000 125.000000 lineto 1237.000000 122.000000 lineto 1239.000000 117.000000 lineto 1227.000000 115.000000 lineto 1221.000000 120.000000 lineto 1226.000000 125.000000 lineto 1404.000000 120.000000 moveto 1404.000000 120.000000 lineto 1407.000000 118.000000 lineto 1407.000000 110.000000 lineto 1402.000000 112.000000 lineto 1404.000000 120.000000 lineto 975.000000 119.000000 moveto 975.000000 119.000000 lineto 980.000000 119.000000 lineto 984.000000 113.000000 lineto 993.000000 113.000000 lineto 1004.000000 108.000000 lineto 1007.000000 103.000000 lineto 1006.000000 91.000000 lineto 995.000000 84.000000 lineto 991.000000 85.000000 lineto 974.000000 110.000000 lineto 975.000000 119.000000 lineto 922.000000 95.000000 moveto 922.000000 95.000000 lineto 946.000000 89.000000 lineto 949.000000 82.000000 lineto 947.000000 76.000000 lineto 944.000000 74.000000 lineto 939.000000 77.000000 lineto 936.000000 74.000000 lineto 930.000000 77.000000 lineto 922.000000 95.000000 lineto 1195.000000 85.000000 moveto 1195.000000 85.000000 lineto 1196.000000 78.000000 lineto 1195.000000 85.000000 lineto 951.000000 52.000000 moveto 951.000000 52.000000 lineto 960.000000 51.000000 lineto 968.000000 46.000000 lineto 969.000000 36.000000 lineto 954.000000 33.000000 lineto 944.000000 39.000000 lineto 940.000000 44.000000 lineto 948.000000 47.000000 lineto 951.000000 52.000000 lineto 879.000000 32.000000 moveto 879.000000 32.000000 lineto 887.000000 28.000000 lineto 886.000000 16.000000 lineto 880.000000 17.000000 lineto 873.000000 26.000000 lineto 873.000000 29.000000 lineto 879.000000 32.000000 lineto 958.000000 26.000000 moveto 958.000000 26.000000 lineto 965.000000 25.000000 lineto 969.000000 16.000000 lineto 967.000000 12.000000 lineto 961.000000 13.000000 lineto 954.000000 22.000000 lineto 958.000000 26.000000 lineto 
fill 
showpage
