%!PS-Adobe-3.0 EPSF-3.0
%%BoundingBox: 0 0 1000 1000
16.000000 978.000000 moveto 16.000000 978.000000 lineto 976.000000 978.000000 lineto 976.000000 18.000000 lineto 16.000000 18.000000 lineto 16.000000 978.000000 lineto 45.000000 948.000000 moveto 45.000000 948.000000 lineto 946.000000 948.000000 lineto 946.000000 47.000000 lineto 45.000000 47.000000 lineto 45.000000 948.000000 lineto 578.000000 934.000000 moveto 578.000000 934.000000 lineto 588.000000 934.000000 lineto 596.000000 929.000000 lineto 597.000000 911.000000 lineto 592.000000 905.000000 lineto 571.000000 905.000000 lineto 563.000000 901.000000 lineto 554.000000 889.000000 lineto 557.000000 877.000000 lineto 568.000000 893.000000 lineto 596.000000 901.000000 lineto 608.000000 911.000000 lineto 608.000000 924.000000 lineto 602.000000 933.000000 lineto 590.000000 938.000000 lineto 570.000000 938.000000 lineto 561.000000 935.000000 lineto 549.000000 921.000000 lineto 535.000000 915.000000 lineto 533.000000 910.000000 lineto 548.000000 910.000000 lineto 567.000000 932.000000 lineto 578.000000 934.000000 lineto 651.000000 934.000000 moveto 651.000000 934.000000 lineto 656.000000 930.000000 lineto 676.000000 933.000000 lineto 655.000000 938.000000 lineto 651.000000 938.000000 lineto 651.000000 934.000000 lineto 741.000000 932.000000 moveto 741.000000 932.000000 lineto 774.000000 932.000000 lineto 810.000000 924.000000 lineto 842.000000 910.000000 lineto 869.000000 893.000000 lineto 869.000000 904.000000 lineto 846.000000 919.000000 lineto 817.000000 932.000000 lineto 782.000000 940.000000 lineto 750.000000 941.000000 lineto 707.000000 935.000000 lineto 675.000000 922.000000 lineto 667.000000 914.000000 lineto 673.000000 911.000000 lineto 701.000000 924.000000 lineto 741.000000 932.000000 lineto 137.000000 931.000000 moveto 137.000000 931.000000 lineto 145.000000 929.000000 lineto 145.000000 922.000000 lineto 136.000000 907.000000 lineto 142.000000 910.000000 lineto 154.000000 925.000000 lineto 154.000000 931.000000 lineto 148.000000 938.000000 lineto 138.000000 938.000000 lineto 133.000000 929.000000 lineto 137.000000 931.000000 lineto 425.000000 931.000000 moveto 425.000000 931.000000 lineto 425.000000 926.000000 lineto 397.000000 921.000000 lineto 386.000000 923.000000 lineto 383.000000 920.000000 lineto 401.000000 904.000000 lineto 420.000000 903.000000 lineto 416.000000 894.000000 lineto 424.000000 890.000000 lineto 440.000000 890.000000 lineto 448.000000 903.000000 lineto 461.000000 904.000000 lineto 467.000000 898.000000 lineto 470.000000 882.000000 lineto 473.000000 911.000000 lineto 468.000000 923.000000 lineto 450.000000 933.000000 lineto 433.000000 934.000000 lineto 425.000000 931.000000 lineto 502.000000 931.000000 moveto 502.000000 931.000000 lineto 505.000000 928.000000 lineto 514.000000 928.000000 lineto 516.000000 936.000000 lineto 505.000000 938.000000 lineto 502.000000 931.000000 lineto 80.000000 930.000000 moveto 80.000000 930.000000 lineto 91.000000 929.000000 lineto 96.000000 925.000000 lineto 100.000000 904.000000 lineto 70.000000 836.000000 lineto 71.000000 819.000000 lineto 78.000000 809.000000 lineto 92.000000 806.000000 lineto 109.000000 813.000000 lineto 135.000000 852.000000 lineto 154.000000 871.000000 lineto 168.000000 875.000000 lineto 174.000000 873.000000 lineto 182.000000 862.000000 lineto 190.000000 866.000000 lineto 190.000000 880.000000 lineto 182.000000 888.000000 lineto 159.000000 890.000000 lineto 151.000000 887.000000 lineto 149.000000 896.000000 lineto 139.000000 895.000000 lineto 129.000000 890.000000 lineto 123.000000 873.000000 lineto 111.000000 859.000000 lineto 105.000000 844.000000 lineto 96.000000 839.000000 lineto 94.000000 845.000000 lineto 97.000000 852.000000 lineto 121.000000 885.000000 lineto 124.000000 897.000000 lineto 123.000000 917.000000 lineto 120.000000 921.000000 lineto 113.000000 916.000000 lineto 103.000000 933.000000 lineto 95.000000 938.000000 lineto 81.000000 940.000000 lineto 67.000000 936.000000 lineto 58.000000 920.000000 lineto 59.000000 903.000000 lineto 70.000000 886.000000 lineto 70.000000 878.000000 lineto 64.000000 873.000000 lineto 66.000000 869.000000 lineto 75.000000 871.000000 lineto 80.000000 882.000000 lineto 79.000000 890.000000 lineto 68.000000 909.000000 lineto 69.000000 923.000000 lineto 80.000000 930.000000 lineto 319.000000 930.000000 moveto 319.000000 930.000000 lineto 319.000000 930.000000 lineto 242.000000 929.000000 moveto 242.000000 929.000000 lineto 278.000000 926.000000 lineto 304.000000 917.000000 lineto 336.000000 898.000000 lineto 358.000000 878.000000 lineto 353.000000 892.000000 lineto 359.000000 891.000000 lineto 372.000000 877.000000 lineto 382.000000 860.000000 lineto 386.000000 843.000000 lineto 384.000000 827.000000 lineto 380.000000 818.000000 lineto 360.000000 794.000000 lineto 352.000000 793.000000 lineto 350.000000 798.000000 lineto 373.000000 816.000000 lineto 380.000000 838.000000 lineto 378.000000 852.000000 lineto 375.000000 839.000000 lineto 368.000000 836.000000 lineto 375.000000 861.000000 lineto 364.000000 880.000000 lineto 365.000000 856.000000 lineto 359.000000 839.000000 lineto 349.000000 832.000000 lineto 321.000000 829.000000 lineto 302.000000 821.000000 lineto 297.000000 813.000000 lineto 304.000000 810.000000 lineto 306.000000 805.000000 lineto 286.000000 790.000000 lineto 281.000000 766.000000 lineto 300.000000 767.000000 lineto 324.000000 762.000000 lineto 341.000000 765.000000 lineto 342.000000 757.000000 lineto 339.000000 752.000000 lineto 355.000000 753.000000 lineto 367.000000 759.000000 lineto 376.000000 768.000000 lineto 392.000000 801.000000 lineto 396.000000 803.000000 lineto 400.000000 799.000000 lineto 400.000000 790.000000 lineto 386.000000 747.000000 lineto 396.000000 757.000000 lineto 405.000000 777.000000 lineto 407.000000 768.000000 lineto 400.000000 751.000000 lineto 391.000000 742.000000 lineto 373.000000 733.000000 lineto 355.000000 732.000000 lineto 338.000000 735.000000 lineto 322.000000 742.000000 lineto 304.000000 743.000000 lineto 291.000000 740.000000 lineto 285.000000 735.000000 lineto 286.000000 730.000000 lineto 291.000000 727.000000 lineto 289.000000 724.000000 lineto 247.000000 727.000000 lineto 230.000000 718.000000 lineto 259.000000 684.000000 lineto 277.000000 678.000000 lineto 269.000000 662.000000 lineto 272.000000 655.000000 lineto 312.000000 653.000000 lineto 334.000000 661.000000 lineto 340.000000 661.000000 lineto 340.000000 656.000000 lineto 318.000000 646.000000 lineto 277.000000 638.000000 lineto 245.000000 642.000000 lineto 213.000000 656.000000 lineto 214.000000 652.000000 lineto 233.000000 635.000000 lineto 221.000000 638.000000 lineto 207.000000 652.000000 lineto 201.000000 663.000000 lineto 201.000000 672.000000 lineto 212.000000 707.000000 lineto 211.000000 712.000000 lineto 206.000000 713.000000 lineto 203.000000 719.000000 lineto 212.000000 738.000000 lineto 211.000000 749.000000 lineto 207.000000 745.000000 lineto 205.000000 755.000000 lineto 200.000000 745.000000 lineto 198.000000 757.000000 lineto 203.000000 769.000000 lineto 206.000000 756.000000 lineto 210.000000 759.000000 lineto 211.000000 751.000000 lineto 217.000000 785.000000 lineto 188.000000 779.000000 lineto 168.000000 763.000000 lineto 163.000000 765.000000 lineto 164.000000 774.000000 lineto 156.000000 774.000000 lineto 148.000000 768.000000 lineto 144.000000 758.000000 lineto 143.000000 740.000000 lineto 152.000000 711.000000 lineto 149.000000 705.000000 lineto 140.000000 706.000000 lineto 134.000000 720.000000 lineto 134.000000 744.000000 lineto 138.000000 759.000000 lineto 149.000000 780.000000 lineto 176.000000 811.000000 lineto 167.000000 811.000000 lineto 158.000000 806.000000 lineto 139.000000 780.000000 lineto 136.000000 781.000000 lineto 136.000000 786.000000 lineto 140.000000 793.000000 lineto 127.000000 784.000000 lineto 120.000000 766.000000 lineto 120.000000 738.000000 lineto 126.000000 718.000000 lineto 139.000000 692.000000 lineto 171.000000 659.000000 lineto 167.000000 677.000000 lineto 150.000000 694.000000 lineto 166.000000 682.000000 lineto 168.000000 722.000000 lineto 171.000000 730.000000 lineto 174.000000 733.000000 lineto 178.000000 732.000000 lineto 178.000000 722.000000 lineto 172.000000 706.000000 lineto 173.000000 683.000000 lineto 185.000000 651.000000 lineto 195.000000 642.000000 lineto 187.000000 657.000000 lineto 187.000000 680.000000 lineto 190.000000 678.000000 lineto 197.000000 652.000000 lineto 210.000000 638.000000 lineto 243.000000 627.000000 lineto 280.000000 627.000000 lineto 304.000000 632.000000 lineto 330.000000 643.000000 lineto 363.000000 670.000000 lineto 362.000000 672.000000 lineto 344.000000 665.000000 lineto 357.000000 681.000000 lineto 365.000000 686.000000 lineto 366.000000 674.000000 lineto 373.000000 682.000000 lineto 389.000000 710.000000 lineto 371.000000 697.000000 lineto 355.000000 690.000000 lineto 313.000000 688.000000 lineto 310.000000 693.000000 lineto 315.000000 696.000000 lineto 353.000000 698.000000 lineto 372.000000 706.000000 lineto 390.000000 721.000000 lineto 374.000000 720.000000 lineto 389.000000 735.000000 lineto 393.000000 724.000000 lineto 408.000000 750.000000 lineto 411.000000 770.000000 lineto 410.000000 800.000000 lineto 402.000000 835.000000 lineto 384.000000 870.000000 lineto 357.000000 900.000000 lineto 317.000000 925.000000 lineto 267.000000 937.000000 lineto 225.000000 936.000000 lineto 187.000000 926.000000 lineto 154.000000 908.000000 lineto 160.000000 903.000000 lineto 202.000000 922.000000 lineto 242.000000 929.000000 lineto 321.000000 929.000000 moveto 321.000000 929.000000 lineto 321.000000 929.000000 lineto 864.000000 929.000000 moveto 864.000000 929.000000 lineto 865.000000 937.000000 lineto 858.000000 929.000000 lineto 865.000000 917.000000 lineto 864.000000 929.000000 lineto 917.000000 929.000000 moveto 917.000000 929.000000 lineto 926.000000 928.000000 lineto 930.000000 924.000000 lineto 930.000000 916.000000 lineto 918.000000 901.000000 lineto 916.000000 888.000000 lineto 924.000000 877.000000 lineto 935.000000 874.000000 lineto 928.000000 886.000000 lineto 927.000000 897.000000 lineto 936.000000 917.000000 lineto 936.000000 928.000000 lineto 928.000000 936.000000 lineto 911.000000 937.000000 lineto 902.000000 933.000000 lineto 894.000000 922.000000 lineto 885.000000 921.000000 lineto 879.000000 913.000000 lineto 879.000000 887.000000 lineto 892.000000 875.000000 lineto 892.000000 871.000000 lineto 880.000000 877.000000 lineto 872.000000 877.000000 lineto 872.000000 873.000000 lineto 878.000000 844.000000 lineto 897.000000 830.000000 lineto 886.000000 827.000000 lineto 890.000000 811.000000 lineto 918.000000 787.000000 lineto 930.000000 762.000000 lineto 930.000000 756.000000 lineto 926.000000 755.000000 lineto 915.000000 781.000000 lineto 907.000000 791.000000 lineto 894.000000 797.000000 lineto 881.000000 795.000000 lineto 882.000000 789.000000 lineto 898.000000 777.000000 lineto 883.000000 769.000000 lineto 882.000000 759.000000 lineto 887.000000 753.000000 lineto 898.000000 760.000000 lineto 911.000000 756.000000 lineto 919.000000 747.000000 lineto 926.000000 727.000000 lineto 929.000000 667.000000 lineto 924.000000 633.000000 lineto 918.000000 614.000000 lineto 924.000000 595.000000 lineto 940.000000 671.000000 lineto 938.000000 762.000000 lineto 930.000000 790.000000 lineto 911.000000 809.000000 lineto 912.000000 812.000000 lineto 917.000000 811.000000 lineto 932.000000 793.000000 lineto 920.000000 824.000000 lineto 899.000000 845.000000 lineto 901.000000 847.000000 lineto 918.000000 835.000000 lineto 902.000000 865.000000 lineto 897.000000 884.000000 lineto 900.000000 916.000000 lineto 905.000000 924.000000 lineto 917.000000 929.000000 lineto 322.000000 928.000000 moveto 322.000000 928.000000 lineto 324.000000 929.000000 lineto 322.000000 928.000000 lineto 324.000000 927.000000 moveto 324.000000 927.000000 lineto 326.000000 928.000000 lineto 324.000000 927.000000 lineto 326.000000 926.000000 moveto 326.000000 926.000000 lineto 372.000000 899.000000 lineto 400.000000 863.000000 lineto 419.000000 848.000000 lineto 441.000000 846.000000 lineto 451.000000 849.000000 lineto 454.000000 852.000000 lineto 452.000000 861.000000 lineto 465.000000 875.000000 lineto 466.000000 884.000000 lineto 463.000000 891.000000 lineto 459.000000 881.000000 lineto 446.000000 871.000000 lineto 424.000000 869.000000 lineto 413.000000 872.000000 lineto 402.000000 878.000000 lineto 367.000000 908.000000 lineto 326.000000 926.000000 lineto 525.000000 923.000000 moveto 525.000000 923.000000 lineto 529.000000 919.000000 lineto 534.000000 919.000000 lineto 539.000000 923.000000 lineto 539.000000 930.000000 lineto 536.000000 933.000000 lineto 527.000000 933.000000 lineto 525.000000 923.000000 lineto 740.000000 922.000000 moveto 740.000000 922.000000 lineto 742.000000 923.000000 lineto 724.000000 921.000000 lineto 707.000000 914.000000 lineto 700.000000 904.000000 lineto 702.000000 891.000000 lineto 707.000000 887.000000 lineto 720.000000 889.000000 lineto 726.000000 896.000000 lineto 716.000000 900.000000 lineto 717.000000 909.000000 lineto 740.000000 922.000000 lineto 772.000000 919.000000 moveto 772.000000 919.000000 lineto 810.000000 917.000000 lineto 784.000000 925.000000 lineto 758.000000 923.000000 lineto 747.000000 914.000000 lineto 748.000000 894.000000 lineto 763.000000 892.000000 lineto 758.000000 899.000000 lineto 758.000000 908.000000 lineto 764.000000 916.000000 lineto 772.000000 919.000000 lineto 483.000000 917.000000 moveto 483.000000 917.000000 lineto 488.000000 913.000000 lineto 495.000000 914.000000 lineto 496.000000 925.000000 lineto 491.000000 928.000000 lineto 484.000000 926.000000 lineto 483.000000 917.000000 lineto 219.000000 914.000000 moveto 219.000000 914.000000 lineto 252.000000 913.000000 lineto 274.000000 906.000000 lineto 285.000000 896.000000 lineto 290.000000 878.000000 lineto 287.000000 869.000000 lineto 273.000000 867.000000 lineto 267.000000 871.000000 lineto 253.000000 895.000000 lineto 242.000000 902.000000 lineto 226.000000 902.000000 lineto 218.000000 898.000000 lineto 214.000000 890.000000 lineto 216.000000 878.000000 lineto 224.000000 876.000000 lineto 222.000000 886.000000 lineto 225.000000 892.000000 lineto 241.000000 893.000000 lineto 250.000000 884.000000 lineto 256.000000 864.000000 lineto 265.000000 851.000000 lineto 277.000000 846.000000 lineto 296.000000 851.000000 lineto 301.000000 840.000000 lineto 307.000000 845.000000 lineto 312.000000 854.000000 lineto 308.000000 879.000000 lineto 317.000000 879.000000 lineto 316.000000 889.000000 lineto 305.000000 906.000000 lineto 287.000000 916.000000 lineto 248.000000 922.000000 lineto 218.000000 920.000000 lineto 184.000000 910.000000 lineto 164.000000 898.000000 lineto 173.000000 898.000000 lineto 187.000000 905.000000 lineto 219.000000 914.000000 lineto 642.000000 911.000000 moveto 642.000000 911.000000 lineto 657.000000 900.000000 lineto 658.000000 890.000000 lineto 665.000000 887.000000 lineto 668.000000 898.000000 lineto 664.000000 911.000000 lineto 653.000000 916.000000 lineto 647.000000 916.000000 lineto 642.000000 911.000000 lineto 506.000000 909.000000 moveto 506.000000 909.000000 lineto 510.000000 906.000000 lineto 520.000000 907.000000 lineto 522.000000 917.000000 lineto 518.000000 921.000000 lineto 509.000000 921.000000 lineto 506.000000 918.000000 lineto 506.000000 909.000000 lineto 135.000000 906.000000 moveto 135.000000 906.000000 lineto 135.000000 906.000000 lineto 812.000000 905.000000 moveto 812.000000 905.000000 lineto 808.000000 906.000000 lineto 800.000000 901.000000 lineto 800.000000 892.000000 lineto 805.000000 885.000000 lineto 823.000000 877.000000 lineto 823.000000 882.000000 lineto 808.000000 897.000000 lineto 812.000000 905.000000 lineto 497.000000 897.000000 moveto 497.000000 897.000000 lineto 501.000000 892.000000 lineto 510.000000 892.000000 lineto 513.000000 895.000000 lineto 511.000000 903.000000 lineto 506.000000 905.000000 lineto 499.000000 904.000000 lineto 497.000000 897.000000 lineto 535.000000 896.000000 moveto 535.000000 896.000000 lineto 534.000000 902.000000 lineto 527.000000 904.000000 lineto 522.000000 900.000000 lineto 521.000000 893.000000 lineto 526.000000 890.000000 lineto 533.000000 891.000000 lineto 535.000000 896.000000 lineto 626.000000 894.000000 moveto 626.000000 894.000000 lineto 634.000000 894.000000 lineto 642.000000 889.000000 lineto 638.000000 886.000000 lineto 636.000000 891.000000 lineto 626.000000 894.000000 lineto 625.000000 886.000000 moveto 625.000000 886.000000 lineto 630.000000 884.000000 lineto 630.000000 877.000000 lineto 622.000000 867.000000 lineto 617.000000 849.000000 lineto 607.000000 832.000000 lineto 606.000000 814.000000 lineto 608.000000 808.000000 lineto 614.000000 812.000000 lineto 620.000000 809.000000 lineto 622.000000 792.000000 lineto 631.000000 783.000000 lineto 655.000000 782.000000 lineto 664.000000 788.000000 lineto 665.000000 795.000000 lineto 653.000000 790.000000 lineto 643.000000 790.000000 lineto 633.000000 798.000000 lineto 630.000000 812.000000 lineto 636.000000 836.000000 lineto 654.000000 874.000000 lineto 654.000000 888.000000 lineto 646.000000 900.000000 lineto 632.000000 904.000000 lineto 620.000000 901.000000 lineto 609.000000 891.000000 lineto 597.000000 871.000000 lineto 581.000000 858.000000 lineto 568.000000 861.000000 lineto 552.000000 875.000000 lineto 554.000000 859.000000 lineto 558.000000 852.000000 lineto 567.000000 846.000000 lineto 584.000000 845.000000 lineto 585.000000 839.000000 lineto 597.000000 841.000000 lineto 609.000000 852.000000 lineto 594.000000 850.000000 lineto 606.000000 863.000000 lineto 608.000000 857.000000 lineto 613.000000 856.000000 lineto 618.000000 880.000000 lineto 625.000000 886.000000 lineto 505.000000 880.000000 moveto 505.000000 880.000000 lineto 516.000000 863.000000 lineto 812.000000 216.000000 lineto 830.000000 186.000000 lineto 846.000000 172.000000 lineto 819.000000 221.000000 lineto 523.000000 867.000000 lineto 517.000000 878.000000 lineto 506.000000 882.000000 lineto 505.000000 880.000000 lineto 359.000000 877.000000 moveto 359.000000 877.000000 lineto 359.000000 877.000000 lineto 833.000000 876.000000 moveto 833.000000 876.000000 lineto 838.000000 868.000000 lineto 842.000000 876.000000 lineto 864.000000 869.000000 lineto 862.000000 878.000000 lineto 845.000000 887.000000 lineto 837.000000 886.000000 lineto 833.000000 876.000000 lineto 671.000000 860.000000 moveto 671.000000 860.000000 lineto 675.000000 844.000000 lineto 683.000000 831.000000 lineto 667.000000 830.000000 lineto 669.000000 814.000000 lineto 682.000000 794.000000 lineto 699.000000 781.000000 lineto 719.000000 781.000000 lineto 711.000000 786.000000 lineto 711.000000 789.000000 lineto 725.000000 788.000000 lineto 720.000000 793.000000 lineto 718.000000 801.000000 lineto 725.000000 800.000000 lineto 729.000000 794.000000 lineto 733.000000 795.000000 lineto 715.000000 817.000000 lineto 716.000000 824.000000 lineto 721.000000 823.000000 lineto 732.000000 806.000000 lineto 742.000000 801.000000 lineto 745.000000 801.000000 lineto 745.000000 808.000000 lineto 748.000000 809.000000 lineto 752.000000 800.000000 lineto 757.000000 800.000000 lineto 758.000000 807.000000 lineto 762.000000 807.000000 lineto 764.000000 800.000000 lineto 767.000000 800.000000 lineto 777.000000 811.000000 lineto 780.000000 820.000000 lineto 779.000000 842.000000 lineto 747.000000 877.000000 lineto 732.000000 864.000000 lineto 723.000000 870.000000 lineto 699.000000 874.000000 lineto 679.000000 889.000000 lineto 672.000000 874.000000 lineto 671.000000 860.000000 lineto 635.000000 858.000000 moveto 635.000000 858.000000 lineto 638.000000 856.000000 lineto 636.000000 848.000000 lineto 622.000000 823.000000 lineto 622.000000 832.000000 lineto 635.000000 858.000000 lineto 194.000000 853.000000 moveto 194.000000 853.000000 lineto 196.000000 850.000000 lineto 193.000000 848.000000 lineto 175.000000 848.000000 lineto 162.000000 838.000000 lineto 201.000000 841.000000 lineto 213.000000 838.000000 lineto 212.000000 832.000000 lineto 194.000000 835.000000 lineto 161.000000 832.000000 lineto 146.000000 821.000000 lineto 154.000000 824.000000 lineto 163.000000 822.000000 lineto 137.000000 809.000000 lineto 133.000000 804.000000 lineto 133.000000 798.000000 lineto 149.000000 810.000000 lineto 170.000000 817.000000 lineto 189.000000 816.000000 lineto 219.000000 802.000000 lineto 230.000000 802.000000 lineto 235.000000 805.000000 lineto 263.000000 793.000000 lineto 272.000000 794.000000 lineto 283.000000 800.000000 lineto 269.000000 817.000000 lineto 263.000000 837.000000 lineto 248.000000 845.000000 lineto 248.000000 850.000000 lineto 253.000000 852.000000 lineto 253.000000 855.000000 lineto 234.000000 860.000000 lineto 217.000000 860.000000 lineto 194.000000 853.000000 lineto 754.000000 850.000000 moveto 754.000000 850.000000 lineto 771.000000 840.000000 lineto 774.000000 831.000000 lineto 754.000000 850.000000 lineto 392.000000 840.000000 moveto 392.000000 840.000000 lineto 402.000000 815.000000 lineto 402.000000 808.000000 lineto 399.000000 806.000000 lineto 388.000000 810.000000 lineto 392.000000 840.000000 lineto 410.000000 835.000000 moveto 410.000000 835.000000 lineto 418.000000 812.000000 lineto 425.000000 806.000000 lineto 434.000000 806.000000 lineto 439.000000 816.000000 lineto 428.000000 816.000000 lineto 411.000000 840.000000 lineto 410.000000 835.000000 lineto 789.000000 834.000000 moveto 789.000000 834.000000 lineto 791.000000 832.000000 lineto 788.000000 826.000000 lineto 792.000000 822.000000 lineto 787.000000 816.000000 lineto 792.000000 817.000000 lineto 796.000000 812.000000 lineto 786.000000 810.000000 lineto 783.000000 806.000000 lineto 798.000000 808.000000 lineto 799.000000 803.000000 lineto 777.000000 798.000000 lineto 788.000000 794.000000 lineto 818.000000 806.000000 lineto 818.000000 800.000000 lineto 801.000000 791.000000 lineto 788.000000 790.000000 lineto 790.000000 786.000000 lineto 806.000000 788.000000 lineto 805.000000 782.000000 lineto 799.000000 778.000000 lineto 804.000000 779.000000 lineto 807.000000 774.000000 lineto 814.000000 772.000000 lineto 828.000000 774.000000 lineto 845.000000 785.000000 lineto 848.000000 791.000000 lineto 841.000000 796.000000 lineto 841.000000 800.000000 lineto 855.000000 806.000000 lineto 865.000000 824.000000 lineto 864.000000 829.000000 lineto 834.000000 839.000000 lineto 821.000000 838.000000 lineto 819.000000 848.000000 lineto 799.000000 846.000000 lineto 789.000000 834.000000 lineto 77.000000 830.000000 moveto 77.000000 830.000000 lineto 96.000000 820.000000 lineto 89.000000 816.000000 lineto 83.000000 817.000000 lineto 77.000000 830.000000 lineto 145.000000 820.000000 moveto 145.000000 820.000000 lineto 145.000000 820.000000 lineto 241.000000 815.000000 moveto 241.000000 815.000000 lineto 256.000000 813.000000 lineto 263.000000 805.000000 lineto 250.000000 804.000000 lineto 243.000000 809.000000 lineto 241.000000 815.000000 lineto 65.000000 801.000000 moveto 65.000000 801.000000 lineto 74.000000 793.000000 lineto 90.000000 792.000000 lineto 92.000000 795.000000 lineto 71.000000 805.000000 lineto 67.000000 810.000000 lineto 65.000000 801.000000 lineto 858.000000 796.000000 moveto 858.000000 796.000000 lineto 861.000000 764.000000 lineto 856.000000 743.000000 lineto 861.000000 733.000000 lineto 868.000000 751.000000 lineto 872.000000 775.000000 lineto 867.000000 807.000000 lineto 858.000000 796.000000 lineto 601.000000 794.000000 moveto 601.000000 794.000000 lineto 610.000000 749.000000 lineto 619.000000 724.000000 lineto 636.000000 694.000000 lineto 660.000000 670.000000 lineto 693.000000 654.000000 lineto 725.000000 649.000000 lineto 753.000000 651.000000 lineto 785.000000 660.000000 lineto 784.000000 667.000000 lineto 737.000000 658.000000 lineto 720.000000 658.000000 lineto 704.000000 662.000000 lineto 698.000000 669.000000 lineto 713.000000 679.000000 lineto 710.000000 695.000000 lineto 701.000000 682.000000 lineto 691.000000 678.000000 lineto 673.000000 679.000000 lineto 654.000000 688.000000 lineto 640.000000 702.000000 lineto 627.000000 725.000000 lineto 614.000000 767.000000 lineto 609.000000 799.000000 lineto 601.000000 802.000000 lineto 601.000000 794.000000 lineto 140.000000 793.000000 moveto 140.000000 793.000000 lineto 140.000000 793.000000 lineto 183.000000 793.000000 moveto 183.000000 793.000000 lineto 186.000000 790.000000 lineto 197.000000 791.000000 lineto 197.000000 802.000000 lineto 186.000000 804.000000 lineto 183.000000 801.000000 lineto 183.000000 793.000000 lineto 207.000000 793.000000 moveto 207.000000 793.000000 lineto 214.000000 791.000000 lineto 215.000000 795.000000 lineto 209.000000 797.000000 lineto 207.000000 793.000000 lineto 830.000000 788.000000 moveto 830.000000 788.000000 lineto 831.000000 780.000000 lineto 817.000000 779.000000 lineto 830.000000 788.000000 lineto 176.000000 786.000000 moveto 176.000000 786.000000 lineto 175.000000 794.000000 lineto 168.000000 793.000000 lineto 168.000000 783.000000 lineto 175.000000 783.000000 lineto 176.000000 786.000000 lineto 226.000000 783.000000 moveto 226.000000 783.000000 lineto 231.000000 779.000000 lineto 240.000000 779.000000 lineto 244.000000 782.000000 lineto 244.000000 787.000000 lineto 240.000000 791.000000 lineto 229.000000 792.000000 lineto 226.000000 783.000000 lineto 252.000000 783.000000 moveto 252.000000 783.000000 lineto 255.000000 780.000000 lineto 262.000000 780.000000 lineto 264.000000 786.000000 lineto 255.000000 788.000000 lineto 252.000000 783.000000 lineto 298.000000 781.000000 moveto 298.000000 781.000000 lineto 311.000000 781.000000 lineto 322.000000 776.000000 lineto 308.000000 775.000000 lineto 297.000000 779.000000 lineto 298.000000 781.000000 lineto 749.000000 781.000000 moveto 749.000000 781.000000 lineto 765.000000 778.000000 lineto 778.000000 764.000000 lineto 761.000000 769.000000 lineto 736.000000 766.000000 lineto 740.000000 775.000000 lineto 749.000000 781.000000 lineto 617.000000 779.000000 moveto 617.000000 779.000000 lineto 620.000000 761.000000 lineto 625.000000 751.000000 lineto 635.000000 745.000000 lineto 646.000000 747.000000 lineto 648.000000 759.000000 lineto 639.000000 752.000000 lineto 630.000000 755.000000 lineto 622.000000 767.000000 lineto 618.000000 786.000000 lineto 617.000000 779.000000 lineto 78.000000 777.000000 moveto 78.000000 777.000000 lineto 79.000000 783.000000 lineto 67.000000 786.000000 lineto 58.000000 720.000000 lineto 61.000000 670.000000 lineto 77.000000 608.000000 lineto 77.000000 594.000000 lineto 65.000000 593.000000 lineto 63.000000 585.000000 lineto 68.000000 588.000000 lineto 82.000000 585.000000 lineto 89.000000 591.000000 lineto 87.000000 615.000000 lineto 72.000000 660.000000 lineto 71.000000 746.000000 lineto 78.000000 777.000000 lineto 669.000000 772.000000 moveto 669.000000 772.000000 lineto 671.000000 770.000000 lineto 662.000000 757.000000 lineto 662.000000 767.000000 lineto 669.000000 772.000000 lineto 707.000000 772.000000 moveto 707.000000 772.000000 lineto 709.000000 773.000000 lineto 706.000000 775.000000 lineto 686.000000 781.000000 lineto 670.000000 780.000000 lineto 660.000000 772.000000 lineto 653.000000 746.000000 lineto 655.000000 743.000000 lineto 673.000000 745.000000 lineto 675.000000 741.000000 lineto 662.000000 737.000000 lineto 653.000000 730.000000 lineto 652.000000 710.000000 lineto 691.000000 711.000000 lineto 697.000000 703.000000 lineto 718.000000 723.000000 lineto 723.000000 742.000000 lineto 723.000000 745.000000 lineto 716.000000 743.000000 lineto 719.000000 757.000000 lineto 701.000000 740.000000 lineto 689.000000 738.000000 lineto 691.000000 744.000000 lineto 700.000000 747.000000 lineto 717.000000 762.000000 lineto 716.000000 770.000000 lineto 709.000000 762.000000 lineto 698.000000 760.000000 lineto 700.000000 768.000000 lineto 707.000000 772.000000 lineto 235.000000 768.000000 moveto 235.000000 768.000000 lineto 231.000000 774.000000 lineto 222.000000 774.000000 lineto 218.000000 771.000000 lineto 218.000000 764.000000 lineto 228.000000 762.000000 lineto 235.000000 768.000000 lineto 271.000000 765.000000 moveto 271.000000 765.000000 lineto 271.000000 771.000000 lineto 267.000000 775.000000 lineto 259.000000 775.000000 lineto 255.000000 771.000000 lineto 255.000000 763.000000 lineto 259.000000 760.000000 lineto 268.000000 760.000000 lineto 271.000000 765.000000 lineto 95.000000 763.000000 moveto 95.000000 763.000000 lineto 107.000000 761.000000 lineto 105.000000 772.000000 lineto 101.000000 775.000000 lineto 92.000000 775.000000 lineto 85.000000 770.000000 lineto 81.000000 762.000000 lineto 77.000000 730.000000 lineto 84.000000 754.000000 lineto 95.000000 763.000000 lineto 726.000000 761.000000 moveto 726.000000 761.000000 lineto 736.000000 738.000000 lineto 775.000000 697.000000 lineto 791.000000 674.000000 lineto 803.000000 641.000000 lineto 802.000000 616.000000 lineto 795.000000 596.000000 lineto 778.000000 576.000000 lineto 760.000000 569.000000 lineto 738.000000 570.000000 lineto 728.000000 575.000000 lineto 721.000000 584.000000 lineto 720.000000 607.000000 lineto 729.000000 619.000000 lineto 751.000000 618.000000 lineto 751.000000 624.000000 lineto 745.000000 628.000000 lineto 732.000000 629.000000 lineto 724.000000 622.000000 lineto 718.000000 633.000000 lineto 709.000000 619.000000 lineto 706.000000 606.000000 lineto 711.000000 586.000000 lineto 698.000000 584.000000 lineto 706.000000 570.000000 lineto 719.000000 557.000000 lineto 731.000000 552.000000 lineto 752.000000 552.000000 lineto 749.000000 543.000000 lineto 751.000000 539.000000 lineto 763.000000 542.000000 lineto 796.000000 566.000000 lineto 808.000000 583.000000 lineto 816.000000 612.000000 lineto 818.000000 646.000000 lineto 809.000000 683.000000 lineto 810.000000 690.000000 lineto 813.000000 690.000000 lineto 820.000000 676.000000 lineto 825.000000 634.000000 lineto 820.000000 601.000000 lineto 809.000000 578.000000 lineto 806.000000 562.000000 lineto 813.000000 559.000000 lineto 818.000000 549.000000 lineto 829.000000 549.000000 lineto 829.000000 555.000000 lineto 822.000000 561.000000 lineto 821.000000 573.000000 lineto 837.000000 617.000000 lineto 840.000000 672.000000 lineto 836.000000 697.000000 lineto 828.000000 721.000000 lineto 805.000000 758.000000 lineto 782.000000 780.000000 lineto 766.000000 789.000000 lineto 750.000000 791.000000 lineto 737.000000 787.000000 lineto 729.000000 778.000000 lineto 726.000000 761.000000 lineto 826.000000 761.000000 moveto 826.000000 761.000000 lineto 830.000000 758.000000 lineto 832.000000 749.000000 lineto 820.000000 761.000000 lineto 817.000000 759.000000 lineto 834.000000 728.000000 lineto 850.000000 728.000000 lineto 851.000000 734.000000 lineto 842.000000 753.000000 lineto 842.000000 757.000000 lineto 849.000000 762.000000 lineto 839.000000 770.000000 lineto 826.000000 761.000000 lineto 762.000000 759.000000 moveto 762.000000 759.000000 lineto 787.000000 733.000000 lineto 805.000000 699.000000 lineto 790.000000 715.000000 lineto 762.000000 759.000000 lineto 292.000000 755.000000 moveto 292.000000 755.000000 lineto 298.000000 752.000000 lineto 305.000000 753.000000 lineto 305.000000 757.000000 lineto 298.000000 760.000000 lineto 293.000000 759.000000 lineto 292.000000 755.000000 lineto 468.000000 752.000000 moveto 468.000000 752.000000 lineto 483.000000 749.000000 lineto 501.000000 724.000000 lineto 605.000000 492.000000 lineto 606.000000 481.000000 lineto 598.000000 473.000000 lineto 347.000000 473.000000 lineto 337.000000 480.000000 lineto 339.000000 496.000000 lineto 449.000000 728.000000 lineto 458.000000 744.000000 lineto 468.000000 752.000000 lineto 317.000000 751.000000 moveto 317.000000 751.000000 lineto 319.000000 748.000000 lineto 328.000000 748.000000 lineto 330.000000 754.000000 lineto 320.000000 756.000000 lineto 317.000000 751.000000 lineto 250.000000 750.000000 moveto 250.000000 750.000000 lineto 251.000000 757.000000 lineto 248.000000 760.000000 lineto 239.000000 759.000000 lineto 238.000000 747.000000 lineto 244.000000 746.000000 lineto 250.000000 750.000000 lineto 275.000000 747.000000 moveto 275.000000 747.000000 lineto 283.000000 744.000000 lineto 287.000000 747.000000 lineto 287.000000 753.000000 lineto 277.000000 754.000000 lineto 275.000000 747.000000 lineto 227.000000 746.000000 moveto 227.000000 746.000000 lineto 228.000000 752.000000 lineto 220.000000 753.000000 lineto 219.000000 745.000000 lineto 227.000000 746.000000 lineto 472.000000 744.000000 moveto 472.000000 744.000000 lineto 465.000000 742.000000 lineto 458.000000 734.000000 lineto 348.000000 504.000000 lineto 342.000000 489.000000 lineto 346.000000 479.000000 lineto 351.000000 479.000000 lineto 353.000000 493.000000 lineto 472.000000 744.000000 lineto 256.000000 742.000000 moveto 256.000000 742.000000 lineto 259.000000 739.000000 lineto 266.000000 740.000000 lineto 267.000000 750.000000 lineto 258.000000 750.000000 lineto 256.000000 742.000000 lineto 926.000000 741.000000 moveto 926.000000 741.000000 lineto 931.000000 739.000000 lineto 934.000000 722.000000 lineto 931.000000 723.000000 lineto 932.000000 730.000000 lineto 926.000000 731.000000 lineto 926.000000 741.000000 lineto 234.000000 733.000000 moveto 234.000000 733.000000 lineto 250.000000 732.000000 lineto 251.000000 736.000000 lineto 247.000000 739.000000 lineto 237.000000 739.000000 lineto 234.000000 733.000000 lineto 76.000000 728.000000 moveto 76.000000 728.000000 lineto 76.000000 728.000000 lineto 329.000000 728.000000 moveto 329.000000 728.000000 lineto 353.000000 724.000000 lineto 352.000000 718.000000 lineto 338.000000 718.000000 lineto 329.000000 728.000000 lineto 227.000000 727.000000 moveto 227.000000 727.000000 lineto 228.000000 734.000000 lineto 225.000000 737.000000 lineto 220.000000 736.000000 lineto 218.000000 726.000000 lineto 227.000000 727.000000 lineto 725.000000 723.000000 moveto 725.000000 723.000000 lineto 726.000000 713.000000 lineto 720.000000 716.000000 lineto 716.000000 711.000000 lineto 717.000000 700.000000 lineto 725.000000 692.000000 lineto 736.000000 695.000000 lineto 751.000000 684.000000 lineto 755.000000 706.000000 lineto 744.000000 717.000000 lineto 742.000000 709.000000 lineto 739.000000 708.000000 lineto 729.000000 732.000000 lineto 725.000000 723.000000 lineto 852.000000 717.000000 moveto 852.000000 717.000000 lineto 853.000000 719.000000 lineto 841.000000 715.000000 lineto 842.000000 704.000000 lineto 852.000000 717.000000 lineto 92.000000 712.000000 moveto 92.000000 712.000000 lineto 99.000000 711.000000 lineto 115.000000 701.000000 lineto 152.000000 657.000000 lineto 164.000000 647.000000 lineto 185.000000 637.000000 lineto 202.000000 633.000000 lineto 161.000000 657.000000 lineto 120.000000 712.000000 lineto 105.000000 726.000000 lineto 90.000000 728.000000 lineto 88.000000 719.000000 lineto 81.000000 717.000000 lineto 76.000000 711.000000 lineto 77.000000 700.000000 lineto 82.000000 698.000000 lineto 84.000000 709.000000 lineto 92.000000 712.000000 lineto 389.000000 710.000000 moveto 389.000000 710.000000 lineto 389.000000 710.000000 lineto 258.000000 708.000000 moveto 258.000000 708.000000 lineto 280.000000 690.000000 lineto 262.000000 693.000000 lineto 258.000000 698.000000 lineto 258.000000 708.000000 lineto 220.000000 700.000000 moveto 220.000000 700.000000 lineto 223.000000 696.000000 lineto 229.000000 696.000000 lineto 232.000000 699.000000 lineto 230.000000 709.000000 lineto 223.000000 710.000000 lineto 220.000000 700.000000 lineto 471.000000 687.000000 moveto 471.000000 687.000000 lineto 471.000000 692.000000 lineto 468.000000 692.000000 lineto 466.000000 686.000000 lineto 471.000000 687.000000 lineto 233.000000 686.000000 moveto 233.000000 686.000000 lineto 236.000000 682.000000 lineto 244.000000 682.000000 lineto 246.000000 690.000000 lineto 238.000000 694.000000 lineto 234.000000 692.000000 lineto 233.000000 686.000000 lineto 215.000000 684.000000 moveto 215.000000 684.000000 lineto 221.000000 680.000000 lineto 225.000000 687.000000 lineto 222.000000 691.000000 lineto 217.000000 691.000000 lineto 215.000000 684.000000 lineto 479.000000 684.000000 moveto 479.000000 684.000000 lineto 488.000000 682.000000 lineto 489.000000 691.000000 lineto 481.000000 692.000000 lineto 479.000000 684.000000 lineto 883.000000 678.000000 moveto 883.000000 678.000000 lineto 899.000000 677.000000 lineto 910.000000 669.000000 lineto 915.000000 652.000000 lineto 912.000000 628.000000 lineto 914.000000 625.000000 lineto 920.000000 647.000000 lineto 918.000000 665.000000 lineto 911.000000 678.000000 lineto 901.000000 685.000000 lineto 882.000000 688.000000 lineto 861.000000 681.000000 lineto 854.000000 668.000000 lineto 854.000000 653.000000 lineto 857.000000 647.000000 lineto 867.000000 639.000000 lineto 863.000000 650.000000 lineto 865.000000 665.000000 lineto 872.000000 674.000000 lineto 883.000000 678.000000 lineto 460.000000 674.000000 moveto 460.000000 674.000000 lineto 467.000000 672.000000 lineto 468.000000 678.000000 lineto 461.000000 679.000000 lineto 460.000000 674.000000 lineto 364.000000 673.000000 moveto 364.000000 673.000000 lineto 364.000000 673.000000 lineto 314.000000 670.000000 moveto 314.000000 670.000000 lineto 312.000000 665.000000 lineto 302.000000 659.000000 lineto 284.000000 664.000000 lineto 314.000000 670.000000 lineto 452.000000 670.000000 moveto 452.000000 670.000000 lineto 452.000000 674.000000 lineto 447.000000 673.000000 lineto 447.000000 669.000000 lineto 452.000000 670.000000 lineto 478.000000 668.000000 moveto 478.000000 668.000000 lineto 487.000000 665.000000 lineto 492.000000 655.000000 lineto 491.000000 632.000000 lineto 483.000000 611.000000 lineto 487.000000 610.000000 lineto 493.000000 614.000000 lineto 497.000000 623.000000 lineto 498.000000 655.000000 lineto 495.000000 666.000000 lineto 489.000000 673.000000 lineto 479.000000 674.000000 lineto 478.000000 668.000000 lineto 248.000000 666.000000 moveto 248.000000 666.000000 lineto 254.000000 662.000000 lineto 260.000000 663.000000 lineto 260.000000 675.000000 lineto 250.000000 676.000000 lineto 248.000000 666.000000 lineto 221.000000 664.000000 moveto 221.000000 664.000000 lineto 222.000000 672.000000 lineto 215.000000 674.000000 lineto 212.000000 663.000000 lineto 218.000000 661.000000 lineto 221.000000 664.000000 lineto 130.000000 663.000000 moveto 130.000000 663.000000 lineto 129.000000 666.000000 lineto 117.000000 668.000000 lineto 107.000000 660.000000 lineto 101.000000 660.000000 lineto 98.000000 665.000000 lineto 90.000000 660.000000 lineto 87.000000 625.000000 lineto 95.000000 595.000000 lineto 97.000000 623.000000 lineto 104.000000 638.000000 lineto 113.000000 643.000000 lineto 123.000000 643.000000 lineto 132.000000 638.000000 lineto 137.000000 631.000000 lineto 142.000000 634.000000 lineto 143.000000 642.000000 lineto 129.000000 657.000000 lineto 130.000000 663.000000 lineto 457.000000 663.000000 moveto 457.000000 663.000000 lineto 462.000000 661.000000 lineto 464.000000 664.000000 lineto 458.000000 667.000000 lineto 457.000000 663.000000 lineto 212.000000 656.000000 moveto 212.000000 656.000000 lineto 212.000000 656.000000 lineto 230.000000 656.000000 moveto 230.000000 656.000000 lineto 233.000000 653.000000 lineto 241.000000 653.000000 lineto 245.000000 656.000000 lineto 245.000000 663.000000 lineto 241.000000 667.000000 lineto 235.000000 667.000000 lineto 230.000000 663.000000 lineto 230.000000 656.000000 lineto 468.000000 654.000000 moveto 468.000000 654.000000 lineto 471.000000 650.000000 lineto 475.000000 651.000000 lineto 477.000000 659.000000 lineto 471.000000 661.000000 lineto 468.000000 654.000000 lineto 251.000000 651.000000 moveto 251.000000 651.000000 lineto 253.000000 648.000000 lineto 261.000000 650.000000 lineto 258.000000 655.000000 lineto 253.000000 655.000000 lineto 251.000000 651.000000 lineto 456.000000 643.000000 moveto 456.000000 643.000000 lineto 464.000000 643.000000 lineto 469.000000 638.000000 lineto 470.000000 615.000000 lineto 473.000000 616.000000 lineto 478.000000 624.000000 lineto 475.000000 644.000000 lineto 466.000000 650.000000 lineto 449.000000 649.000000 lineto 443.000000 641.000000 lineto 447.000000 629.000000 lineto 449.000000 636.000000 lineto 456.000000 643.000000 lineto 338.000000 641.000000 moveto 338.000000 641.000000 lineto 278.000000 616.000000 lineto 255.000000 598.000000 lineto 249.000000 586.000000 lineto 249.000000 574.000000 lineto 254.000000 571.000000 lineto 263.000000 554.000000 lineto 278.000000 548.000000 lineto 293.000000 552.000000 lineto 302.000000 573.000000 lineto 308.000000 578.000000 lineto 313.000000 578.000000 lineto 313.000000 581.000000 lineto 306.000000 583.000000 lineto 300.000000 580.000000 lineto 290.000000 566.000000 lineto 277.000000 566.000000 lineto 271.000000 570.000000 lineto 268.000000 577.000000 lineto 270.000000 592.000000 lineto 285.000000 608.000000 lineto 338.000000 641.000000 lineto 519.000000 636.000000 moveto 519.000000 636.000000 lineto 528.000000 633.000000 lineto 528.000000 627.000000 lineto 523.000000 621.000000 lineto 529.000000 623.000000 lineto 532.000000 635.000000 lineto 525.000000 643.000000 lineto 513.000000 641.000000 lineto 504.000000 626.000000 lineto 519.000000 636.000000 lineto 202.000000 632.000000 moveto 202.000000 632.000000 lineto 204.000000 633.000000 lineto 202.000000 632.000000 lineto 427.000000 622.000000 moveto 427.000000 622.000000 lineto 433.000000 614.000000 lineto 435.000000 602.000000 lineto 425.000000 572.000000 lineto 424.000000 557.000000 lineto 429.000000 542.000000 lineto 437.000000 532.000000 lineto 461.000000 520.000000 lineto 494.000000 522.000000 lineto 511.000000 531.000000 lineto 522.000000 547.000000 lineto 528.000000 588.000000 lineto 541.000000 605.000000 lineto 524.000000 608.000000 lineto 516.000000 601.000000 lineto 508.000000 587.000000 lineto 505.000000 587.000000 lineto 499.000000 601.000000 lineto 488.000000 600.000000 lineto 481.000000 591.000000 lineto 479.000000 581.000000 lineto 482.000000 543.000000 lineto 478.000000 538.000000 lineto 470.000000 538.000000 lineto 466.000000 542.000000 lineto 466.000000 548.000000 lineto 473.000000 570.000000 lineto 468.000000 574.000000 lineto 468.000000 578.000000 lineto 476.000000 594.000000 lineto 475.000000 604.000000 lineto 451.000000 601.000000 lineto 440.000000 622.000000 lineto 427.000000 622.000000 lineto 884.000000 620.000000 moveto 884.000000 620.000000 lineto 885.000000 616.000000 lineto 865.000000 617.000000 lineto 857.000000 614.000000 lineto 844.000000 599.000000 lineto 843.000000 589.000000 lineto 848.000000 582.000000 lineto 852.000000 594.000000 lineto 858.000000 598.000000 lineto 870.000000 599.000000 lineto 882.000000 595.000000 lineto 891.000000 581.000000 lineto 892.000000 560.000000 lineto 885.000000 534.000000 lineto 875.000000 515.000000 lineto 854.000000 486.000000 lineto 821.000000 453.000000 lineto 823.000000 447.000000 lineto 843.000000 462.000000 lineto 876.000000 496.000000 lineto 896.000000 524.000000 lineto 909.000000 552.000000 lineto 914.000000 573.000000 lineto 915.000000 597.000000 lineto 912.000000 611.000000 lineto 902.000000 625.000000 lineto 896.000000 643.000000 lineto 890.000000 639.000000 lineto 884.000000 620.000000 lineto 262.000000 618.000000 moveto 262.000000 618.000000 lineto 262.000000 618.000000 lineto 260.000000 617.000000 moveto 260.000000 617.000000 lineto 262.000000 618.000000 lineto 227.000000 610.000000 lineto 198.000000 599.000000 lineto 185.000000 589.000000 lineto 183.000000 581.000000 lineto 191.000000 581.000000 lineto 202.000000 594.000000 lineto 211.000000 599.000000 lineto 260.000000 617.000000 lineto 112.000000 587.000000 moveto 112.000000 587.000000 lineto 126.000000 585.000000 lineto 133.000000 576.000000 lineto 133.000000 558.000000 lineto 128.000000 534.000000 lineto 132.000000 535.000000 lineto 138.000000 551.000000 lineto 139.000000 577.000000 lineto 135.000000 585.000000 lineto 125.000000 591.000000 lineto 101.000000 589.000000 lineto 89.000000 582.000000 lineto 75.000000 566.000000 lineto 63.000000 539.000000 lineto 59.000000 516.000000 lineto 63.000000 478.000000 lineto 75.000000 454.000000 lineto 81.000000 458.000000 lineto 68.000000 478.000000 lineto 63.000000 498.000000 lineto 66.000000 536.000000 lineto 82.000000 569.000000 lineto 95.000000 581.000000 lineto 112.000000 587.000000 lineto 175.000000 587.000000 moveto 175.000000 587.000000 lineto 174.000000 594.000000 lineto 163.000000 595.000000 lineto 157.000000 590.000000 lineto 156.000000 584.000000 lineto 159.000000 580.000000 lineto 170.000000 580.000000 lineto 175.000000 587.000000 lineto 147.000000 570.000000 moveto 147.000000 570.000000 lineto 154.000000 569.000000 lineto 155.000000 576.000000 lineto 149.000000 577.000000 lineto 147.000000 570.000000 lineto 440.000000 570.000000 moveto 440.000000 570.000000 lineto 443.000000 551.000000 lineto 459.000000 534.000000 lineto 446.000000 536.000000 lineto 438.000000 543.000000 lineto 435.000000 560.000000 lineto 440.000000 570.000000 lineto 554.000000 570.000000 moveto 554.000000 570.000000 lineto 554.000000 574.000000 lineto 540.000000 571.000000 lineto 534.000000 564.000000 lineto 529.000000 546.000000 lineto 534.000000 545.000000 lineto 539.000000 551.000000 lineto 540.000000 544.000000 lineto 551.000000 547.000000 lineto 552.000000 554.000000 lineto 548.000000 561.000000 lineto 554.000000 570.000000 lineto 93.000000 565.000000 moveto 93.000000 565.000000 lineto 123.000000 514.000000 lineto 151.000000 478.000000 lineto 205.000000 427.000000 lineto 213.000000 429.000000 lineto 146.000000 502.000000 lineto 116.000000 544.000000 lineto 102.000000 569.000000 lineto 99.000000 571.000000 lineto 93.000000 565.000000 lineto 200.000000 564.000000 moveto 200.000000 564.000000 lineto 198.000000 574.000000 lineto 189.000000 573.000000 lineto 190.000000 560.000000 lineto 196.000000 559.000000 lineto 200.000000 564.000000 lineto 504.000000 564.000000 moveto 504.000000 564.000000 lineto 514.000000 558.000000 lineto 511.000000 539.000000 lineto 501.000000 530.000000 lineto 486.000000 530.000000 lineto 497.000000 545.000000 lineto 504.000000 564.000000 lineto 400.000000 561.000000 moveto 400.000000 561.000000 lineto 409.000000 552.000000 lineto 411.000000 555.000000 lineto 417.000000 553.000000 lineto 415.000000 572.000000 lineto 410.000000 584.000000 lineto 400.000000 561.000000 lineto 160.000000 560.000000 moveto 160.000000 560.000000 lineto 164.000000 555.000000 lineto 176.000000 556.000000 lineto 179.000000 560.000000 lineto 177.000000 573.000000 lineto 163.000000 573.000000 lineto 160.000000 560.000000 lineto 938.000000 557.000000 moveto 938.000000 557.000000 lineto 939.000000 562.000000 lineto 931.000000 568.000000 lineto 919.000000 561.000000 lineto 900.000000 521.000000 lineto 882.000000 495.000000 lineto 850.000000 461.000000 lineto 827.000000 443.000000 lineto 850.000000 453.000000 lineto 874.000000 473.000000 lineto 901.000000 509.000000 lineto 920.000000 543.000000 lineto 938.000000 557.000000 lineto 799.000000 554.000000 moveto 799.000000 554.000000 lineto 799.000000 557.000000 lineto 795.000000 558.000000 lineto 792.000000 553.000000 lineto 798.000000 551.000000 lineto 799.000000 554.000000 lineto 153.000000 553.000000 moveto 153.000000 553.000000 lineto 153.000000 559.000000 lineto 147.000000 560.000000 lineto 146.000000 552.000000 lineto 153.000000 553.000000 lineto 187.000000 548.000000 moveto 187.000000 548.000000 lineto 187.000000 553.000000 lineto 179.000000 549.000000 lineto 181.000000 544.000000 lineto 186.000000 544.000000 lineto 187.000000 548.000000 lineto 201.000000 546.000000 moveto 201.000000 546.000000 lineto 198.000000 552.000000 lineto 194.000000 544.000000 lineto 198.000000 542.000000 lineto 201.000000 546.000000 lineto 809.000000 545.000000 moveto 809.000000 545.000000 lineto 810.000000 547.000000 lineto 804.000000 545.000000 lineto 802.000000 540.000000 lineto 806.000000 539.000000 lineto 809.000000 545.000000 lineto 387.000000 543.000000 moveto 387.000000 543.000000 lineto 393.000000 538.000000 lineto 395.000000 528.000000 lineto 401.000000 524.000000 lineto 394.000000 518.000000 lineto 398.000000 507.000000 lineto 422.000000 506.000000 lineto 436.000000 514.000000 lineto 438.000000 521.000000 lineto 430.000000 520.000000 lineto 430.000000 526.000000 lineto 417.000000 529.000000 lineto 425.000000 534.000000 lineto 420.000000 539.000000 lineto 395.000000 547.000000 lineto 387.000000 543.000000 lineto 783.000000 543.000000 moveto 783.000000 543.000000 lineto 792.000000 542.000000 lineto 786.000000 545.000000 lineto 783.000000 543.000000 lineto 158.000000 538.000000 moveto 158.000000 538.000000 lineto 167.000000 535.000000 lineto 172.000000 538.000000 lineto 172.000000 542.000000 lineto 169.000000 546.000000 lineto 159.000000 547.000000 lineto 158.000000 538.000000 lineto 565.000000 538.000000 moveto 565.000000 538.000000 lineto 524.000000 538.000000 lineto 525.000000 531.000000 lineto 517.000000 528.000000 lineto 520.000000 521.000000 lineto 511.000000 521.000000 lineto 507.000000 516.000000 lineto 518.000000 503.000000 lineto 539.000000 504.000000 lineto 545.000000 509.000000 lineto 539.000000 516.000000 lineto 565.000000 538.000000 lineto 181.000000 535.000000 moveto 181.000000 535.000000 lineto 186.000000 532.000000 lineto 188.000000 537.000000 lineto 181.000000 535.000000 lineto 707.000000 535.000000 moveto 707.000000 535.000000 lineto 719.000000 534.000000 lineto 726.000000 526.000000 lineto 720.000000 491.000000 lineto 723.000000 476.000000 lineto 731.000000 467.000000 lineto 752.000000 465.000000 lineto 760.000000 468.000000 lineto 768.000000 476.000000 lineto 776.000000 478.000000 lineto 780.000000 494.000000 lineto 774.000000 502.000000 lineto 772.000000 516.000000 lineto 778.000000 526.000000 lineto 789.000000 531.000000 lineto 771.000000 531.000000 lineto 763.000000 516.000000 lineto 760.000000 517.000000 lineto 761.000000 524.000000 lineto 755.000000 523.000000 lineto 753.000000 508.000000 lineto 761.000000 491.000000 lineto 761.000000 482.000000 lineto 754.000000 474.000000 lineto 739.000000 473.000000 lineto 729.000000 484.000000 lineto 729.000000 497.000000 lineto 737.000000 519.000000 lineto 736.000000 529.000000 lineto 720.000000 541.000000 lineto 712.000000 541.000000 lineto 702.000000 533.000000 lineto 707.000000 535.000000 lineto 465.000000 532.000000 moveto 465.000000 532.000000 lineto 482.000000 530.000000 lineto 474.000000 527.000000 lineto 463.000000 527.000000 lineto 459.000000 530.000000 lineto 465.000000 532.000000 lineto 701.000000 532.000000 moveto 701.000000 532.000000 lineto 701.000000 532.000000 lineto 151.000000 531.000000 moveto 151.000000 531.000000 lineto 151.000000 538.000000 lineto 143.000000 541.000000 lineto 142.000000 528.000000 lineto 149.000000 526.000000 lineto 151.000000 531.000000 lineto 236.000000 528.000000 moveto 236.000000 528.000000 lineto 239.000000 528.000000 lineto 237.000000 523.000000 lineto 241.000000 520.000000 lineto 229.000000 514.000000 lineto 228.000000 509.000000 lineto 237.000000 511.000000 lineto 257.000000 496.000000 lineto 264.000000 496.000000 lineto 273.000000 501.000000 lineto 268.000000 511.000000 lineto 275.000000 514.000000 lineto 281.000000 522.000000 lineto 279.000000 536.000000 lineto 268.000000 532.000000 lineto 230.000000 534.000000 lineto 221.000000 530.000000 lineto 213.000000 521.000000 lineto 208.000000 492.000000 lineto 193.000000 494.000000 lineto 190.000000 490.000000 lineto 199.000000 456.000000 lineto 205.000000 446.000000 lineto 218.000000 434.000000 lineto 248.000000 423.000000 lineto 252.000000 418.000000 lineto 252.000000 410.000000 lineto 244.000000 407.000000 lineto 227.000000 419.000000 lineto 200.000000 410.000000 lineto 211.000000 398.000000 lineto 211.000000 394.000000 lineto 198.000000 386.000000 lineto 181.000000 361.000000 lineto 205.000000 353.000000 lineto 217.000000 353.000000 lineto 235.000000 359.000000 lineto 238.000000 356.000000 lineto 237.000000 348.000000 lineto 249.000000 347.000000 lineto 304.000000 374.000000 lineto 321.000000 375.000000 lineto 319.000000 367.000000 lineto 292.000000 359.000000 lineto 273.000000 349.000000 lineto 261.000000 332.000000 lineto 259.000000 319.000000 lineto 267.000000 318.000000 lineto 271.000000 296.000000 lineto 278.000000 287.000000 lineto 293.000000 283.000000 lineto 307.000000 291.000000 lineto 297.000000 296.000000 lineto 290.000000 306.000000 lineto 292.000000 326.000000 lineto 302.000000 338.000000 lineto 316.000000 344.000000 lineto 338.000000 347.000000 lineto 374.000000 343.000000 lineto 405.000000 329.000000 lineto 434.000000 305.000000 lineto 459.000000 271.000000 lineto 476.000000 231.000000 lineto 485.000000 247.000000 lineto 471.000000 283.000000 lineto 450.000000 320.000000 lineto 423.000000 350.000000 lineto 385.000000 376.000000 lineto 282.000000 431.000000 lineto 254.000000 451.000000 lineto 234.000000 470.000000 lineto 223.000000 488.000000 lineto 221.000000 503.000000 lineto 226.000000 518.000000 lineto 236.000000 528.000000 lineto 169.000000 526.000000 moveto 169.000000 526.000000 lineto 170.000000 528.000000 lineto 159.000000 528.000000 lineto 161.000000 522.000000 lineto 166.000000 522.000000 lineto 169.000000 526.000000 lineto 789.000000 524.000000 moveto 789.000000 524.000000 lineto 802.000000 510.000000 lineto 801.000000 486.000000 lineto 795.000000 475.000000 lineto 781.000000 461.000000 lineto 756.000000 447.000000 lineto 729.000000 438.000000 lineto 739.000000 418.000000 lineto 793.000000 423.000000 lineto 804.000000 428.000000 lineto 816.000000 442.000000 lineto 806.000000 444.000000 lineto 805.000000 448.000000 lineto 821.000000 461.000000 lineto 830.000000 479.000000 lineto 816.000000 480.000000 lineto 819.000000 505.000000 lineto 815.000000 517.000000 lineto 804.000000 525.000000 lineto 789.000000 524.000000 lineto 918.000000 518.000000 moveto 918.000000 518.000000 lineto 924.000000 515.000000 lineto 925.000000 523.000000 lineto 920.000000 524.000000 lineto 918.000000 518.000000 lineto 178.000000 509.000000 moveto 178.000000 509.000000 lineto 180.000000 510.000000 lineto 171.000000 511.000000 lineto 166.000000 508.000000 lineto 164.000000 493.000000 lineto 174.000000 476.000000 lineto 188.000000 464.000000 lineto 188.000000 468.000000 lineto 176.000000 481.000000 lineto 170.000000 493.000000 lineto 170.000000 502.000000 lineto 178.000000 509.000000 lineto 101.000000 504.000000 moveto 101.000000 504.000000 lineto 116.000000 499.000000 lineto 154.000000 458.000000 lineto 179.000000 435.000000 lineto 187.000000 432.000000 lineto 150.000000 468.000000 lineto 125.000000 500.000000 lineto 111.000000 511.000000 lineto 99.000000 516.000000 lineto 88.000000 515.000000 lineto 83.000000 509.000000 lineto 82.000000 497.000000 lineto 89.000000 489.000000 lineto 92.000000 499.000000 lineto 101.000000 504.000000 lineto 476.000000 504.000000 moveto 476.000000 504.000000 lineto 478.000000 500.000000 lineto 475.000000 498.000000 lineto 469.000000 511.000000 lineto 462.000000 512.000000 lineto 462.000000 509.000000 lineto 458.000000 508.000000 lineto 451.000000 517.000000 lineto 446.000000 517.000000 lineto 439.000000 510.000000 lineto 438.000000 500.000000 lineto 444.000000 489.000000 lineto 456.000000 490.000000 lineto 471.000000 481.000000 lineto 485.000000 483.000000 lineto 491.000000 495.000000 lineto 502.000000 495.000000 lineto 504.000000 500.000000 lineto 502.000000 510.000000 lineto 493.000000 515.000000 lineto 489.000000 509.000000 lineto 478.000000 513.000000 lineto 476.000000 504.000000 lineto 926.000000 502.000000 moveto 926.000000 502.000000 lineto 934.000000 501.000000 lineto 935.000000 508.000000 lineto 932.000000 511.000000 lineto 927.000000 510.000000 lineto 926.000000 502.000000 lineto 920.000000 498.000000 moveto 920.000000 498.000000 lineto 920.000000 505.000000 lineto 909.000000 504.000000 lineto 909.000000 496.000000 lineto 912.000000 493.000000 lineto 918.000000 494.000000 lineto 920.000000 498.000000 lineto 111.000000 490.000000 moveto 111.000000 490.000000 lineto 103.000000 490.000000 lineto 80.000000 431.000000 lineto 74.000000 405.000000 lineto 74.000000 369.000000 lineto 80.000000 369.000000 lineto 80.000000 398.000000 lineto 87.000000 432.000000 lineto 111.000000 490.000000 lineto 926.000000 486.000000 moveto 926.000000 486.000000 lineto 936.000000 486.000000 lineto 936.000000 492.000000 lineto 928.000000 493.000000 lineto 926.000000 486.000000 lineto 919.000000 478.000000 moveto 919.000000 478.000000 lineto 916.000000 486.000000 lineto 909.000000 486.000000 lineto 905.000000 481.000000 lineto 909.000000 474.000000 lineto 916.000000 474.000000 lineto 919.000000 478.000000 lineto 923.000000 467.000000 moveto 923.000000 467.000000 lineto 933.000000 465.000000 lineto 935.000000 474.000000 lineto 926.000000 476.000000 lineto 923.000000 467.000000 lineto 917.000000 451.000000 moveto 917.000000 451.000000 lineto 917.000000 463.000000 lineto 912.000000 466.000000 lineto 906.000000 465.000000 lineto 902.000000 460.000000 lineto 903.000000 448.000000 lineto 910.000000 446.000000 lineto 917.000000 451.000000 lineto 882.000000 449.000000 moveto 882.000000 449.000000 lineto 881.000000 439.000000 lineto 873.000000 433.000000 lineto 864.000000 432.000000 lineto 861.000000 424.000000 lineto 819.000000 427.000000 lineto 814.000000 423.000000 lineto 861.000000 414.000000 lineto 863.000000 402.000000 lineto 879.000000 394.000000 lineto 885.000000 384.000000 lineto 888.000000 398.000000 lineto 882.000000 405.000000 lineto 873.000000 409.000000 lineto 870.000000 416.000000 lineto 872.000000 421.000000 lineto 887.000000 423.000000 lineto 891.000000 428.000000 lineto 892.000000 441.000000 lineto 883.000000 453.000000 lineto 882.000000 449.000000 lineto 274.000000 445.000000 moveto 274.000000 445.000000 lineto 303.000000 429.000000 lineto 326.000000 438.000000 lineto 620.000000 436.000000 lineto 637.000000 422.000000 lineto 685.000000 315.000000 lineto 738.000000 319.000000 lineto 742.000000 312.000000 lineto 742.000000 301.000000 lineto 735.000000 283.000000 lineto 744.000000 269.000000 lineto 745.000000 249.000000 lineto 738.000000 234.000000 lineto 728.000000 222.000000 lineto 737.000000 195.000000 lineto 737.000000 168.000000 lineto 731.000000 160.000000 lineto 717.000000 152.000000 lineto 672.000000 142.000000 lineto 667.000000 139.000000 lineto 667.000000 134.000000 lineto 724.000000 131.000000 lineto 795.000000 136.000000 lineto 920.000000 131.000000 lineto 926.000000 135.000000 lineto 922.000000 141.000000 lineto 914.000000 144.000000 lineto 874.000000 150.000000 lineto 850.000000 160.000000 lineto 826.000000 181.000000 lineto 812.000000 201.000000 lineto 511.000000 860.000000 lineto 502.000000 877.000000 lineto 492.000000 886.000000 lineto 486.000000 884.000000 lineto 477.000000 871.000000 lineto 274.000000 445.000000 lineto 927.000000 445.000000 moveto 927.000000 445.000000 lineto 933.000000 434.000000 lineto 932.000000 426.000000 lineto 927.000000 419.000000 lineto 910.000000 413.000000 lineto 884.000000 415.000000 lineto 884.000000 410.000000 lineto 891.000000 407.000000 lineto 907.000000 407.000000 lineto 933.000000 418.000000 lineto 939.000000 426.000000 lineto 940.000000 434.000000 lineto 932.000000 451.000000 lineto 927.000000 445.000000 lineto 826.000000 442.000000 moveto 826.000000 442.000000 lineto 826.000000 442.000000 lineto 791.000000 440.000000 moveto 791.000000 440.000000 lineto 793.000000 439.000000 lineto 787.000000 430.000000 lineto 769.000000 433.000000 lineto 791.000000 440.000000 lineto 98.000000 438.000000 moveto 98.000000 438.000000 lineto 145.000000 426.000000 lineto 191.000000 420.000000 lineto 125.000000 436.000000 lineto 101.000000 445.000000 lineto 98.000000 444.000000 lineto 98.000000 438.000000 lineto 187.000000 431.000000 moveto 187.000000 431.000000 lineto 190.000000 430.000000 lineto 187.000000 431.000000 lineto 323.000000 425.000000 moveto 323.000000 425.000000 lineto 626.000000 426.000000 lineto 614.000000 432.000000 lineto 329.000000 432.000000 lineto 317.000000 428.000000 lineto 314.000000 424.000000 lineto 319.000000 422.000000 lineto 323.000000 425.000000 lineto 192.000000 419.000000 moveto 192.000000 419.000000 lineto 194.000000 420.000000 lineto 192.000000 419.000000 lineto 258.000000 415.000000 moveto 258.000000 415.000000 lineto 281.000000 409.000000 lineto 259.000000 407.000000 lineto 256.000000 409.000000 lineto 258.000000 415.000000 lineto 132.000000 414.000000 moveto 132.000000 414.000000 lineto 126.000000 415.000000 lineto 121.000000 403.000000 lineto 121.000000 399.000000 lineto 130.000000 394.000000 lineto 146.000000 394.000000 lineto 186.000000 411.000000 lineto 181.000000 412.000000 lineto 149.000000 401.000000 lineto 138.000000 401.000000 lineto 132.000000 405.000000 lineto 132.000000 414.000000 lineto 513.000000 411.000000 moveto 513.000000 411.000000 lineto 516.000000 408.000000 lineto 507.000000 395.000000 lineto 506.000000 375.000000 lineto 523.000000 358.000000 lineto 523.000000 351.000000 lineto 513.000000 345.000000 lineto 513.000000 341.000000 lineto 522.000000 344.000000 lineto 531.000000 358.000000 lineto 531.000000 363.000000 lineto 518.000000 378.000000 lineto 521.000000 396.000000 lineto 528.000000 401.000000 lineto 542.000000 402.000000 lineto 550.000000 399.000000 lineto 557.000000 387.000000 lineto 556.000000 370.000000 lineto 530.000000 328.000000 lineto 523.000000 300.000000 lineto 538.000000 328.000000 lineto 571.000000 371.000000 lineto 578.000000 397.000000 lineto 571.000000 408.000000 lineto 565.000000 406.000000 lineto 548.000000 414.000000 lineto 516.000000 416.000000 lineto 513.000000 411.000000 lineto 465.000000 409.000000 moveto 465.000000 409.000000 lineto 487.000000 295.000000 lineto 497.000000 261.000000 lineto 503.000000 259.000000 lineto 484.000000 337.000000 lineto 472.000000 415.000000 lineto 465.000000 414.000000 lineto 465.000000 409.000000 lineto 742.000000 409.000000 moveto 742.000000 409.000000 lineto 750.000000 389.000000 lineto 767.000000 385.000000 lineto 787.000000 375.000000 lineto 805.000000 358.000000 lineto 814.000000 342.000000 lineto 815.000000 312.000000 lineto 809.000000 300.000000 lineto 799.000000 291.000000 lineto 810.000000 290.000000 lineto 824.000000 295.000000 lineto 830.000000 304.000000 lineto 833.000000 321.000000 lineto 844.000000 316.000000 lineto 852.000000 317.000000 lineto 843.000000 356.000000 lineto 835.000000 366.000000 lineto 819.000000 372.000000 lineto 842.000000 377.000000 lineto 825.000000 400.000000 lineto 811.000000 408.000000 lineto 784.000000 414.000000 lineto 763.000000 414.000000 lineto 742.000000 409.000000 lineto 823.000000 409.000000 moveto 823.000000 409.000000 lineto 829.000000 402.000000 lineto 859.000000 389.000000 lineto 879.000000 376.000000 lineto 919.000000 343.000000 lineto 925.000000 340.000000 lineto 935.000000 341.000000 lineto 934.000000 350.000000 lineto 939.000000 357.000000 lineto 940.000000 366.000000 lineto 934.000000 375.000000 lineto 929.000000 361.000000 lineto 916.000000 359.000000 lineto 902.000000 365.000000 lineto 861.000000 395.000000 lineto 823.000000 409.000000 lineto 281.000000 404.000000 moveto 281.000000 404.000000 lineto 301.000000 404.000000 lineto 304.000000 400.000000 lineto 293.000000 395.000000 lineto 254.000000 391.000000 lineto 200.000000 369.000000 lineto 239.000000 395.000000 lineto 281.000000 404.000000 lineto 446.000000 404.000000 moveto 446.000000 404.000000 lineto 448.000000 407.000000 lineto 442.000000 414.000000 lineto 425.000000 416.000000 lineto 411.000000 405.000000 lineto 398.000000 410.000000 lineto 395.000000 396.000000 lineto 403.000000 381.000000 lineto 452.000000 324.000000 lineto 472.000000 292.000000 lineto 490.000000 254.000000 lineto 489.000000 273.000000 lineto 478.000000 299.000000 lineto 426.000000 381.000000 lineto 428.000000 398.000000 lineto 446.000000 404.000000 lineto 795.000000 403.000000 moveto 795.000000 403.000000 lineto 811.000000 402.000000 lineto 809.000000 390.000000 lineto 787.000000 400.000000 lineto 795.000000 403.000000 lineto 102.000000 397.000000 moveto 102.000000 397.000000 lineto 110.000000 393.000000 lineto 111.000000 384.000000 lineto 106.000000 373.000000 lineto 111.000000 371.000000 lineto 115.000000 381.000000 lineto 115.000000 396.000000 lineto 108.000000 403.000000 lineto 100.000000 403.000000 lineto 93.000000 395.000000 lineto 102.000000 397.000000 lineto 198.000000 397.000000 moveto 198.000000 397.000000 lineto 190.000000 404.000000 lineto 163.000000 394.000000 lineto 134.000000 377.000000 lineto 145.000000 371.000000 lineto 198.000000 397.000000 lineto 848.000000 388.000000 moveto 848.000000 388.000000 lineto 855.000000 379.000000 lineto 858.000000 367.000000 lineto 877.000000 356.000000 lineto 902.000000 323.000000 lineto 914.000000 288.000000 lineto 916.000000 252.000000 lineto 909.000000 225.000000 lineto 898.000000 208.000000 lineto 884.000000 198.000000 lineto 870.000000 197.000000 lineto 861.000000 200.000000 lineto 855.000000 206.000000 lineto 852.000000 216.000000 lineto 855.000000 225.000000 lineto 877.000000 242.000000 lineto 879.000000 257.000000 lineto 871.000000 263.000000 lineto 861.000000 261.000000 lineto 865.000000 257.000000 lineto 865.000000 249.000000 lineto 843.000000 228.000000 lineto 840.000000 218.000000 lineto 841.000000 207.000000 lineto 853.000000 191.000000 lineto 873.000000 183.000000 lineto 873.000000 176.000000 lineto 895.000000 175.000000 lineto 905.000000 178.000000 lineto 912.000000 184.000000 lineto 917.000000 196.000000 lineto 918.000000 209.000000 lineto 925.000000 212.000000 lineto 926.000000 199.000000 lineto 899.000000 158.000000 lineto 919.000000 153.000000 lineto 930.000000 181.000000 lineto 938.000000 219.000000 lineto 939.000000 251.000000 lineto 933.000000 287.000000 lineto 917.000000 325.000000 lineto 899.000000 351.000000 lineto 875.000000 374.000000 lineto 848.000000 388.000000 lineto 629.000000 385.000000 moveto 629.000000 385.000000 lineto 635.000000 385.000000 lineto 635.000000 382.000000 lineto 605.000000 364.000000 lineto 583.000000 342.000000 lineto 597.000000 363.000000 lineto 629.000000 385.000000 lineto 88.000000 383.000000 moveto 88.000000 383.000000 lineto 102.000000 384.000000 lineto 89.000000 387.000000 lineto 88.000000 383.000000 lineto 180.000000 380.000000 moveto 180.000000 380.000000 lineto 180.000000 380.000000 lineto 179.000000 378.000000 moveto 179.000000 378.000000 lineto 180.000000 380.000000 lineto 153.000000 363.000000 lineto 130.000000 340.000000 lineto 118.000000 316.000000 lineto 117.000000 300.000000 lineto 120.000000 296.000000 lineto 124.000000 319.000000 lineto 133.000000 338.000000 lineto 148.000000 354.000000 lineto 179.000000 378.000000 lineto 333.000000 376.000000 moveto 333.000000 376.000000 lineto 378.000000 365.000000 lineto 330.000000 365.000000 lineto 328.000000 373.000000 lineto 333.000000 376.000000 lineto 65.000000 374.000000 moveto 65.000000 374.000000 lineto 66.000000 380.000000 lineto 63.000000 382.000000 lineto 59.000000 367.000000 lineto 66.000000 357.000000 lineto 88.000000 356.000000 lineto 88.000000 359.000000 lineto 66.000000 364.000000 lineto 65.000000 374.000000 lineto 119.000000 371.000000 moveto 119.000000 371.000000 lineto 134.000000 359.000000 lineto 138.000000 361.000000 lineto 123.000000 374.000000 lineto 119.000000 371.000000 lineto 648.000000 370.000000 moveto 648.000000 370.000000 lineto 650.000000 373.000000 lineto 636.000000 400.000000 lineto 633.000000 400.000000 lineto 587.000000 369.000000 lineto 556.000000 341.000000 lineto 534.000000 310.000000 lineto 513.000000 258.000000 lineto 510.000000 247.000000 lineto 515.000000 242.000000 lineto 519.000000 229.000000 lineto 538.000000 278.000000 lineto 567.000000 318.000000 lineto 603.000000 346.000000 lineto 648.000000 370.000000 lineto 94.000000 366.000000 moveto 94.000000 366.000000 lineto 98.000000 360.000000 lineto 103.000000 363.000000 lineto 97.000000 372.000000 lineto 94.000000 366.000000 lineto 841.000000 366.000000 moveto 841.000000 366.000000 lineto 866.000000 343.000000 lineto 877.000000 328.000000 lineto 880.000000 320.000000 lineto 876.000000 304.000000 lineto 878.000000 302.000000 lineto 886.000000 312.000000 lineto 881.000000 335.000000 lineto 856.000000 362.000000 lineto 848.000000 368.000000 lineto 841.000000 366.000000 lineto 125.000000 354.000000 moveto 125.000000 354.000000 lineto 126.000000 356.000000 lineto 116.000000 361.000000 lineto 112.000000 360.000000 lineto 93.000000 341.000000 lineto 79.000000 318.000000 lineto 62.000000 313.000000 lineto 63.000000 305.000000 lineto 70.000000 307.000000 lineto 73.000000 304.000000 lineto 66.000000 284.000000 lineto 60.000000 241.000000 lineto 62.000000 210.000000 lineto 70.000000 202.000000 lineto 74.000000 183.000000 lineto 83.000000 162.000000 lineto 90.000000 167.000000 lineto 100.000000 164.000000 lineto 117.000000 166.000000 lineto 117.000000 179.000000 lineto 107.000000 187.000000 lineto 109.000000 193.000000 lineto 116.000000 192.000000 lineto 116.000000 200.000000 lineto 108.000000 211.000000 lineto 102.000000 212.000000 lineto 92.000000 224.000000 lineto 82.000000 262.000000 lineto 82.000000 274.000000 lineto 85.000000 290.000000 lineto 95.000000 314.000000 lineto 125.000000 354.000000 lineto 178.000000 350.000000 moveto 178.000000 350.000000 lineto 179.000000 353.000000 lineto 174.000000 354.000000 lineto 165.000000 338.000000 lineto 165.000000 329.000000 lineto 170.000000 317.000000 lineto 182.000000 307.000000 lineto 189.000000 311.000000 lineto 201.000000 312.000000 lineto 206.000000 323.000000 lineto 203.000000 332.000000 lineto 199.000000 332.000000 lineto 197.000000 319.000000 lineto 186.000000 318.000000 lineto 178.000000 323.000000 lineto 178.000000 350.000000 lineto 77.000000 344.000000 moveto 77.000000 344.000000 lineto 79.000000 338.000000 lineto 82.000000 338.000000 lineto 82.000000 346.000000 lineto 77.000000 344.000000 lineto 656.000000 342.000000 moveto 656.000000 342.000000 lineto 655.000000 346.000000 lineto 620.000000 347.000000 lineto 604.000000 341.000000 lineto 589.000000 330.000000 lineto 566.000000 307.000000 lineto 547.000000 281.000000 lineto 533.000000 250.000000 lineto 527.000000 226.000000 lineto 552.000000 277.000000 lineto 581.000000 315.000000 lineto 599.000000 327.000000 lineto 609.000000 330.000000 lineto 621.000000 329.000000 lineto 627.000000 322.000000 lineto 627.000000 308.000000 lineto 622.000000 303.000000 lineto 611.000000 300.000000 lineto 618.000000 295.000000 lineto 626.000000 296.000000 lineto 640.000000 309.000000 lineto 650.000000 308.000000 lineto 655.000000 311.000000 lineto 655.000000 321.000000 lineto 646.000000 331.000000 lineto 656.000000 339.000000 lineto 656.000000 342.000000 lineto 147.000000 339.000000 moveto 147.000000 339.000000 lineto 155.000000 323.000000 lineto 158.000000 309.000000 lineto 155.000000 293.000000 lineto 148.000000 285.000000 lineto 139.000000 282.000000 lineto 126.000000 283.000000 lineto 116.000000 289.000000 lineto 103.000000 303.000000 lineto 100.000000 299.000000 lineto 105.000000 292.000000 lineto 122.000000 281.000000 lineto 134.000000 278.000000 lineto 149.000000 280.000000 lineto 155.000000 283.000000 lineto 163.000000 294.000000 lineto 164.000000 315.000000 lineto 152.000000 344.000000 lineto 147.000000 339.000000 lineto 252.000000 335.000000 moveto 252.000000 335.000000 lineto 253.000000 338.000000 lineto 240.000000 336.000000 lineto 226.000000 341.000000 lineto 172.000000 219.000000 lineto 147.000000 179.000000 lineto 122.000000 159.000000 lineto 66.000000 138.000000 lineto 67.000000 132.000000 lineto 97.000000 130.000000 lineto 142.000000 136.000000 lineto 203.000000 136.000000 lineto 267.000000 131.000000 lineto 287.000000 137.000000 lineto 274.000000 144.000000 lineto 242.000000 148.000000 lineto 223.000000 154.000000 lineto 209.000000 166.000000 lineto 203.000000 179.000000 lineto 202.000000 196.000000 lineto 206.000000 213.000000 lineto 224.000000 257.000000 lineto 251.000000 308.000000 lineto 249.000000 328.000000 lineto 252.000000 335.000000 lineto 873.000000 310.000000 moveto 873.000000 310.000000 lineto 872.000000 319.000000 lineto 862.000000 317.000000 lineto 862.000000 303.000000 lineto 869.000000 303.000000 lineto 873.000000 310.000000 lineto 334.000000 306.000000 moveto 334.000000 306.000000 lineto 362.000000 213.000000 lineto 361.000000 167.000000 lineto 354.000000 139.000000 lineto 342.000000 116.000000 lineto 324.000000 97.000000 lineto 301.000000 85.000000 lineto 339.000000 122.000000 lineto 348.000000 140.000000 lineto 355.000000 167.000000 lineto 356.000000 215.000000 lineto 336.000000 278.000000 lineto 334.000000 306.000000 lineto 848.000000 306.000000 moveto 848.000000 306.000000 lineto 842.000000 305.000000 lineto 839.000000 300.000000 lineto 845.000000 301.000000 lineto 848.000000 306.000000 lineto 260.000000 297.000000 moveto 260.000000 297.000000 lineto 258.000000 308.000000 lineto 240.000000 277.000000 lineto 211.000000 211.000000 lineto 208.000000 188.000000 lineto 220.000000 167.000000 lineto 220.000000 208.000000 lineto 260.000000 297.000000 lineto 521.000000 297.000000 moveto 521.000000 297.000000 lineto 522.000000 300.000000 lineto 521.000000 297.000000 lineto 731.000000 296.000000 moveto 731.000000 296.000000 lineto 732.000000 305.000000 lineto 675.000000 303.000000 lineto 663.000000 295.000000 lineto 681.000000 293.000000 lineto 697.000000 287.000000 lineto 702.000000 281.000000 lineto 702.000000 275.000000 lineto 690.000000 279.000000 lineto 681.000000 288.000000 lineto 660.000000 289.000000 lineto 640.000000 280.000000 lineto 660.000000 279.000000 lineto 659.000000 274.000000 lineto 639.000000 274.000000 lineto 628.000000 267.000000 lineto 619.000000 255.000000 lineto 609.000000 228.000000 lineto 606.000000 195.000000 lineto 611.000000 158.000000 lineto 622.000000 131.000000 lineto 637.000000 110.000000 lineto 657.000000 92.000000 lineto 684.000000 77.000000 lineto 713.000000 68.000000 lineto 740.000000 64.000000 lineto 777.000000 64.000000 lineto 817.000000 72.000000 lineto 849.000000 83.000000 lineto 851.000000 92.000000 lineto 820.000000 82.000000 lineto 776.000000 73.000000 lineto 740.000000 72.000000 lineto 714.000000 76.000000 lineto 688.000000 85.000000 lineto 668.000000 97.000000 lineto 647.000000 116.000000 lineto 634.000000 134.000000 lineto 621.000000 172.000000 lineto 621.000000 211.000000 lineto 634.000000 238.000000 lineto 655.000000 257.000000 lineto 650.000000 258.000000 lineto 631.000000 243.000000 lineto 631.000000 248.000000 lineto 639.000000 257.000000 lineto 633.000000 255.000000 lineto 619.000000 241.000000 lineto 621.000000 248.000000 lineto 637.000000 262.000000 lineto 658.000000 263.000000 lineto 670.000000 253.000000 lineto 678.000000 226.000000 lineto 683.000000 226.000000 lineto 695.000000 234.000000 lineto 700.000000 221.000000 lineto 711.000000 214.000000 lineto 729.000000 239.000000 lineto 736.000000 254.000000 lineto 734.000000 270.000000 lineto 724.000000 280.000000 lineto 724.000000 285.000000 lineto 731.000000 296.000000 lineto 520.000000 295.000000 moveto 520.000000 295.000000 lineto 521.000000 297.000000 lineto 520.000000 295.000000 lineto 869.000000 295.000000 moveto 869.000000 295.000000 lineto 870.000000 298.000000 lineto 855.000000 298.000000 lineto 855.000000 291.000000 lineto 857.000000 287.000000 lineto 863.000000 287.000000 lineto 869.000000 295.000000 lineto 519.000000 293.000000 moveto 519.000000 293.000000 lineto 519.000000 293.000000 lineto 884.000000 285.000000 moveto 884.000000 285.000000 lineto 885.000000 289.000000 lineto 881.000000 292.000000 lineto 873.000000 287.000000 lineto 875.000000 282.000000 lineto 884.000000 285.000000 lineto 397.000000 284.000000 moveto 397.000000 284.000000 lineto 404.000000 274.000000 lineto 395.000000 261.000000 lineto 393.000000 246.000000 lineto 402.000000 233.000000 lineto 405.000000 258.000000 lineto 413.000000 264.000000 lineto 430.000000 265.000000 lineto 443.000000 260.000000 lineto 453.000000 251.000000 lineto 469.000000 220.000000 lineto 465.000000 248.000000 lineto 460.000000 259.000000 lineto 449.000000 271.000000 lineto 423.000000 283.000000 lineto 400.000000 288.000000 lineto 397.000000 288.000000 lineto 397.000000 284.000000 lineto 839.000000 283.000000 moveto 839.000000 283.000000 lineto 845.000000 278.000000 lineto 852.000000 280.000000 lineto 844.000000 290.000000 lineto 840.000000 288.000000 lineto 839.000000 283.000000 lineto 865.000000 275.000000 moveto 865.000000 275.000000 lineto 865.000000 279.000000 lineto 862.000000 280.000000 lineto 856.000000 277.000000 lineto 860.000000 272.000000 lineto 865.000000 275.000000 lineto 315.000000 274.000000 moveto 315.000000 274.000000 lineto 321.000000 255.000000 lineto 307.000000 258.000000 lineto 305.000000 241.000000 lineto 315.000000 223.000000 lineto 344.000000 189.000000 lineto 345.000000 177.000000 lineto 339.000000 176.000000 lineto 334.000000 179.000000 lineto 327.000000 196.000000 lineto 307.000000 221.000000 lineto 287.000000 237.000000 lineto 271.000000 238.000000 lineto 276.000000 227.000000 lineto 255.000000 220.000000 lineto 236.000000 206.000000 lineto 257.000000 183.000000 lineto 271.000000 181.000000 lineto 269.000000 165.000000 lineto 297.000000 166.000000 lineto 311.000000 157.000000 lineto 316.000000 143.000000 lineto 316.000000 130.000000 lineto 305.000000 108.000000 lineto 288.000000 93.000000 lineto 269.000000 83.000000 lineto 227.000000 73.000000 lineto 182.000000 77.000000 lineto 150.000000 90.000000 lineto 119.000000 98.000000 lineto 117.000000 85.000000 lineto 125.000000 71.000000 lineto 130.000000 77.000000 lineto 129.000000 89.000000 lineto 134.000000 90.000000 lineto 161.000000 74.000000 lineto 194.000000 65.000000 lineto 239.000000 64.000000 lineto 267.000000 68.000000 lineto 294.000000 76.000000 lineto 321.000000 89.000000 lineto 342.000000 104.000000 lineto 360.000000 122.000000 lineto 373.000000 141.000000 lineto 389.000000 184.000000 lineto 403.000000 205.000000 lineto 392.000000 202.000000 lineto 387.000000 204.000000 lineto 391.000000 221.000000 lineto 382.000000 275.000000 lineto 371.000000 271.000000 lineto 339.000000 326.000000 lineto 319.000000 299.000000 lineto 315.000000 287.000000 lineto 315.000000 274.000000 lineto 702.000000 270.000000 moveto 702.000000 270.000000 lineto 709.000000 267.000000 lineto 718.000000 240.000000 lineto 705.000000 257.000000 lineto 701.000000 265.000000 lineto 702.000000 270.000000 lineto 721.000000 270.000000 moveto 721.000000 270.000000 lineto 725.000000 265.000000 lineto 723.000000 253.000000 lineto 721.000000 270.000000 lineto 123.000000 266.000000 moveto 123.000000 266.000000 lineto 130.000000 254.000000 lineto 137.000000 254.000000 lineto 137.000000 261.000000 lineto 133.000000 266.000000 lineto 124.000000 270.000000 lineto 123.000000 266.000000 lineto 145.000000 264.000000 moveto 145.000000 264.000000 lineto 147.000000 248.000000 lineto 154.000000 248.000000 lineto 159.000000 257.000000 lineto 158.000000 266.000000 lineto 145.000000 269.000000 lineto 145.000000 264.000000 lineto 575.000000 264.000000 moveto 575.000000 264.000000 lineto 585.000000 263.000000 lineto 594.000000 249.000000 lineto 596.000000 183.000000 lineto 612.000000 143.000000 lineto 600.000000 198.000000 lineto 610.000000 255.000000 lineto 606.000000 284.000000 lineto 596.000000 281.000000 lineto 586.000000 289.000000 lineto 575.000000 289.000000 lineto 570.000000 279.000000 lineto 555.000000 265.000000 lineto 554.000000 253.000000 lineto 563.000000 246.000000 lineto 567.000000 258.000000 lineto 575.000000 264.000000 lineto 706.000000 257.000000 moveto 706.000000 257.000000 lineto 706.000000 257.000000 lineto 928.000000 257.000000 moveto 928.000000 257.000000 lineto 932.000000 239.000000 lineto 931.000000 227.000000 lineto 925.000000 236.000000 lineto 928.000000 257.000000 lineto 70.000000 246.000000 moveto 70.000000 246.000000 lineto 84.000000 211.000000 lineto 69.000000 233.000000 lineto 70.000000 246.000000 lineto 108.000000 246.000000 moveto 108.000000 246.000000 lineto 112.000000 239.000000 lineto 119.000000 239.000000 lineto 123.000000 245.000000 lineto 121.000000 255.000000 lineto 112.000000 256.000000 lineto 108.000000 246.000000 lineto 316.000000 242.000000 moveto 316.000000 242.000000 lineto 320.000000 235.000000 lineto 315.000000 237.000000 lineto 316.000000 242.000000 lineto 155.000000 236.000000 moveto 155.000000 236.000000 lineto 158.000000 233.000000 lineto 165.000000 233.000000 lineto 168.000000 236.000000 lineto 167.000000 246.000000 lineto 158.000000 246.000000 lineto 155.000000 236.000000 lineto 322.000000 233.000000 moveto 322.000000 233.000000 lineto 327.000000 229.000000 lineto 327.000000 225.000000 lineto 322.000000 233.000000 lineto 404.000000 232.000000 moveto 404.000000 232.000000 lineto 404.000000 232.000000 lineto 411.000000 229.000000 moveto 411.000000 229.000000 lineto 415.000000 225.000000 lineto 443.000000 228.000000 lineto 441.000000 234.000000 lineto 433.000000 238.000000 lineto 420.000000 229.000000 lineto 411.000000 229.000000 lineto 109.000000 226.000000 moveto 109.000000 226.000000 lineto 114.000000 220.000000 lineto 122.000000 218.000000 lineto 114.000000 231.000000 lineto 109.000000 231.000000 lineto 109.000000 226.000000 lineto 129.000000 226.000000 moveto 129.000000 226.000000 lineto 134.000000 219.000000 lineto 146.000000 221.000000 lineto 148.000000 237.000000 lineto 144.000000 244.000000 lineto 134.000000 244.000000 lineto 130.000000 240.000000 lineto 129.000000 226.000000 lineto 526.000000 224.000000 moveto 526.000000 224.000000 lineto 527.000000 226.000000 lineto 526.000000 224.000000 lineto 501.000000 221.000000 moveto 501.000000 221.000000 lineto 486.000000 196.000000 lineto 485.000000 207.000000 lineto 501.000000 221.000000 lineto 160.000000 217.000000 moveto 160.000000 217.000000 lineto 161.000000 224.000000 lineto 157.000000 225.000000 lineto 150.000000 215.000000 lineto 151.000000 211.000000 lineto 157.000000 211.000000 lineto 160.000000 217.000000 lineto 564.000000 211.000000 moveto 564.000000 211.000000 lineto 570.000000 211.000000 lineto 572.000000 207.000000 lineto 567.000000 193.000000 lineto 569.000000 177.000000 lineto 576.000000 171.000000 lineto 587.000000 172.000000 lineto 578.000000 188.000000 lineto 578.000000 198.000000 lineto 585.000000 211.000000 lineto 584.000000 220.000000 lineto 578.000000 227.000000 lineto 565.000000 227.000000 lineto 556.000000 219.000000 lineto 550.000000 207.000000 lineto 555.000000 180.000000 lineto 554.000000 159.000000 lineto 561.000000 171.000000 lineto 558.000000 199.000000 lineto 560.000000 208.000000 lineto 564.000000 211.000000 lineto 126.000000 209.000000 moveto 126.000000 209.000000 lineto 131.000000 202.000000 lineto 144.000000 204.000000 lineto 141.000000 212.000000 lineto 127.000000 212.000000 lineto 126.000000 209.000000 lineto 90.000000 203.000000 moveto 90.000000 203.000000 lineto 90.000000 203.000000 lineto 280.000000 203.000000 moveto 280.000000 203.000000 lineto 303.000000 198.000000 lineto 314.000000 185.000000 lineto 280.000000 203.000000 lineto 383.000000 195.000000 moveto 383.000000 195.000000 lineto 373.000000 172.000000 lineto 375.000000 185.000000 lineto 383.000000 195.000000 lineto 523.000000 191.000000 moveto 523.000000 191.000000 lineto 524.000000 203.000000 lineto 521.000000 212.000000 lineto 509.000000 239.000000 lineto 499.000000 249.000000 lineto 476.000000 215.000000 lineto 470.000000 180.000000 lineto 464.000000 181.000000 lineto 462.000000 191.000000 lineto 452.000000 200.000000 lineto 444.000000 186.000000 lineto 441.000000 166.000000 lineto 458.000000 138.000000 lineto 457.000000 128.000000 lineto 445.000000 127.000000 lineto 434.000000 141.000000 lineto 418.000000 150.000000 lineto 402.000000 151.000000 lineto 393.000000 148.000000 lineto 403.000000 127.000000 lineto 383.000000 126.000000 lineto 361.000000 113.000000 lineto 365.000000 104.000000 lineto 352.000000 90.000000 lineto 353.000000 75.000000 lineto 361.000000 68.000000 lineto 364.000000 78.000000 lineto 371.000000 85.000000 lineto 394.000000 93.000000 lineto 452.000000 92.000000 lineto 474.000000 96.000000 lineto 489.000000 108.000000 lineto 494.000000 121.000000 lineto 495.000000 143.000000 lineto 499.000000 144.000000 lineto 502.000000 140.000000 lineto 500.000000 107.000000 lineto 505.000000 102.000000 lineto 540.000000 95.000000 lineto 616.000000 95.000000 lineto 624.000000 88.000000 lineto 621.000000 69.000000 lineto 630.000000 66.000000 lineto 629.000000 71.000000 lineto 639.000000 84.000000 lineto 640.000000 94.000000 lineto 632.000000 105.000000 lineto 615.000000 112.000000 lineto 619.000000 123.000000 lineto 608.000000 132.000000 lineto 585.000000 134.000000 lineto 578.000000 130.000000 lineto 581.000000 144.000000 lineto 567.000000 148.000000 lineto 552.000000 141.000000 lineto 535.000000 125.000000 lineto 525.000000 127.000000 lineto 525.000000 137.000000 lineto 544.000000 154.000000 lineto 549.000000 173.000000 lineto 543.000000 194.000000 lineto 537.000000 193.000000 lineto 528.000000 183.000000 lineto 523.000000 184.000000 lineto 523.000000 191.000000 lineto 410.000000 185.000000 moveto 410.000000 185.000000 lineto 418.000000 184.000000 lineto 424.000000 179.000000 lineto 435.000000 148.000000 lineto 443.000000 142.000000 lineto 443.000000 149.000000 lineto 433.000000 160.000000 lineto 430.000000 186.000000 lineto 422.000000 196.000000 lineto 411.000000 197.000000 lineto 399.000000 191.000000 lineto 396.000000 182.000000 lineto 398.000000 170.000000 lineto 407.000000 166.000000 lineto 405.000000 180.000000 lineto 410.000000 185.000000 lineto 665.000000 181.000000 moveto 665.000000 181.000000 lineto 682.000000 178.000000 lineto 686.000000 163.000000 lineto 696.000000 174.000000 lineto 696.000000 187.000000 lineto 690.000000 195.000000 lineto 669.000000 194.000000 lineto 666.000000 207.000000 lineto 657.000000 207.000000 lineto 642.000000 191.000000 lineto 636.000000 177.000000 lineto 635.000000 157.000000 lineto 641.000000 134.000000 lineto 650.000000 120.000000 lineto 663.000000 108.000000 lineto 684.000000 96.000000 lineto 704.000000 90.000000 lineto 671.000000 110.000000 lineto 654.000000 130.000000 lineto 649.000000 145.000000 lineto 649.000000 165.000000 lineto 653.000000 174.000000 lineto 665.000000 181.000000 lineto 452.000000 180.000000 moveto 452.000000 180.000000 lineto 459.000000 173.000000 lineto 464.000000 160.000000 lineto 451.000000 169.000000 lineto 452.000000 180.000000 lineto 537.000000 178.000000 moveto 537.000000 178.000000 lineto 544.000000 161.000000 lineto 542.000000 155.000000 lineto 537.000000 178.000000 lineto 846.000000 171.000000 moveto 846.000000 171.000000 lineto 846.000000 171.000000 lineto 341.000000 169.000000 moveto 341.000000 169.000000 lineto 345.000000 165.000000 lineto 345.000000 160.000000 lineto 333.000000 134.000000 lineto 333.000000 162.000000 lineto 341.000000 169.000000 lineto 308.000000 167.000000 moveto 308.000000 167.000000 lineto 321.000000 158.000000 lineto 308.000000 167.000000 lineto 221.000000 165.000000 moveto 221.000000 165.000000 lineto 222.000000 167.000000 lineto 221.000000 165.000000 lineto 612.000000 141.000000 moveto 612.000000 141.000000 lineto 613.000000 143.000000 lineto 612.000000 141.000000 lineto 295.000000 129.000000 moveto 295.000000 129.000000 lineto 291.000000 134.000000 lineto 284.000000 129.000000 lineto 268.000000 126.000000 lineto 172.000000 130.000000 lineto 144.000000 130.000000 lineto 105.000000 125.000000 lineto 63.000000 126.000000 lineto 78.000000 118.000000 lineto 148.000000 122.000000 lineto 264.000000 118.000000 lineto 290.000000 122.000000 lineto 295.000000 129.000000 lineto 468.000000 128.000000 moveto 468.000000 128.000000 lineto 465.000000 119.000000 lineto 455.000000 112.000000 lineto 468.000000 128.000000 lineto 668.000000 127.000000 moveto 668.000000 127.000000 lineto 679.000000 118.000000 lineto 759.000000 122.000000 lineto 920.000000 118.000000 lineto 932.000000 126.000000 lineto 931.000000 130.000000 lineto 912.000000 124.000000 lineto 834.000000 128.000000 lineto 736.000000 128.000000 lineto 713.000000 125.000000 lineto 668.000000 127.000000 lineto 509.000000 125.000000 moveto 509.000000 125.000000 lineto 521.000000 113.000000 lineto 513.000000 115.000000 lineto 509.000000 125.000000 lineto 565.000000 113.000000 moveto 565.000000 113.000000 lineto 586.000000 110.000000 lineto 568.000000 104.000000 lineto 546.000000 107.000000 lineto 565.000000 113.000000 lineto 118.000000 109.000000 moveto 118.000000 109.000000 lineto 131.000000 101.000000 lineto 145.000000 97.000000 lineto 150.000000 101.000000 lineto 168.000000 99.000000 lineto 176.000000 105.000000 lineto 146.000000 113.000000 lineto 118.000000 109.000000 lineto 230.000000 108.000000 moveto 230.000000 108.000000 lineto 231.000000 95.000000 lineto 221.000000 86.000000 lineto 179.000000 85.000000 lineto 195.000000 82.000000 lineto 222.000000 82.000000 lineto 233.000000 85.000000 lineto 241.000000 91.000000 lineto 243.000000 100.000000 lineto 237.000000 107.000000 lineto 231.000000 110.000000 lineto 230.000000 108.000000 lineto 750.000000 108.000000 moveto 750.000000 108.000000 lineto 763.000000 109.000000 lineto 749.000000 112.000000 lineto 736.000000 109.000000 lineto 732.000000 101.000000 lineto 736.000000 88.000000 lineto 749.000000 81.000000 lineto 771.000000 82.000000 lineto 746.000000 91.000000 lineto 745.000000 103.000000 lineto 750.000000 108.000000 lineto 855.000000 108.000000 moveto 855.000000 108.000000 lineto 856.000000 111.000000 lineto 853.000000 112.000000 lineto 820.000000 101.000000 lineto 807.000000 100.000000 lineto 785.000000 113.000000 lineto 782.000000 105.000000 lineto 790.000000 95.000000 lineto 789.000000 88.000000 lineto 796.000000 88.000000 lineto 817.000000 89.000000 lineto 837.000000 94.000000 lineto 853.000000 103.000000 lineto 855.000000 108.000000 lineto 880.000000 104.000000 moveto 880.000000 104.000000 lineto 882.000000 95.000000 lineto 885.000000 92.000000 lineto 891.000000 93.000000 lineto 893.000000 88.000000 lineto 909.000000 75.000000 lineto 920.000000 75.000000 lineto 930.000000 82.000000 lineto 913.000000 87.000000 lineto 905.000000 96.000000 lineto 902.000000 109.000000 lineto 880.000000 108.000000 lineto 880.000000 104.000000 lineto 109.000000 95.000000 moveto 109.000000 95.000000 lineto 109.000000 108.000000 lineto 89.000000 107.000000 lineto 85.000000 89.000000 lineto 70.000000 66.000000 lineto 87.000000 67.000000 lineto 92.000000 76.000000 lineto 93.000000 91.000000 lineto 100.000000 92.000000 lineto 103.000000 84.000000 lineto 108.000000 88.000000 lineto 109.000000 95.000000 lineto 871.000000 95.000000 moveto 871.000000 95.000000 lineto 868.000000 110.000000 lineto 856.000000 91.000000 lineto 856.000000 83.000000 lineto 862.000000 75.000000 lineto 871.000000 95.000000 lineto 704.000000 89.000000 moveto 704.000000 89.000000 lineto 706.000000 90.000000 lineto 704.000000 89.000000 lineto 505.000000 87.000000 moveto 505.000000 87.000000 lineto 504.000000 93.000000 lineto 493.000000 95.000000 lineto 486.000000 91.000000 lineto 485.000000 85.000000 lineto 496.000000 80.000000 lineto 503.000000 82.000000 lineto 505.000000 87.000000 lineto 176.000000 86.000000 moveto 176.000000 86.000000 lineto 179.000000 87.000000 lineto 176.000000 86.000000 lineto 550.000000 83.000000 moveto 550.000000 83.000000 lineto 550.000000 83.000000 lineto 552.000000 82.000000 moveto 552.000000 82.000000 lineto 560.000000 77.000000 lineto 561.000000 71.000000 lineto 530.000000 84.000000 lineto 515.000000 81.000000 lineto 520.000000 76.000000 lineto 539.000000 68.000000 lineto 558.000000 63.000000 lineto 584.000000 63.000000 lineto 597.000000 67.000000 lineto 578.000000 76.000000 lineto 552.000000 82.000000 lineto 440.000000 81.000000 moveto 440.000000 81.000000 lineto 442.000000 82.000000 lineto 427.000000 80.000000 lineto 396.000000 67.000000 lineto 440.000000 64.000000 lineto 459.000000 70.000000 lineto 477.000000 80.000000 lineto 472.000000 84.000000 lineto 460.000000 84.000000 lineto 435.000000 74.000000 lineto 440.000000 81.000000 lineto 316.000000 78.000000 moveto 316.000000 78.000000 lineto 330.000000 77.000000 lineto 333.000000 73.000000 lineto 332.000000 67.000000 lineto 339.000000 72.000000 lineto 338.000000 78.000000 lineto 330.000000 82.000000 lineto 315.000000 80.000000 lineto 308.000000 76.000000 lineto 316.000000 78.000000 lineto 307.000000 75.000000 moveto 307.000000 75.000000 lineto 307.000000 75.000000 lineto 666.000000 72.000000 moveto 666.000000 72.000000 lineto 684.000000 70.000000 lineto 664.000000 77.000000 lineto 653.000000 77.000000 lineto 651.000000 67.000000 lineto 655.000000 65.000000 lineto 666.000000 72.000000 lineto 501.000000 70.000000 moveto 501.000000 70.000000 lineto 502.000000 74.000000 lineto 486.000000 73.000000 lineto 486.000000 64.000000 lineto 501.000000 65.000000 lineto 501.000000 70.000000 lineto 685.000000 69.000000 moveto 685.000000 69.000000 lineto 685.000000 69.000000 lineto 30.000000 33.000000 moveto 30.000000 33.000000 lineto 961.000000 32.000000 lineto 962.000000 963.000000 lineto 31.000000 964.000000 lineto 30.000000 33.000000 lineto 
fill 
showpage
