%!PS-Adobe-3.0 EPSF-3.0
%%BoundingBox: 0 0 4 4
1.000000 4.000000 moveto 2.000000 4.000000 lineto 2.000000 3.000000 lineto 3.000000 3.000000 lineto 4.000000 3.000000 lineto 4.000000 2.000000 lineto 3.000000 2.000000 lineto 3.000000 1.000000 lineto 3.000000 0.000000 lineto 2.000000 0.000000 lineto 1.000000 0.000000 lineto 1.000000 1.000000 lineto 2.000000 1.000000 lineto 2.000000 2.000000 lineto 1.000000 2.000000 lineto 0.000000 2.000000 lineto 0.000000 3.000000 lineto 1.000000 3.000000 lineto 1.000000 4.000000 lineto 
stroke
showpage