%!PS-Adobe-3.0 EPSF-3.0
%%BoundingBox: 0 0 4 4
1.000000 4.000000 moveto 2.000000 4.000000 lineto 2.000000 3.000000 lineto 3.000000 3.000000 lineto 4.000000 3.000000 lineto 4.000000 2.000000 lineto 3.000000 2.000000 lineto 3.000000 1.000000 lineto 3.000000 0.000000 lineto 2.000000 0.000000 lineto 1.000000 0.000000 lineto 1.000000 1.000000 lineto 2.000000 1.000000 lineto 2.000000 2.000000 lineto 1.000000 2.000000 lineto 0.000000 2.000000 lineto 0.000000 3.000000 lineto 1.000000 3.000000 lineto 1.000000 4.000000 lineto 
0.05 setlinewidth stroke
newpath 1.000000 4.000000 0.2 0 360 arc fill closepath newpath 2.000000 4.000000 0.2 0 360 arc fill closepath newpath 2.000000 3.000000 0.2 0 360 arc fill closepath newpath 3.000000 3.000000 0.2 0 360 arc fill closepath newpath 4.000000 3.000000 0.2 0 360 arc fill closepath newpath 4.000000 2.000000 0.2 0 360 arc fill closepath newpath 3.000000 2.000000 0.2 0 360 arc fill closepath newpath 3.000000 1.000000 0.2 0 360 arc fill closepath newpath 3.000000 0.000000 0.2 0 360 arc fill closepath newpath 2.000000 0.000000 0.2 0 360 arc fill closepath newpath 1.000000 0.000000 0.2 0 360 arc fill closepath newpath 1.000000 1.000000 0.2 0 360 arc fill closepath newpath 2.000000 1.000000 0.2 0 360 arc fill closepath newpath 2.000000 2.000000 0.2 0 360 arc fill closepath newpath 1.000000 2.000000 0.2 0 360 arc fill closepath newpath 0.000000 2.000000 0.2 0 360 arc fill closepath newpath 0.000000 3.000000 0.2 0 360 arc fill closepath newpath 1.000000 3.000000 0.2 0 360 arc fill closepath newpath 1.000000 4.000000 0.2 0 360 arc fill closepath showpage
