%!PS-Adobe-3.0 EPSF-3.0
%%BoundingBox: 0 0 7 9
2.000000 9.000000 moveto 2.000000 9.000000 lineto 6.000000 9.000000 lineto 7.000000 6.000000 lineto 2.000000 4.000000 lineto 2.000000 9.000000 lineto 2.000000 6.000000 moveto 2.000000 6.000000 lineto 5.000000 8.000000 lineto 2.000000 6.000000 lineto 0.000000 4.000000 moveto 0.000000 4.000000 lineto 7.000000 0.000000 lineto 1.000000 0.000000 lineto 0.000000 4.000000 lineto 
fill 
showpage
