%!PS-Adobe-3.0 EPSF-3.0
%%BoundingBox: 0 0 50 50
9.000000 50.000000 moveto 9.000000 50.000000 lineto 16.000000 50.000000 lineto 16.000000 45.000000 lineto 11.000000 44.000000 lineto 7.000000 40.000000 lineto 8.000000 32.000000 lineto 10.000000 32.000000 lineto 10.000000 30.000000 lineto 16.000000 27.000000 lineto 24.000000 27.000000 lineto 27.000000 44.000000 lineto 31.000000 46.000000 lineto 33.000000 49.000000 lineto 44.000000 50.000000 lineto 49.000000 46.000000 lineto 49.000000 35.000000 lineto 46.000000 32.000000 lineto 46.000000 30.000000 lineto 44.000000 30.000000 lineto 38.000000 24.000000 lineto 29.000000 22.000000 lineto 28.000000 19.000000 lineto 28.000000 13.000000 lineto 34.000000 10.000000 lineto 37.000000 6.000000 lineto 42.000000 6.000000 lineto 44.000000 8.000000 lineto 45.000000 15.000000 lineto 50.000000 15.000000 lineto 50.000000 7.000000 lineto 47.000000 1.000000 lineto 33.000000 1.000000 lineto 25.000000 7.000000 lineto 20.000000 0.000000 lineto 8.000000 0.000000 lineto 0.000000 5.000000 lineto 0.000000 14.000000 lineto 2.000000 15.000000 lineto 3.000000 18.000000 lineto 8.000000 20.000000 lineto 16.000000 20.000000 lineto 20.000000 18.000000 lineto 23.000000 19.000000 lineto 23.000000 22.000000 lineto 11.000000 22.000000 lineto 8.000000 23.000000 lineto 5.000000 27.000000 lineto 3.000000 27.000000 lineto 1.000000 33.000000 lineto 1.000000 44.000000 lineto 9.000000 50.000000 lineto 43.000000 40.000000 moveto 43.000000 40.000000 lineto 44.000000 41.000000 lineto 41.000000 44.000000 lineto 35.000000 42.000000 lineto 32.000000 39.000000 lineto 30.000000 29.000000 lineto 37.000000 31.000000 lineto 42.000000 36.000000 lineto 43.000000 40.000000 lineto 18.000000 10.000000 moveto 18.000000 10.000000 lineto 19.000000 12.000000 lineto 15.000000 14.000000 lineto 10.000000 14.000000 lineto 6.000000 11.000000 lineto 8.000000 7.000000 lineto 11.000000 7.000000 lineto 13.000000 5.000000 lineto 15.000000 5.000000 lineto 18.000000 8.000000 lineto 18.000000 10.000000 lineto 
fill 
showpage
