%!PS-Adobe-3.0 EPSF-3.0
%%BoundingBox: 0 0 1122 417
140.000000 411.000000 moveto 140.000000 411.000000 lineto 156.000000 407.000000 lineto 177.000000 387.000000 lineto 192.000000 363.000000 lineto 206.000000 326.000000 lineto 213.000000 288.000000 lineto 214.000000 252.000000 lineto 205.000000 212.000000 lineto 218.000000 222.000000 lineto 227.000000 222.000000 lineto 232.000000 215.000000 lineto 281.000000 239.000000 lineto 333.000000 253.000000 lineto 396.000000 255.000000 lineto 419.000000 250.000000 lineto 434.000000 240.000000 lineto 431.000000 231.000000 lineto 396.000000 221.000000 lineto 385.000000 204.000000 lineto 375.000000 201.000000 lineto 365.000000 193.000000 lineto 360.000000 193.000000 lineto 356.000000 184.000000 lineto 347.000000 180.000000 lineto 338.000000 171.000000 lineto 320.000000 166.000000 lineto 295.000000 168.000000 lineto 301.000000 153.000000 lineto 298.000000 143.000000 lineto 290.000000 136.000000 lineto 269.000000 128.000000 lineto 263.000000 117.000000 lineto 250.000000 109.000000 lineto 247.000000 98.000000 lineto 227.000000 84.000000 lineto 210.000000 66.000000 lineto 203.000000 52.000000 lineto 184.000000 43.000000 lineto 173.000000 17.000000 lineto 163.000000 7.000000 lineto 157.000000 7.000000 lineto 151.000000 15.000000 lineto 152.000000 49.000000 lineto 147.000000 60.000000 lineto 147.000000 71.000000 lineto 155.000000 115.000000 lineto 166.000000 153.000000 lineto 149.000000 133.000000 lineto 132.000000 106.000000 lineto 126.000000 108.000000 lineto 126.000000 119.000000 lineto 147.000000 156.000000 lineto 113.000000 137.000000 lineto 78.000000 128.000000 lineto 59.000000 129.000000 lineto 44.000000 140.000000 lineto 18.000000 134.000000 lineto 8.000000 143.000000 lineto 8.000000 154.000000 lineto 13.000000 161.000000 lineto 28.000000 172.000000 lineto 50.000000 182.000000 lineto 49.000000 195.000000 lineto 52.000000 201.000000 lineto 63.000000 207.000000 lineto 58.000000 219.000000 lineto 59.000000 226.000000 lineto 78.000000 240.000000 lineto 82.000000 258.000000 lineto 98.000000 268.000000 lineto 120.000000 268.000000 lineto 104.000000 282.000000 lineto 101.000000 301.000000 lineto 104.000000 311.000000 lineto 115.000000 320.000000 lineto 114.000000 339.000000 lineto 126.000000 352.000000 lineto 125.000000 369.000000 lineto 131.000000 381.000000 lineto 132.000000 400.000000 lineto 140.000000 411.000000 lineto 831.000000 392.000000 moveto 831.000000 392.000000 lineto 797.000000 354.000000 lineto 778.000000 322.000000 lineto 786.000000 318.000000 lineto 789.000000 303.000000 lineto 797.000000 300.000000 lineto 802.000000 294.000000 lineto 822.000000 308.000000 lineto 862.000000 324.000000 lineto 908.000000 334.000000 lineto 961.000000 339.000000 lineto 1011.000000 338.000000 lineto 1069.000000 329.000000 lineto 1100.000000 316.000000 lineto 1110.000000 301.000000 lineto 1108.000000 291.000000 lineto 1100.000000 282.000000 lineto 1080.000000 271.000000 lineto 1076.000000 263.000000 lineto 1064.000000 255.000000 lineto 1056.000000 243.000000 lineto 1047.000000 240.000000 lineto 1038.000000 228.000000 lineto 1030.000000 225.000000 lineto 1024.000000 215.000000 lineto 1011.000000 205.000000 lineto 1007.000000 196.000000 lineto 991.000000 184.000000 lineto 986.000000 174.000000 lineto 978.000000 170.000000 lineto 974.000000 154.000000 lineto 965.000000 143.000000 lineto 964.000000 129.000000 lineto 959.000000 116.000000 lineto 952.000000 110.000000 lineto 949.000000 101.000000 lineto 941.000000 92.000000 lineto 923.000000 83.000000 lineto 910.000000 68.000000 lineto 885.000000 58.000000 lineto 851.000000 57.000000 lineto 836.000000 68.000000 lineto 827.000000 83.000000 lineto 826.000000 79.000000 lineto 822.000000 81.000000 lineto 817.000000 55.000000 lineto 807.000000 45.000000 lineto 781.000000 35.000000 lineto 751.000000 34.000000 lineto 737.000000 41.000000 lineto 711.000000 44.000000 lineto 699.000000 54.000000 lineto 690.000000 56.000000 lineto 681.000000 64.000000 lineto 674.000000 79.000000 lineto 656.000000 89.000000 lineto 650.000000 98.000000 lineto 638.000000 99.000000 lineto 630.000000 106.000000 lineto 612.000000 109.000000 lineto 605.000000 116.000000 lineto 590.000000 119.000000 lineto 580.000000 126.000000 lineto 567.000000 126.000000 lineto 558.000000 132.000000 lineto 548.000000 132.000000 lineto 536.000000 139.000000 lineto 522.000000 141.000000 lineto 514.000000 147.000000 lineto 489.000000 150.000000 lineto 476.000000 158.000000 lineto 476.000000 176.000000 lineto 498.000000 203.000000 lineto 532.000000 228.000000 lineto 575.000000 251.000000 lineto 620.000000 269.000000 lineto 681.000000 285.000000 lineto 723.000000 289.000000 lineto 758.000000 283.000000 lineto 766.000000 297.000000 lineto 761.000000 307.000000 lineto 766.000000 318.000000 lineto 761.000000 323.000000 lineto 727.000000 342.000000 lineto 685.000000 354.000000 lineto 698.000000 354.000000 lineto 723.000000 347.000000 lineto 751.000000 334.000000 lineto 766.000000 322.000000 lineto 770.000000 327.000000 lineto 777.000000 324.000000 lineto 783.000000 340.000000 lineto 796.000000 359.000000 lineto 812.000000 377.000000 lineto 831.000000 392.000000 lineto 153.000000 376.000000 moveto 153.000000 376.000000 lineto 161.000000 357.000000 lineto 167.000000 348.000000 lineto 172.000000 346.000000 lineto 181.000000 362.000000 lineto 178.000000 380.000000 lineto 170.000000 389.000000 lineto 163.000000 391.000000 lineto 153.000000 385.000000 lineto 153.000000 376.000000 lineto 140.000000 347.000000 moveto 140.000000 347.000000 lineto 150.000000 331.000000 lineto 165.000000 332.000000 lineto 166.000000 346.000000 lineto 156.000000 360.000000 lineto 144.000000 362.000000 lineto 140.000000 347.000000 lineto 1012.000000 329.000000 moveto 1012.000000 329.000000 lineto 1018.000000 324.000000 lineto 1027.000000 325.000000 lineto 1022.000000 331.000000 lineto 1012.000000 329.000000 lineto 1042.000000 324.000000 moveto 1042.000000 324.000000 lineto 1049.000000 319.000000 lineto 1057.000000 320.000000 lineto 1053.000000 326.000000 lineto 1046.000000 327.000000 lineto 1042.000000 324.000000 lineto 131.000000 320.000000 moveto 131.000000 320.000000 lineto 137.000000 309.000000 lineto 145.000000 302.000000 lineto 152.000000 302.000000 lineto 155.000000 305.000000 lineto 157.000000 316.000000 lineto 144.000000 333.000000 lineto 135.000000 334.000000 lineto 131.000000 329.000000 lineto 131.000000 320.000000 lineto 987.000000 320.000000 moveto 987.000000 320.000000 lineto 991.000000 316.000000 lineto 1002.000000 317.000000 lineto 999.000000 323.000000 lineto 988.000000 323.000000 lineto 987.000000 320.000000 lineto 182.000000 319.000000 moveto 182.000000 319.000000 lineto 193.000000 303.000000 lineto 205.000000 301.000000 lineto 208.000000 304.000000 lineto 206.000000 316.000000 lineto 201.000000 323.000000 lineto 186.000000 324.000000 lineto 182.000000 319.000000 lineto 1069.000000 317.000000 moveto 1069.000000 317.000000 lineto 1075.000000 312.000000 lineto 1084.000000 313.000000 lineto 1075.000000 320.000000 lineto 1070.000000 320.000000 lineto 1069.000000 317.000000 lineto 932.000000 314.000000 moveto 932.000000 314.000000 lineto 956.000000 304.000000 lineto 985.000000 299.000000 lineto 977.000000 308.000000 lineto 967.000000 313.000000 lineto 953.000000 316.000000 lineto 932.000000 314.000000 lineto 167.000000 309.000000 moveto 167.000000 309.000000 lineto 176.000000 297.000000 lineto 182.000000 298.000000 lineto 185.000000 302.000000 lineto 178.000000 319.000000 lineto 171.000000 317.000000 lineto 167.000000 309.000000 lineto 1033.000000 306.000000 moveto 1033.000000 306.000000 lineto 1042.000000 298.000000 lineto 1055.000000 298.000000 lineto 1054.000000 304.000000 lineto 1044.000000 312.000000 lineto 1035.000000 311.000000 lineto 1033.000000 306.000000 lineto 990.000000 303.000000 moveto 990.000000 303.000000 lineto 999.000000 295.000000 lineto 1004.000000 297.000000 lineto 1003.000000 302.000000 lineto 996.000000 307.000000 lineto 991.000000 307.000000 lineto 990.000000 303.000000 lineto 127.000000 299.000000 moveto 127.000000 299.000000 lineto 134.000000 290.000000 lineto 144.000000 290.000000 lineto 143.000000 298.000000 lineto 136.000000 305.000000 lineto 128.000000 306.000000 lineto 127.000000 299.000000 lineto 1093.000000 298.000000 moveto 1093.000000 298.000000 lineto 1100.000000 298.000000 lineto 1100.000000 303.000000 lineto 1096.000000 307.000000 lineto 1093.000000 307.000000 lineto 1093.000000 298.000000 lineto 154.000000 295.000000 moveto 154.000000 295.000000 lineto 170.000000 277.000000 lineto 175.000000 289.000000 lineto 164.000000 309.000000 lineto 156.000000 302.000000 lineto 154.000000 295.000000 lineto 1011.000000 291.000000 moveto 1011.000000 291.000000 lineto 1020.000000 283.000000 lineto 1035.000000 277.000000 lineto 1044.000000 276.000000 lineto 1047.000000 281.000000 lineto 1043.000000 290.000000 lineto 1028.000000 297.000000 lineto 1012.000000 296.000000 lineto 1011.000000 291.000000 lineto 988.000000 288.000000 moveto 988.000000 288.000000 lineto 989.000000 290.000000 lineto 980.000000 291.000000 lineto 964.000000 299.000000 lineto 917.000000 313.000000 lineto 899.000000 306.000000 lineto 894.000000 301.000000 lineto 878.000000 304.000000 lineto 865.000000 296.000000 lineto 844.000000 293.000000 lineto 832.000000 283.000000 lineto 847.000000 281.000000 lineto 875.000000 284.000000 lineto 883.000000 281.000000 lineto 901.000000 281.000000 lineto 915.000000 284.000000 lineto 957.000000 284.000000 lineto 988.000000 276.000000 lineto 988.000000 288.000000 lineto 1099.000000 288.000000 moveto 1099.000000 288.000000 lineto 1096.000000 286.000000 lineto 1099.000000 288.000000 lineto 1074.000000 285.000000 moveto 1074.000000 285.000000 lineto 1080.000000 287.000000 lineto 1071.000000 289.000000 lineto 1071.000000 278.000000 lineto 1074.000000 285.000000 lineto 183.000000 281.000000 moveto 183.000000 281.000000 lineto 187.000000 272.000000 lineto 179.000000 272.000000 lineto 181.000000 258.000000 lineto 174.000000 257.000000 lineto 170.000000 236.000000 lineto 153.000000 231.000000 lineto 149.000000 223.000000 lineto 132.000000 212.000000 lineto 133.000000 204.000000 lineto 125.000000 195.000000 lineto 125.000000 186.000000 lineto 130.000000 178.000000 lineto 119.000000 173.000000 lineto 102.000000 158.000000 lineto 95.000000 145.000000 lineto 96.000000 137.000000 lineto 115.000000 143.000000 lineto 153.000000 164.000000 lineto 178.000000 195.000000 lineto 203.000000 214.000000 lineto 211.000000 252.000000 lineto 210.000000 273.000000 lineto 204.000000 281.000000 lineto 200.000000 280.000000 lineto 197.000000 274.000000 lineto 190.000000 288.000000 lineto 187.000000 288.000000 lineto 183.000000 281.000000 lineto 998.000000 277.000000 moveto 998.000000 277.000000 lineto 1015.000000 264.000000 lineto 1022.000000 265.000000 lineto 1026.000000 270.000000 lineto 1023.000000 276.000000 lineto 1008.000000 282.000000 lineto 999.000000 282.000000 lineto 998.000000 277.000000 lineto 941.000000 275.000000 moveto 941.000000 275.000000 lineto 970.000000 258.000000 lineto 981.000000 254.000000 lineto 987.000000 255.000000 lineto 989.000000 268.000000 lineto 982.000000 273.000000 lineto 959.000000 279.000000 lineto 943.000000 279.000000 lineto 941.000000 275.000000 lineto 1080.000000 275.000000 moveto 1080.000000 275.000000 lineto 1077.000000 276.000000 lineto 1075.000000 270.000000 lineto 1080.000000 275.000000 lineto 187.000000 271.000000 moveto 187.000000 271.000000 lineto 187.000000 271.000000 lineto 900.000000 271.000000 moveto 900.000000 271.000000 lineto 916.000000 258.000000 lineto 976.000000 224.000000 lineto 981.000000 224.000000 lineto 988.000000 232.000000 lineto 989.000000 239.000000 lineto 985.000000 244.000000 lineto 941.000000 270.000000 lineto 923.000000 277.000000 lineto 903.000000 275.000000 lineto 900.000000 271.000000 lineto 1059.000000 270.000000 moveto 1059.000000 270.000000 lineto 1064.000000 269.000000 lineto 1060.000000 274.000000 lineto 1053.000000 273.000000 lineto 1055.000000 262.000000 lineto 1059.000000 270.000000 lineto 835.000000 268.000000 moveto 835.000000 268.000000 lineto 902.000000 233.000000 lineto 946.000000 204.000000 lineto 956.000000 204.000000 lineto 954.000000 212.000000 lineto 946.000000 221.000000 lineto 962.000000 213.000000 lineto 969.000000 214.000000 lineto 968.000000 219.000000 lineto 950.000000 234.000000 lineto 882.000000 272.000000 lineto 867.000000 277.000000 lineto 849.000000 276.000000 lineto 837.000000 273.000000 lineto 835.000000 268.000000 lineto 166.000000 266.000000 moveto 166.000000 266.000000 lineto 167.000000 273.000000 lineto 163.000000 281.000000 lineto 155.000000 289.000000 lineto 149.000000 289.000000 lineto 140.000000 276.000000 lineto 137.000000 260.000000 lineto 145.000000 252.000000 lineto 153.000000 250.000000 lineto 163.000000 257.000000 lineto 166.000000 266.000000 lineto 733.000000 261.000000 moveto 733.000000 261.000000 lineto 734.000000 263.000000 lineto 728.000000 265.000000 lineto 713.000000 265.000000 lineto 702.000000 259.000000 lineto 682.000000 261.000000 lineto 671.000000 252.000000 lineto 642.000000 253.000000 lineto 589.000000 201.000000 lineto 593.000000 199.000000 lineto 594.000000 191.000000 lineto 597.000000 191.000000 lineto 621.000000 211.000000 lineto 643.000000 218.000000 lineto 656.000000 227.000000 lineto 681.000000 234.000000 lineto 694.000000 244.000000 lineto 733.000000 261.000000 lineto 1063.000000 258.000000 moveto 1063.000000 258.000000 lineto 1065.000000 260.000000 lineto 1062.000000 260.000000 lineto 1059.000000 254.000000 lineto 1063.000000 258.000000 lineto 991.000000 257.000000 moveto 991.000000 257.000000 lineto 997.000000 247.000000 lineto 1001.000000 247.000000 lineto 1002.000000 253.000000 lineto 1009.000000 255.000000 lineto 1008.000000 259.000000 lineto 998.000000 266.000000 lineto 992.000000 263.000000 lineto 991.000000 257.000000 lineto 1042.000000 257.000000 moveto 1042.000000 257.000000 lineto 1046.000000 258.000000 lineto 1041.000000 261.000000 lineto 1034.000000 260.000000 lineto 1036.000000 248.000000 lineto 1038.000000 255.000000 lineto 1042.000000 257.000000 lineto 390.000000 246.000000 moveto 390.000000 246.000000 lineto 389.000000 252.000000 lineto 373.000000 253.000000 lineto 350.000000 244.000000 lineto 380.000000 241.000000 lineto 390.000000 246.000000 lineto 629.000000 246.000000 moveto 629.000000 246.000000 lineto 629.000000 249.000000 lineto 625.000000 249.000000 lineto 615.000000 244.000000 lineto 601.000000 230.000000 lineto 590.000000 213.000000 lineto 612.000000 228.000000 lineto 629.000000 246.000000 lineto 737.000000 246.000000 moveto 737.000000 246.000000 lineto 736.000000 250.000000 lineto 719.000000 247.000000 lineto 699.000000 238.000000 lineto 690.000000 229.000000 lineto 647.000000 166.000000 lineto 638.000000 149.000000 lineto 639.000000 142.000000 lineto 644.000000 143.000000 lineto 656.000000 158.000000 lineto 654.000000 139.000000 lineto 659.000000 138.000000 lineto 664.000000 143.000000 lineto 695.000000 192.000000 lineto 737.000000 246.000000 lineto 326.000000 243.000000 moveto 326.000000 243.000000 lineto 328.000000 248.000000 lineto 318.000000 248.000000 lineto 301.000000 243.000000 lineto 301.000000 239.000000 lineto 309.000000 238.000000 lineto 326.000000 243.000000 lineto 1047.000000 243.000000 moveto 1047.000000 243.000000 lineto 1048.000000 245.000000 lineto 1043.000000 244.000000 lineto 1041.000000 239.000000 lineto 1047.000000 243.000000 lineto 826.000000 240.000000 moveto 826.000000 240.000000 lineto 831.000000 227.000000 lineto 846.000000 207.000000 lineto 880.000000 170.000000 lineto 888.000000 157.000000 lineto 894.000000 156.000000 lineto 900.000000 162.000000 lineto 901.000000 169.000000 lineto 887.000000 190.000000 lineto 867.000000 211.000000 lineto 860.000000 233.000000 lineto 836.000000 245.000000 lineto 827.000000 245.000000 lineto 826.000000 240.000000 lineto 1020.000000 240.000000 moveto 1020.000000 240.000000 lineto 1024.000000 242.000000 lineto 1012.000000 243.000000 lineto 1015.000000 230.000000 lineto 1020.000000 240.000000 lineto 127.000000 238.000000 moveto 127.000000 238.000000 lineto 134.000000 231.000000 lineto 147.000000 230.000000 lineto 155.000000 234.000000 lineto 156.000000 240.000000 lineto 146.000000 246.000000 lineto 131.000000 246.000000 lineto 127.000000 243.000000 lineto 127.000000 238.000000 lineto 293.000000 235.000000 moveto 293.000000 235.000000 lineto 286.000000 237.000000 lineto 276.000000 234.000000 lineto 237.000000 215.000000 lineto 212.000000 197.000000 lineto 184.000000 170.000000 lineto 166.000000 143.000000 lineto 156.000000 88.000000 lineto 174.000000 110.000000 lineto 187.000000 138.000000 lineto 196.000000 135.000000 lineto 204.000000 141.000000 lineto 208.000000 150.000000 lineto 207.000000 160.000000 lineto 213.000000 163.000000 lineto 209.000000 178.000000 lineto 214.000000 178.000000 lineto 214.000000 183.000000 lineto 223.000000 182.000000 lineto 221.000000 194.000000 lineto 248.000000 209.000000 lineto 281.000000 215.000000 lineto 284.000000 224.000000 lineto 296.000000 229.000000 lineto 293.000000 235.000000 lineto 323.000000 235.000000 moveto 323.000000 235.000000 lineto 323.000000 239.000000 lineto 316.000000 239.000000 lineto 303.000000 234.000000 lineto 301.000000 229.000000 lineto 304.000000 226.000000 lineto 314.000000 226.000000 lineto 321.000000 229.000000 lineto 323.000000 235.000000 lineto 342.000000 230.000000 moveto 342.000000 230.000000 lineto 349.000000 225.000000 lineto 363.000000 224.000000 lineto 374.000000 227.000000 lineto 377.000000 233.000000 lineto 370.000000 239.000000 lineto 349.000000 239.000000 lineto 342.000000 236.000000 lineto 342.000000 230.000000 lineto 578.000000 230.000000 moveto 578.000000 230.000000 lineto 576.000000 233.000000 lineto 567.000000 230.000000 lineto 565.000000 222.000000 lineto 572.000000 222.000000 lineto 578.000000 230.000000 lineto 1030.000000 229.000000 moveto 1030.000000 229.000000 lineto 1026.000000 230.000000 lineto 1024.000000 224.000000 lineto 1030.000000 229.000000 lineto 551.000000 227.000000 moveto 551.000000 227.000000 lineto 544.000000 228.000000 lineto 539.000000 219.000000 lineto 545.000000 219.000000 lineto 551.000000 227.000000 lineto 121.000000 226.000000 moveto 121.000000 226.000000 lineto 133.000000 220.000000 lineto 143.000000 222.000000 lineto 141.000000 227.000000 lineto 132.000000 231.000000 lineto 122.000000 231.000000 lineto 121.000000 226.000000 lineto 944.000000 223.000000 moveto 944.000000 223.000000 lineto 944.000000 223.000000 lineto 310.000000 221.000000 moveto 310.000000 221.000000 lineto 311.000000 224.000000 lineto 308.000000 225.000000 lineto 296.000000 224.000000 lineto 278.000000 210.000000 lineto 296.000000 212.000000 lineto 310.000000 221.000000 lineto 817.000000 221.000000 moveto 817.000000 221.000000 lineto 832.000000 180.000000 lineto 828.000000 109.000000 lineto 829.000000 102.000000 lineto 834.000000 101.000000 lineto 849.000000 108.000000 lineto 845.000000 138.000000 lineto 846.000000 189.000000 lineto 830.000000 226.000000 lineto 822.000000 236.000000 lineto 818.000000 232.000000 lineto 817.000000 221.000000 lineto 676.000000 219.000000 moveto 676.000000 219.000000 lineto 677.000000 224.000000 lineto 667.000000 224.000000 lineto 647.000000 213.000000 lineto 611.000000 164.000000 lineto 610.000000 155.000000 lineto 615.000000 149.000000 lineto 625.000000 147.000000 lineto 630.000000 152.000000 lineto 658.000000 189.000000 lineto 676.000000 219.000000 lineto 1001.000000 219.000000 moveto 1001.000000 219.000000 lineto 1004.000000 221.000000 lineto 995.000000 223.000000 lineto 991.000000 220.000000 lineto 995.000000 208.000000 lineto 997.000000 216.000000 lineto 1001.000000 219.000000 lineto 868.000000 218.000000 moveto 868.000000 218.000000 lineto 902.000000 173.000000 lineto 907.000000 172.000000 lineto 913.000000 185.000000 lineto 901.000000 203.000000 lineto 876.000000 224.000000 lineto 871.000000 224.000000 lineto 868.000000 218.000000 lineto 582.000000 214.000000 moveto 582.000000 214.000000 lineto 582.000000 217.000000 lineto 574.000000 214.000000 lineto 573.000000 202.000000 lineto 579.000000 205.000000 lineto 582.000000 214.000000 lineto 99.000000 213.000000 moveto 99.000000 213.000000 lineto 106.000000 209.000000 lineto 123.000000 208.000000 lineto 130.000000 211.000000 lineto 131.000000 218.000000 lineto 118.000000 224.000000 lineto 108.000000 224.000000 lineto 100.000000 220.000000 lineto 99.000000 213.000000 lineto 311.000000 213.000000 moveto 311.000000 213.000000 lineto 320.000000 207.000000 lineto 333.000000 206.000000 lineto 342.000000 209.000000 lineto 345.000000 217.000000 lineto 339.000000 221.000000 lineto 318.000000 222.000000 lineto 311.000000 219.000000 lineto 311.000000 213.000000 lineto 756.000000 213.000000 moveto 756.000000 213.000000 lineto 757.000000 226.000000 lineto 754.000000 229.000000 lineto 738.000000 217.000000 lineto 730.000000 204.000000 lineto 732.000000 176.000000 lineto 720.000000 133.000000 lineto 720.000000 127.000000 lineto 728.000000 122.000000 lineto 735.000000 121.000000 lineto 740.000000 149.000000 lineto 754.000000 194.000000 lineto 756.000000 213.000000 lineto 589.000000 212.000000 moveto 589.000000 212.000000 lineto 589.000000 212.000000 lineto 1010.000000 210.000000 moveto 1010.000000 210.000000 lineto 1007.000000 211.000000 lineto 1005.000000 206.000000 lineto 1010.000000 210.000000 lineto 525.000000 208.000000 moveto 525.000000 208.000000 lineto 526.000000 212.000000 lineto 521.000000 212.000000 lineto 514.000000 207.000000 lineto 513.000000 202.000000 lineto 519.000000 202.000000 lineto 525.000000 208.000000 lineto 637.000000 206.000000 moveto 637.000000 206.000000 lineto 638.000000 210.000000 lineto 632.000000 211.000000 lineto 608.000000 196.000000 lineto 598.000000 184.000000 lineto 603.000000 175.000000 lineto 606.000000 172.000000 lineto 612.000000 174.000000 lineto 637.000000 206.000000 lineto 901.000000 206.000000 moveto 901.000000 206.000000 lineto 915.000000 192.000000 lineto 916.000000 197.000000 lineto 908.000000 205.000000 lineto 901.000000 206.000000 lineto 279.000000 205.000000 moveto 279.000000 205.000000 lineto 278.000000 209.000000 lineto 268.000000 209.000000 lineto 253.000000 204.000000 lineto 242.000000 196.000000 lineto 242.000000 192.000000 lineto 251.000000 188.000000 lineto 279.000000 205.000000 lineto 980.000000 198.000000 moveto 980.000000 198.000000 lineto 983.000000 200.000000 lineto 970.000000 200.000000 lineto 973.000000 188.000000 lineto 975.000000 195.000000 lineto 980.000000 198.000000 lineto 541.000000 194.000000 moveto 541.000000 194.000000 lineto 540.000000 202.000000 lineto 531.000000 201.000000 lineto 525.000000 192.000000 lineto 525.000000 184.000000 lineto 532.000000 184.000000 lineto 541.000000 194.000000 lineto 567.000000 193.000000 moveto 567.000000 193.000000 lineto 568.000000 196.000000 lineto 562.000000 198.000000 lineto 548.000000 191.000000 lineto 541.000000 182.000000 lineto 540.000000 169.000000 lineto 544.000000 167.000000 lineto 551.000000 170.000000 lineto 563.000000 183.000000 lineto 567.000000 193.000000 lineto 319.000000 192.000000 moveto 319.000000 192.000000 lineto 331.000000 185.000000 lineto 339.000000 185.000000 lineto 343.000000 189.000000 lineto 343.000000 195.000000 lineto 334.000000 200.000000 lineto 320.000000 198.000000 lineto 319.000000 192.000000 lineto 504.000000 192.000000 moveto 504.000000 192.000000 lineto 505.000000 195.000000 lineto 498.000000 194.000000 lineto 493.000000 189.000000 lineto 493.000000 184.000000 lineto 500.000000 185.000000 lineto 504.000000 192.000000 lineto 990.000000 189.000000 moveto 990.000000 189.000000 lineto 992.000000 190.000000 lineto 986.000000 188.000000 lineto 986.000000 184.000000 lineto 990.000000 189.000000 lineto 91.000000 188.000000 moveto 91.000000 188.000000 lineto 99.000000 177.000000 lineto 110.000000 176.000000 lineto 120.000000 182.000000 lineto 122.000000 195.000000 lineto 117.000000 205.000000 lineto 107.000000 207.000000 lineto 92.000000 199.000000 lineto 91.000000 188.000000 lineto 585.000000 185.000000 moveto 585.000000 185.000000 lineto 586.000000 189.000000 lineto 583.000000 191.000000 lineto 573.000000 186.000000 lineto 564.000000 176.000000 lineto 564.000000 168.000000 lineto 575.000000 167.000000 lineto 585.000000 185.000000 lineto 759.000000 185.000000 moveto 759.000000 185.000000 lineto 762.000000 168.000000 lineto 783.000000 125.000000 lineto 791.000000 98.000000 lineto 795.000000 95.000000 lineto 810.000000 96.000000 lineto 810.000000 106.000000 lineto 782.000000 162.000000 lineto 776.000000 187.000000 lineto 775.000000 212.000000 lineto 767.000000 223.000000 lineto 762.000000 219.000000 lineto 759.000000 185.000000 lineto 728.000000 183.000000 moveto 728.000000 183.000000 lineto 727.000000 190.000000 lineto 718.000000 189.000000 lineto 704.000000 158.000000 lineto 702.000000 137.000000 lineto 714.000000 130.000000 lineto 726.000000 166.000000 lineto 728.000000 183.000000 lineto 921.000000 183.000000 moveto 921.000000 183.000000 lineto 936.000000 165.000000 lineto 944.000000 163.000000 lineto 947.000000 166.000000 lineto 945.000000 175.000000 lineto 928.000000 191.000000 lineto 921.000000 191.000000 lineto 921.000000 183.000000 lineto 226.000000 180.000000 moveto 226.000000 180.000000 lineto 232.000000 175.000000 lineto 241.000000 174.000000 lineto 245.000000 178.000000 lineto 245.000000 184.000000 lineto 240.000000 189.000000 lineto 231.000000 190.000000 lineto 226.000000 186.000000 lineto 226.000000 180.000000 lineto 50.000000 177.000000 moveto 50.000000 177.000000 lineto 53.000000 173.000000 lineto 64.000000 175.000000 lineto 59.000000 181.000000 lineto 52.000000 181.000000 lineto 50.000000 177.000000 lineto 114.000000 174.000000 moveto 114.000000 174.000000 lineto 116.000000 175.000000 lineto 93.000000 168.000000 lineto 89.000000 163.000000 lineto 89.000000 156.000000 lineto 95.000000 154.000000 lineto 100.000000 157.000000 lineto 114.000000 174.000000 lineto 483.000000 166.000000 moveto 483.000000 166.000000 lineto 486.000000 163.000000 lineto 491.000000 164.000000 lineto 488.000000 175.000000 lineto 484.000000 173.000000 lineto 483.000000 166.000000 lineto 867.000000 164.000000 moveto 867.000000 164.000000 lineto 874.000000 136.000000 lineto 878.000000 136.000000 lineto 887.000000 150.000000 lineto 869.000000 174.000000 lineto 867.000000 164.000000 lineto 51.000000 163.000000 moveto 51.000000 163.000000 lineto 49.000000 168.000000 lineto 36.000000 167.000000 lineto 20.000000 157.000000 lineto 18.000000 147.000000 lineto 23.000000 143.000000 lineto 35.000000 145.000000 lineto 48.000000 154.000000 lineto 51.000000 163.000000 lineto 585.000000 163.000000 moveto 585.000000 163.000000 lineto 593.000000 163.000000 lineto 594.000000 159.000000 lineto 598.000000 159.000000 lineto 601.000000 162.000000 lineto 600.000000 174.000000 lineto 597.000000 177.000000 lineto 590.000000 177.000000 lineto 585.000000 163.000000 lineto 908.000000 163.000000 moveto 908.000000 163.000000 lineto 927.000000 137.000000 lineto 935.000000 141.000000 lineto 937.000000 157.000000 lineto 921.000000 177.000000 lineto 918.000000 178.000000 lineto 910.000000 170.000000 lineto 908.000000 163.000000 lineto 220.000000 162.000000 moveto 220.000000 162.000000 lineto 223.000000 157.000000 lineto 232.000000 158.000000 lineto 233.000000 164.000000 lineto 228.000000 174.000000 lineto 220.000000 173.000000 lineto 220.000000 162.000000 lineto 512.000000 162.000000 moveto 512.000000 162.000000 lineto 519.000000 157.000000 lineto 516.000000 167.000000 lineto 512.000000 167.000000 lineto 508.000000 160.000000 lineto 512.000000 162.000000 lineto 657.000000 160.000000 moveto 657.000000 160.000000 lineto 657.000000 160.000000 lineto 702.000000 160.000000 moveto 702.000000 160.000000 lineto 703.000000 163.000000 lineto 694.000000 150.000000 lineto 696.000000 144.000000 lineto 702.000000 160.000000 lineto 147.000000 156.000000 moveto 147.000000 156.000000 lineto 147.000000 156.000000 lineto 489.000000 156.000000 moveto 489.000000 156.000000 lineto 493.000000 155.000000 lineto 489.000000 156.000000 lineto 533.000000 155.000000 moveto 533.000000 155.000000 lineto 541.000000 151.000000 lineto 539.000000 160.000000 lineto 533.000000 160.000000 lineto 529.000000 153.000000 lineto 533.000000 155.000000 lineto 956.000000 154.000000 moveto 956.000000 154.000000 lineto 958.000000 156.000000 lineto 951.000000 155.000000 lineto 954.000000 147.000000 lineto 956.000000 154.000000 lineto 210.000000 153.000000 moveto 210.000000 153.000000 lineto 215.000000 136.000000 lineto 220.000000 134.000000 lineto 225.000000 144.000000 lineto 223.000000 156.000000 lineto 215.000000 162.000000 lineto 210.000000 153.000000 lineto 512.000000 151.000000 moveto 512.000000 151.000000 lineto 520.000000 149.000000 lineto 516.000000 153.000000 lineto 512.000000 151.000000 lineto 554.000000 150.000000 moveto 554.000000 150.000000 lineto 559.000000 150.000000 lineto 563.000000 144.000000 lineto 561.000000 156.000000 lineto 555.000000 156.000000 lineto 550.000000 149.000000 lineto 554.000000 150.000000 lineto 752.000000 150.000000 moveto 752.000000 150.000000 lineto 763.000000 106.000000 lineto 769.000000 101.000000 lineto 784.000000 99.000000 lineto 785.000000 103.000000 lineto 774.000000 134.000000 lineto 759.000000 163.000000 lineto 753.000000 161.000000 lineto 752.000000 150.000000 lineto 850.000000 147.000000 moveto 850.000000 147.000000 lineto 853.000000 116.000000 lineto 856.000000 114.000000 lineto 871.000000 129.000000 lineto 864.000000 168.000000 lineto 856.000000 184.000000 lineto 852.000000 183.000000 lineto 850.000000 176.000000 lineto 850.000000 147.000000 lineto 894.000000 145.000000 moveto 894.000000 145.000000 lineto 908.000000 115.000000 lineto 915.000000 116.000000 lineto 920.000000 121.000000 lineto 921.000000 129.000000 lineto 909.000000 156.000000 lineto 903.000000 159.000000 lineto 894.000000 145.000000 lineto 582.000000 144.000000 moveto 582.000000 144.000000 lineto 586.000000 143.000000 lineto 589.000000 136.000000 lineto 590.000000 148.000000 lineto 583.000000 150.000000 lineto 577.000000 145.000000 lineto 582.000000 144.000000 lineto 533.000000 142.000000 moveto 533.000000 142.000000 lineto 540.000000 140.000000 lineto 538.000000 143.000000 lineto 533.000000 142.000000 lineto 556.000000 135.000000 moveto 556.000000 135.000000 lineto 564.000000 134.000000 lineto 562.000000 137.000000 lineto 556.000000 135.000000 lineto 609.000000 133.000000 moveto 609.000000 133.000000 lineto 614.000000 132.000000 lineto 617.000000 125.000000 lineto 617.000000 137.000000 lineto 611.000000 139.000000 lineto 604.000000 132.000000 lineto 609.000000 133.000000 lineto 212.000000 129.000000 moveto 212.000000 129.000000 lineto 213.000000 137.000000 lineto 210.000000 141.000000 lineto 201.000000 139.000000 lineto 191.000000 124.000000 lineto 193.000000 114.000000 lineto 205.000000 116.000000 lineto 212.000000 129.000000 lineto 577.000000 129.000000 moveto 577.000000 129.000000 lineto 584.000000 128.000000 lineto 583.000000 131.000000 lineto 577.000000 129.000000 lineto 694.000000 127.000000 moveto 694.000000 127.000000 lineto 695.000000 136.000000 lineto 689.000000 141.000000 lineto 676.000000 116.000000 lineto 679.000000 107.000000 lineto 683.000000 106.000000 lineto 688.000000 110.000000 lineto 694.000000 127.000000 lineto 876.000000 125.000000 moveto 876.000000 125.000000 lineto 883.000000 100.000000 lineto 900.000000 107.000000 lineto 900.000000 119.000000 lineto 891.000000 142.000000 lineto 878.000000 132.000000 lineto 876.000000 125.000000 lineto 637.000000 123.000000 moveto 637.000000 123.000000 lineto 645.000000 116.000000 lineto 646.000000 123.000000 lineto 643.000000 129.000000 lineto 636.000000 128.000000 lineto 632.000000 121.000000 lineto 637.000000 123.000000 lineto 940.000000 123.000000 moveto 940.000000 123.000000 lineto 945.000000 124.000000 lineto 937.000000 126.000000 lineto 938.000000 117.000000 lineto 940.000000 123.000000 lineto 602.000000 120.000000 moveto 602.000000 120.000000 lineto 609.000000 118.000000 lineto 606.000000 122.000000 lineto 602.000000 120.000000 lineto 714.000000 118.000000 moveto 714.000000 118.000000 lineto 714.000000 124.000000 lineto 703.000000 130.000000 lineto 699.000000 129.000000 lineto 691.000000 103.000000 lineto 701.000000 89.000000 lineto 708.000000 89.000000 lineto 711.000000 94.000000 lineto 714.000000 118.000000 lineto 740.000000 116.000000 moveto 740.000000 116.000000 lineto 748.000000 111.000000 lineto 757.000000 110.000000 lineto 749.000000 147.000000 lineto 746.000000 145.000000 lineto 740.000000 116.000000 lineto 950.000000 113.000000 moveto 950.000000 113.000000 lineto 946.000000 112.000000 lineto 947.000000 107.000000 lineto 950.000000 113.000000 lineto 187.000000 109.000000 moveto 187.000000 109.000000 lineto 186.000000 127.000000 lineto 177.000000 113.000000 lineto 177.000000 102.000000 lineto 184.000000 101.000000 lineto 187.000000 109.000000 lineto 629.000000 109.000000 moveto 629.000000 109.000000 lineto 635.000000 107.000000 lineto 633.000000 111.000000 lineto 629.000000 109.000000 lineto 854.000000 100.000000 moveto 854.000000 100.000000 lineto 858.000000 91.000000 lineto 867.000000 91.000000 lineto 874.000000 97.000000 lineto 872.000000 122.000000 lineto 854.000000 108.000000 lineto 854.000000 100.000000 lineto 848.000000 99.000000 moveto 848.000000 99.000000 lineto 848.000000 103.000000 lineto 845.000000 104.000000 lineto 829.000000 96.000000 lineto 844.000000 91.000000 lineto 848.000000 99.000000 lineto 915.000000 99.000000 moveto 915.000000 99.000000 lineto 921.000000 100.000000 lineto 914.000000 104.000000 lineto 913.000000 95.000000 lineto 915.000000 99.000000 lineto 765.000000 96.000000 moveto 765.000000 96.000000 lineto 774.000000 75.000000 lineto 785.000000 73.000000 lineto 791.000000 76.000000 lineto 792.000000 82.000000 lineto 787.000000 93.000000 lineto 774.000000 99.000000 lineto 765.000000 99.000000 lineto 765.000000 96.000000 lineto 717.000000 93.000000 moveto 717.000000 93.000000 lineto 723.000000 77.000000 lineto 736.000000 78.000000 lineto 734.000000 114.000000 lineto 719.000000 118.000000 lineto 717.000000 93.000000 lineto 673.000000 92.000000 moveto 673.000000 92.000000 lineto 677.000000 92.000000 lineto 680.000000 87.000000 lineto 681.000000 95.000000 lineto 677.000000 96.000000 lineto 673.000000 92.000000 lineto 813.000000 91.000000 moveto 813.000000 91.000000 lineto 814.000000 94.000000 lineto 803.000000 94.000000 lineto 796.000000 93.000000 lineto 795.000000 89.000000 lineto 804.000000 82.000000 lineto 813.000000 91.000000 lineto 740.000000 87.000000 moveto 740.000000 87.000000 lineto 744.000000 77.000000 lineto 750.000000 73.000000 lineto 759.000000 72.000000 lineto 765.000000 75.000000 lineto 764.000000 89.000000 lineto 759.000000 101.000000 lineto 747.000000 110.000000 lineto 740.000000 110.000000 lineto 740.000000 87.000000 lineto 891.000000 87.000000 moveto 891.000000 87.000000 lineto 897.000000 85.000000 lineto 891.000000 91.000000 lineto 887.000000 84.000000 lineto 889.000000 83.000000 lineto 891.000000 87.000000 lineto 923.000000 87.000000 moveto 923.000000 87.000000 lineto 919.000000 88.000000 lineto 917.000000 83.000000 lineto 923.000000 87.000000 lineto 672.000000 83.000000 moveto 672.000000 83.000000 lineto 679.000000 78.000000 lineto 677.000000 83.000000 lineto 672.000000 83.000000 lineto 840.000000 79.000000 moveto 840.000000 79.000000 lineto 845.000000 76.000000 lineto 843.000000 84.000000 lineto 836.000000 77.000000 lineto 840.000000 79.000000 lineto 865.000000 77.000000 moveto 865.000000 77.000000 lineto 870.000000 74.000000 lineto 868.000000 82.000000 lineto 863.000000 80.000000 lineto 861.000000 75.000000 lineto 865.000000 77.000000 lineto 811.000000 73.000000 moveto 811.000000 73.000000 lineto 816.000000 74.000000 lineto 808.000000 77.000000 lineto 808.000000 69.000000 lineto 811.000000 73.000000 lineto 703.000000 71.000000 moveto 703.000000 71.000000 lineto 707.000000 67.000000 lineto 705.000000 75.000000 lineto 698.000000 70.000000 lineto 703.000000 71.000000 lineto 896.000000 68.000000 moveto 896.000000 68.000000 lineto 898.000000 69.000000 lineto 894.000000 70.000000 lineto 891.000000 65.000000 lineto 896.000000 68.000000 lineto 793.000000 61.000000 moveto 793.000000 61.000000 lineto 792.000000 64.000000 lineto 786.000000 64.000000 lineto 787.000000 56.000000 lineto 793.000000 61.000000 lineto 866.000000 61.000000 moveto 866.000000 61.000000 lineto 874.000000 62.000000 lineto 869.000000 64.000000 lineto 866.000000 61.000000 lineto 734.000000 59.000000 moveto 734.000000 59.000000 lineto 740.000000 57.000000 lineto 737.000000 64.000000 lineto 730.000000 60.000000 lineto 731.000000 57.000000 lineto 734.000000 59.000000 lineto 697.000000 58.000000 moveto 697.000000 58.000000 lineto 703.000000 54.000000 lineto 702.000000 59.000000 lineto 697.000000 58.000000 lineto 761.000000 58.000000 moveto 761.000000 58.000000 lineto 767.000000 57.000000 lineto 762.000000 63.000000 lineto 759.000000 62.000000 lineto 758.000000 55.000000 lineto 761.000000 58.000000 lineto 189.000000 56.000000 moveto 189.000000 56.000000 lineto 188.000000 69.000000 lineto 181.000000 71.000000 lineto 178.000000 65.000000 lineto 179.000000 53.000000 lineto 186.000000 51.000000 lineto 189.000000 56.000000 lineto 733.000000 46.000000 moveto 733.000000 46.000000 lineto 740.000000 44.000000 lineto 737.000000 48.000000 lineto 733.000000 46.000000 lineto 796.000000 45.000000 moveto 796.000000 45.000000 lineto 793.000000 47.000000 lineto 790.000000 43.000000 lineto 796.000000 45.000000 lineto 174.000000 42.000000 moveto 174.000000 42.000000 lineto 175.000000 54.000000 lineto 168.000000 56.000000 lineto 158.000000 37.000000 lineto 158.000000 28.000000 lineto 162.000000 22.000000 lineto 168.000000 23.000000 lineto 171.000000 27.000000 lineto 174.000000 42.000000 lineto 764.000000 40.000000 moveto 764.000000 40.000000 lineto 772.000000 39.000000 lineto 769.000000 42.000000 lineto 764.000000 40.000000 lineto 
fill 
showpage
