%!PS-Adobe-3.0 EPSF-3.0
%%BoundingBox: 0 0 1500 558
228.000000 558.000000 moveto 228.000000 558.000000 lineto 237.000000 558.000000 lineto 247.000000 554.000000 lineto 255.000000 547.000000 lineto 257.000000 547.000000 lineto 257.000000 545.000000 lineto 263.000000 540.000000 lineto 268.000000 530.000000 lineto 265.000000 528.000000 lineto 265.000000 526.000000 lineto 263.000000 525.000000 lineto 259.000000 518.000000 lineto 268.000000 509.000000 lineto 275.000000 492.000000 lineto 296.000000 497.000000 lineto 299.000000 499.000000 lineto 304.000000 499.000000 lineto 316.000000 503.000000 lineto 341.000000 508.000000 lineto 410.000000 518.000000 lineto 422.000000 517.000000 lineto 430.000000 513.000000 lineto 437.000000 505.000000 lineto 440.000000 485.000000 lineto 448.000000 471.000000 lineto 451.000000 462.000000 lineto 454.000000 445.000000 lineto 454.000000 431.000000 lineto 452.000000 421.000000 lineto 487.000000 421.000000 lineto 520.000000 416.000000 lineto 554.000000 406.000000 lineto 568.000000 399.000000 lineto 571.000000 399.000000 lineto 584.000000 391.000000 lineto 579.000000 391.000000 lineto 575.000000 394.000000 lineto 572.000000 394.000000 lineto 570.000000 396.000000 lineto 547.000000 404.000000 lineto 509.000000 413.000000 lineto 474.000000 417.000000 lineto 451.000000 417.000000 lineto 449.000000 407.000000 lineto 455.000000 407.000000 lineto 483.000000 401.000000 lineto 521.000000 388.000000 lineto 559.000000 368.000000 lineto 560.000000 366.000000 lineto 571.000000 360.000000 lineto 573.000000 357.000000 lineto 575.000000 357.000000 lineto 578.000000 353.000000 lineto 574.000000 354.000000 lineto 573.000000 356.000000 lineto 569.000000 357.000000 lineto 563.000000 362.000000 lineto 555.000000 365.000000 lineto 554.000000 367.000000 lineto 508.000000 388.000000 lineto 484.000000 396.000000 lineto 447.000000 404.000000 lineto 443.000000 392.000000 lineto 433.000000 382.000000 lineto 431.000000 359.000000 lineto 428.000000 352.000000 lineto 428.000000 348.000000 lineto 425.000000 344.000000 lineto 422.000000 335.000000 lineto 420.000000 334.000000 lineto 416.000000 326.000000 lineto 409.000000 320.000000 lineto 409.000000 318.000000 lineto 407.000000 318.000000 lineto 401.000000 311.000000 lineto 399.000000 311.000000 lineto 398.000000 309.000000 lineto 396.000000 309.000000 lineto 395.000000 307.000000 lineto 381.000000 299.000000 lineto 375.000000 297.000000 lineto 358.000000 297.000000 lineto 339.000000 304.000000 lineto 338.000000 306.000000 lineto 330.000000 310.000000 lineto 323.000000 317.000000 lineto 323.000000 319.000000 lineto 321.000000 320.000000 lineto 316.000000 329.000000 lineto 316.000000 332.000000 lineto 313.000000 335.000000 lineto 271.000000 344.000000 lineto 265.000000 341.000000 lineto 256.000000 332.000000 lineto 258.000000 330.000000 lineto 258.000000 327.000000 lineto 260.000000 325.000000 lineto 260.000000 322.000000 lineto 262.000000 320.000000 lineto 262.000000 317.000000 lineto 264.000000 315.000000 lineto 264.000000 312.000000 lineto 267.000000 308.000000 lineto 267.000000 305.000000 lineto 269.000000 303.000000 lineto 269.000000 300.000000 lineto 271.000000 298.000000 lineto 271.000000 295.000000 lineto 277.000000 282.000000 lineto 314.000000 287.000000 lineto 342.000000 280.000000 lineto 375.000000 277.000000 lineto 378.000000 278.000000 lineto 392.000000 276.000000 lineto 477.000000 276.000000 lineto 567.000000 283.000000 lineto 570.000000 286.000000 lineto 584.000000 292.000000 lineto 585.000000 294.000000 lineto 601.000000 301.000000 lineto 602.000000 303.000000 lineto 614.000000 308.000000 lineto 615.000000 310.000000 lineto 629.000000 316.000000 lineto 630.000000 318.000000 lineto 642.000000 323.000000 lineto 643.000000 325.000000 lineto 653.000000 329.000000 lineto 654.000000 331.000000 lineto 662.000000 334.000000 lineto 663.000000 336.000000 lineto 671.000000 339.000000 lineto 672.000000 341.000000 lineto 691.000000 350.000000 lineto 692.000000 352.000000 lineto 698.000000 354.000000 lineto 699.000000 356.000000 lineto 705.000000 358.000000 lineto 711.000000 363.000000 lineto 717.000000 365.000000 lineto 718.000000 367.000000 lineto 737.000000 377.000000 lineto 738.000000 379.000000 lineto 745.000000 382.000000 lineto 746.000000 384.000000 lineto 748.000000 384.000000 lineto 749.000000 386.000000 lineto 751.000000 386.000000 lineto 752.000000 388.000000 lineto 754.000000 388.000000 lineto 755.000000 390.000000 lineto 757.000000 390.000000 lineto 758.000000 392.000000 lineto 765.000000 396.000000 lineto 764.000000 410.000000 lineto 768.000000 419.000000 lineto 770.000000 420.000000 lineto 774.000000 428.000000 lineto 778.000000 431.000000 lineto 778.000000 447.000000 lineto 775.000000 467.000000 lineto 771.000000 479.000000 lineto 764.000000 490.000000 lineto 764.000000 500.000000 lineto 769.000000 511.000000 lineto 771.000000 511.000000 lineto 773.000000 514.000000 lineto 777.000000 515.000000 lineto 782.000000 519.000000 lineto 793.000000 522.000000 lineto 811.000000 521.000000 lineto 824.000000 515.000000 lineto 828.000000 511.000000 lineto 833.000000 502.000000 lineto 835.000000 484.000000 lineto 852.000000 498.000000 lineto 870.000000 504.000000 lineto 886.000000 503.000000 lineto 887.000000 501.000000 lineto 895.000000 497.000000 lineto 896.000000 494.000000 lineto 933.000000 503.000000 lineto 951.000000 502.000000 lineto 963.000000 496.000000 lineto 967.000000 492.000000 lineto 971.000000 481.000000 lineto 970.000000 466.000000 lineto 967.000000 460.000000 lineto 964.000000 458.000000 lineto 964.000000 456.000000 lineto 981.000000 449.000000 lineto 983.000000 446.000000 lineto 987.000000 444.000000 lineto 987.000000 442.000000 lineto 990.000000 439.000000 lineto 989.000000 423.000000 lineto 985.000000 414.000000 lineto 981.000000 410.000000 lineto 971.000000 406.000000 lineto 949.000000 406.000000 lineto 933.000000 413.000000 lineto 920.000000 423.000000 lineto 917.000000 423.000000 lineto 914.000000 420.000000 lineto 910.000000 419.000000 lineto 909.000000 417.000000 lineto 905.000000 416.000000 lineto 904.000000 413.000000 lineto 906.000000 413.000000 lineto 919.000000 403.000000 lineto 923.000000 402.000000 lineto 933.000000 394.000000 lineto 937.000000 393.000000 lineto 941.000000 389.000000 lineto 945.000000 388.000000 lineto 952.000000 382.000000 lineto 969.000000 373.000000 lineto 973.000000 369.000000 lineto 977.000000 368.000000 lineto 978.000000 366.000000 lineto 982.000000 365.000000 lineto 983.000000 363.000000 lineto 987.000000 362.000000 lineto 988.000000 360.000000 lineto 992.000000 359.000000 lineto 993.000000 357.000000 lineto 997.000000 356.000000 lineto 998.000000 354.000000 lineto 1002.000000 353.000000 lineto 1003.000000 351.000000 lineto 1007.000000 350.000000 lineto 1008.000000 348.000000 lineto 1012.000000 347.000000 lineto 1013.000000 345.000000 lineto 1017.000000 344.000000 lineto 1023.000000 339.000000 lineto 1029.000000 337.000000 lineto 1030.000000 335.000000 lineto 1036.000000 333.000000 lineto 1037.000000 331.000000 lineto 1043.000000 329.000000 lineto 1044.000000 327.000000 lineto 1050.000000 325.000000 lineto 1051.000000 323.000000 lineto 1057.000000 321.000000 lineto 1058.000000 319.000000 lineto 1064.000000 317.000000 lineto 1065.000000 315.000000 lineto 1071.000000 313.000000 lineto 1079.000000 307.000000 lineto 1085.000000 305.000000 lineto 1086.000000 303.000000 lineto 1089.000000 303.000000 lineto 1094.000000 308.000000 lineto 1113.000000 316.000000 lineto 1128.000000 319.000000 lineto 1149.000000 319.000000 lineto 1156.000000 328.000000 lineto 1156.000000 330.000000 lineto 1159.000000 332.000000 lineto 1159.000000 334.000000 lineto 1162.000000 336.000000 lineto 1162.000000 338.000000 lineto 1165.000000 340.000000 lineto 1165.000000 342.000000 lineto 1168.000000 344.000000 lineto 1168.000000 346.000000 lineto 1182.000000 361.000000 lineto 1182.000000 363.000000 lineto 1187.000000 367.000000 lineto 1187.000000 369.000000 lineto 1210.000000 393.000000 lineto 1212.000000 393.000000 lineto 1222.000000 404.000000 lineto 1224.000000 404.000000 lineto 1234.000000 414.000000 lineto 1236.000000 414.000000 lineto 1238.000000 417.000000 lineto 1240.000000 417.000000 lineto 1242.000000 420.000000 lineto 1244.000000 420.000000 lineto 1246.000000 423.000000 lineto 1248.000000 423.000000 lineto 1258.000000 431.000000 lineto 1290.000000 448.000000 lineto 1313.000000 456.000000 lineto 1330.000000 456.000000 lineto 1337.000000 451.000000 lineto 1342.000000 439.000000 lineto 1338.000000 411.000000 lineto 1332.000000 394.000000 lineto 1332.000000 390.000000 lineto 1327.000000 381.000000 lineto 1322.000000 366.000000 lineto 1315.000000 354.000000 lineto 1315.000000 351.000000 lineto 1304.000000 329.000000 lineto 1302.000000 328.000000 lineto 1298.000000 318.000000 lineto 1296.000000 317.000000 lineto 1294.000000 311.000000 lineto 1292.000000 310.000000 lineto 1285.000000 296.000000 lineto 1277.000000 286.000000 lineto 1276.000000 282.000000 lineto 1273.000000 280.000000 lineto 1273.000000 278.000000 lineto 1271.000000 277.000000 lineto 1271.000000 275.000000 lineto 1269.000000 274.000000 lineto 1269.000000 272.000000 lineto 1264.000000 267.000000 lineto 1264.000000 265.000000 lineto 1258.000000 257.000000 lineto 1309.000000 209.000000 lineto 1311.000000 209.000000 lineto 1314.000000 205.000000 lineto 1316.000000 205.000000 lineto 1319.000000 201.000000 lineto 1321.000000 201.000000 lineto 1324.000000 197.000000 lineto 1326.000000 197.000000 lineto 1331.000000 192.000000 lineto 1336.000000 190.000000 lineto 1338.000000 187.000000 lineto 1340.000000 187.000000 lineto 1347.000000 181.000000 lineto 1351.000000 180.000000 lineto 1355.000000 176.000000 lineto 1363.000000 173.000000 lineto 1364.000000 171.000000 lineto 1376.000000 165.000000 lineto 1379.000000 165.000000 lineto 1385.000000 161.000000 lineto 1391.000000 160.000000 lineto 1402.000000 155.000000 lineto 1430.000000 150.000000 lineto 1457.000000 152.000000 lineto 1488.000000 159.000000 lineto 1496.000000 153.000000 lineto 1500.000000 146.000000 lineto 1500.000000 136.000000 lineto 1498.000000 129.000000 lineto 1492.000000 121.000000 lineto 1490.000000 121.000000 lineto 1482.000000 114.000000 lineto 1464.000000 108.000000 lineto 1450.000000 106.000000 lineto 1410.000000 106.000000 lineto 1393.000000 109.000000 lineto 1365.000000 118.000000 lineto 1323.000000 139.000000 lineto 1313.000000 147.000000 lineto 1303.000000 152.000000 lineto 1297.000000 158.000000 lineto 1292.000000 160.000000 lineto 1282.000000 169.000000 lineto 1280.000000 169.000000 lineto 1266.000000 182.000000 lineto 1264.000000 182.000000 lineto 1260.000000 187.000000 lineto 1258.000000 187.000000 lineto 1252.000000 194.000000 lineto 1250.000000 194.000000 lineto 1234.000000 210.000000 lineto 1232.000000 210.000000 lineto 1214.000000 192.000000 lineto 1212.000000 192.000000 lineto 1206.000000 186.000000 lineto 1202.000000 185.000000 lineto 1193.000000 178.000000 lineto 1173.000000 169.000000 lineto 1163.000000 169.000000 lineto 1156.000000 170.000000 lineto 1155.000000 172.000000 lineto 1153.000000 172.000000 lineto 1151.000000 175.000000 lineto 1149.000000 175.000000 lineto 1147.000000 178.000000 lineto 1145.000000 178.000000 lineto 1143.000000 181.000000 lineto 1141.000000 181.000000 lineto 1127.000000 193.000000 lineto 1122.000000 195.000000 lineto 1120.000000 198.000000 lineto 1118.000000 198.000000 lineto 1116.000000 201.000000 lineto 1114.000000 201.000000 lineto 1112.000000 204.000000 lineto 1110.000000 204.000000 lineto 1108.000000 207.000000 lineto 1106.000000 207.000000 lineto 1104.000000 210.000000 lineto 1102.000000 210.000000 lineto 1100.000000 213.000000 lineto 1098.000000 213.000000 lineto 1096.000000 216.000000 lineto 1094.000000 216.000000 lineto 1092.000000 219.000000 lineto 1090.000000 219.000000 lineto 1078.000000 228.000000 lineto 1059.000000 209.000000 lineto 1059.000000 207.000000 lineto 1038.000000 187.000000 lineto 1038.000000 185.000000 lineto 1017.000000 165.000000 lineto 1017.000000 163.000000 lineto 1019.000000 162.000000 lineto 1019.000000 160.000000 lineto 1021.000000 159.000000 lineto 1021.000000 157.000000 lineto 1023.000000 156.000000 lineto 1023.000000 154.000000 lineto 1025.000000 153.000000 lineto 1025.000000 151.000000 lineto 1027.000000 150.000000 lineto 1027.000000 148.000000 lineto 1033.000000 141.000000 lineto 1034.000000 137.000000 lineto 1036.000000 136.000000 lineto 1036.000000 134.000000 lineto 1038.000000 133.000000 lineto 1038.000000 131.000000 lineto 1040.000000 130.000000 lineto 1040.000000 128.000000 lineto 1042.000000 127.000000 lineto 1042.000000 125.000000 lineto 1044.000000 124.000000 lineto 1044.000000 122.000000 lineto 1046.000000 121.000000 lineto 1046.000000 119.000000 lineto 1048.000000 118.000000 lineto 1048.000000 116.000000 lineto 1050.000000 115.000000 lineto 1050.000000 113.000000 lineto 1052.000000 112.000000 lineto 1057.000000 103.000000 lineto 1099.000000 111.000000 lineto 1150.000000 115.000000 lineto 1177.000000 113.000000 lineto 1179.000000 114.000000 lineto 1188.000000 112.000000 lineto 1190.000000 113.000000 lineto 1219.000000 108.000000 lineto 1258.000000 96.000000 lineto 1294.000000 78.000000 lineto 1295.000000 76.000000 lineto 1300.000000 74.000000 lineto 1308.000000 65.000000 lineto 1310.000000 65.000000 lineto 1319.000000 55.000000 lineto 1321.000000 55.000000 lineto 1321.000000 53.000000 lineto 1325.000000 51.000000 lineto 1325.000000 46.000000 lineto 1322.000000 40.000000 lineto 1311.000000 33.000000 lineto 1291.000000 28.000000 lineto 1288.000000 26.000000 lineto 1239.000000 14.000000 lineto 1192.000000 6.000000 lineto 1145.000000 3.000000 lineto 1098.000000 3.000000 lineto 1032.000000 8.000000 lineto 1024.000000 10.000000 lineto 1021.000000 13.000000 lineto 1017.000000 14.000000 lineto 1015.000000 17.000000 lineto 1013.000000 17.000000 lineto 998.000000 35.000000 lineto 989.000000 53.000000 lineto 989.000000 56.000000 lineto 983.000000 68.000000 lineto 982.000000 74.000000 lineto 978.000000 81.000000 lineto 977.000000 87.000000 lineto 971.000000 99.000000 lineto 968.000000 110.000000 lineto 965.000000 113.000000 lineto 960.000000 107.000000 lineto 958.000000 107.000000 lineto 951.000000 99.000000 lineto 949.000000 99.000000 lineto 936.000000 87.000000 lineto 934.000000 87.000000 lineto 928.000000 81.000000 lineto 926.000000 81.000000 lineto 921.000000 76.000000 lineto 919.000000 76.000000 lineto 909.000000 68.000000 lineto 905.000000 67.000000 lineto 901.000000 63.000000 lineto 857.000000 41.000000 lineto 815.000000 27.000000 lineto 779.000000 20.000000 lineto 739.000000 17.000000 lineto 707.000000 18.000000 lineto 662.000000 23.000000 lineto 641.000000 12.000000 lineto 613.000000 4.000000 lineto 588.000000 1.000000 lineto 565.000000 1.000000 lineto 537.000000 4.000000 lineto 506.000000 11.000000 lineto 473.000000 22.000000 lineto 471.000000 24.000000 lineto 453.000000 30.000000 lineto 441.000000 37.000000 lineto 438.000000 37.000000 lineto 420.000000 46.000000 lineto 419.000000 48.000000 lineto 405.000000 54.000000 lineto 404.000000 56.000000 lineto 396.000000 59.000000 lineto 395.000000 61.000000 lineto 385.000000 65.000000 lineto 384.000000 67.000000 lineto 364.000000 77.000000 lineto 363.000000 79.000000 lineto 359.000000 80.000000 lineto 358.000000 82.000000 lineto 339.000000 92.000000 lineto 335.000000 96.000000 lineto 331.000000 97.000000 lineto 327.000000 101.000000 lineto 323.000000 102.000000 lineto 322.000000 104.000000 lineto 320.000000 104.000000 lineto 319.000000 106.000000 lineto 317.000000 106.000000 lineto 316.000000 108.000000 lineto 314.000000 108.000000 lineto 313.000000 110.000000 lineto 311.000000 110.000000 lineto 310.000000 112.000000 lineto 308.000000 112.000000 lineto 307.000000 114.000000 lineto 305.000000 114.000000 lineto 304.000000 116.000000 lineto 290.000000 124.000000 lineto 281.000000 132.000000 lineto 276.000000 134.000000 lineto 274.000000 137.000000 lineto 272.000000 137.000000 lineto 270.000000 140.000000 lineto 268.000000 140.000000 lineto 266.000000 143.000000 lineto 264.000000 143.000000 lineto 262.000000 146.000000 lineto 256.000000 149.000000 lineto 253.000000 153.000000 lineto 251.000000 153.000000 lineto 248.000000 157.000000 lineto 246.000000 157.000000 lineto 242.000000 162.000000 lineto 236.000000 165.000000 lineto 223.000000 153.000000 lineto 216.000000 149.000000 lineto 212.000000 144.000000 lineto 210.000000 144.000000 lineto 207.000000 140.000000 lineto 200.000000 136.000000 lineto 196.000000 131.000000 lineto 189.000000 127.000000 lineto 185.000000 122.000000 lineto 178.000000 118.000000 lineto 174.000000 113.000000 lineto 167.000000 109.000000 lineto 163.000000 104.000000 lineto 156.000000 100.000000 lineto 152.000000 95.000000 lineto 150.000000 95.000000 lineto 136.000000 82.000000 lineto 129.000000 78.000000 lineto 125.000000 73.000000 lineto 118.000000 69.000000 lineto 114.000000 64.000000 lineto 107.000000 60.000000 lineto 103.000000 55.000000 lineto 101.000000 55.000000 lineto 87.000000 42.000000 lineto 80.000000 38.000000 lineto 76.000000 33.000000 lineto 69.000000 29.000000 lineto 61.000000 21.000000 lineto 59.000000 21.000000 lineto 53.000000 16.000000 lineto 41.000000 12.000000 lineto 23.000000 12.000000 lineto 16.000000 14.000000 lineto 6.000000 22.000000 lineto 0.000000 35.000000 lineto 1.000000 53.000000 lineto 10.000000 70.000000 lineto 12.000000 77.000000 lineto 15.000000 79.000000 lineto 15.000000 81.000000 lineto 21.000000 87.000000 lineto 24.000000 93.000000 lineto 28.000000 96.000000 lineto 28.000000 98.000000 lineto 33.000000 102.000000 lineto 33.000000 104.000000 lineto 38.000000 108.000000 lineto 38.000000 110.000000 lineto 44.000000 115.000000 lineto 44.000000 117.000000 lineto 61.000000 134.000000 lineto 61.000000 136.000000 lineto 79.000000 153.000000 lineto 79.000000 155.000000 lineto 91.000000 166.000000 lineto 91.000000 168.000000 lineto 109.000000 187.000000 lineto 109.000000 189.000000 lineto 116.000000 196.000000 lineto 116.000000 198.000000 lineto 119.000000 200.000000 lineto 121.000000 205.000000 lineto 124.000000 207.000000 lineto 128.000000 215.000000 lineto 130.000000 216.000000 lineto 147.000000 250.000000 lineto 140.000000 252.000000 lineto 136.000000 255.000000 lineto 73.000000 267.000000 lineto 47.000000 276.000000 lineto 38.000000 281.000000 lineto 37.000000 283.000000 lineto 35.000000 283.000000 lineto 32.000000 287.000000 lineto 30.000000 287.000000 lineto 17.000000 303.000000 lineto 11.000000 315.000000 lineto 9.000000 323.000000 lineto 8.000000 340.000000 lineto 12.000000 348.000000 lineto 12.000000 351.000000 lineto 17.000000 358.000000 lineto 17.000000 371.000000 lineto 20.000000 384.000000 lineto 25.000000 393.000000 lineto 29.000000 396.000000 lineto 29.000000 398.000000 lineto 38.000000 402.000000 lineto 40.000000 405.000000 lineto 35.000000 406.000000 lineto 26.000000 411.000000 lineto 17.000000 423.000000 lineto 14.000000 436.000000 lineto 15.000000 456.000000 lineto 20.000000 465.000000 lineto 23.000000 467.000000 lineto 23.000000 469.000000 lineto 38.000000 481.000000 lineto 54.000000 485.000000 lineto 72.000000 484.000000 lineto 79.000000 482.000000 lineto 86.000000 489.000000 lineto 101.000000 494.000000 lineto 113.000000 494.000000 lineto 126.000000 486.000000 lineto 129.000000 480.000000 lineto 131.000000 470.000000 lineto 130.000000 455.000000 lineto 149.000000 460.000000 lineto 151.000000 461.000000 lineto 151.000000 481.000000 lineto 153.000000 490.000000 lineto 160.000000 503.000000 lineto 167.000000 510.000000 lineto 174.000000 512.000000 lineto 189.000000 512.000000 lineto 201.000000 507.000000 lineto 210.000000 498.000000 lineto 212.000000 498.000000 lineto 213.000000 508.000000 lineto 217.000000 515.000000 lineto 224.000000 522.000000 lineto 232.000000 525.000000 lineto 246.000000 525.000000 lineto 255.000000 522.000000 lineto 247.000000 530.000000 lineto 245.000000 530.000000 lineto 238.000000 536.000000 lineto 228.000000 541.000000 lineto 220.000000 543.000000 lineto 220.000000 547.000000 lineto 224.000000 555.000000 lineto 228.000000 558.000000 lineto 154.000000 540.000000 moveto 154.000000 540.000000 lineto 165.000000 539.000000 lineto 172.000000 533.000000 lineto 172.000000 531.000000 lineto 167.000000 527.000000 lineto 162.000000 517.000000 lineto 160.000000 516.000000 lineto 149.000000 485.000000 lineto 142.000000 484.000000 lineto 134.000000 489.000000 lineto 134.000000 507.000000 lineto 138.000000 521.000000 lineto 142.000000 529.000000 lineto 151.000000 539.000000 lineto 154.000000 540.000000 lineto 255.000000 521.000000 moveto 255.000000 521.000000 lineto 256.000000 522.000000 lineto 255.000000 521.000000 lineto 256.000000 520.000000 moveto 256.000000 520.000000 lineto 257.000000 521.000000 lineto 256.000000 520.000000 lineto 392.000000 504.000000 moveto 392.000000 504.000000 lineto 394.000000 505.000000 lineto 280.000000 486.000000 lineto 275.000000 484.000000 lineto 257.000000 482.000000 lineto 253.000000 480.000000 lineto 356.000000 483.000000 lineto 364.000000 487.000000 lineto 365.000000 489.000000 lineto 373.000000 492.000000 lineto 374.000000 494.000000 lineto 382.000000 497.000000 lineto 383.000000 499.000000 lineto 391.000000 502.000000 lineto 392.000000 504.000000 lineto 239.000000 495.000000 moveto 239.000000 495.000000 lineto 246.000000 495.000000 lineto 250.000000 493.000000 lineto 252.000000 487.000000 lineto 271.000000 491.000000 lineto 265.000000 503.000000 lineto 257.000000 511.000000 lineto 246.000000 516.000000 lineto 237.000000 517.000000 lineto 229.000000 515.000000 lineto 223.000000 510.000000 lineto 223.000000 508.000000 lineto 218.000000 502.000000 lineto 215.000000 490.000000 lineto 218.000000 487.000000 lineto 221.000000 480.000000 lineto 226.000000 479.000000 lineto 235.000000 482.000000 lineto 234.000000 491.000000 lineto 239.000000 495.000000 lineto 776.000000 491.000000 moveto 776.000000 491.000000 lineto 780.000000 488.000000 lineto 786.000000 474.000000 lineto 789.000000 453.000000 lineto 789.000000 438.000000 lineto 792.000000 439.000000 lineto 792.000000 437.000000 lineto 788.000000 432.000000 lineto 786.000000 426.000000 lineto 784.000000 425.000000 lineto 775.000000 407.000000 lineto 773.000000 401.000000 lineto 774.000000 397.000000 lineto 776.000000 396.000000 lineto 775.000000 392.000000 lineto 772.000000 389.000000 lineto 770.000000 389.000000 lineto 767.000000 385.000000 lineto 765.000000 385.000000 lineto 763.000000 382.000000 lineto 761.000000 382.000000 lineto 759.000000 379.000000 lineto 757.000000 379.000000 lineto 755.000000 376.000000 lineto 753.000000 376.000000 lineto 751.000000 373.000000 lineto 749.000000 373.000000 lineto 748.000000 371.000000 lineto 734.000000 363.000000 lineto 732.000000 360.000000 lineto 728.000000 359.000000 lineto 721.000000 353.000000 lineto 717.000000 352.000000 lineto 713.000000 348.000000 lineto 709.000000 347.000000 lineto 705.000000 343.000000 lineto 694.000000 338.000000 lineto 693.000000 336.000000 lineto 689.000000 335.000000 lineto 688.000000 333.000000 lineto 684.000000 332.000000 lineto 678.000000 327.000000 lineto 654.000000 316.000000 lineto 653.000000 314.000000 lineto 625.000000 301.000000 lineto 624.000000 299.000000 lineto 596.000000 286.000000 lineto 595.000000 284.000000 lineto 575.000000 274.000000 lineto 361.000000 266.000000 lineto 314.000000 277.000000 lineto 300.000000 278.000000 lineto 279.000000 274.000000 lineto 277.000000 264.000000 lineto 275.000000 270.000000 lineto 273.000000 271.000000 lineto 264.000000 289.000000 lineto 262.000000 290.000000 lineto 251.000000 312.000000 lineto 247.000000 324.000000 lineto 244.000000 323.000000 lineto 232.000000 310.000000 lineto 230.000000 310.000000 lineto 222.000000 302.000000 lineto 222.000000 294.000000 lineto 226.000000 292.000000 lineto 238.000000 279.000000 lineto 240.000000 279.000000 lineto 242.000000 275.000000 lineto 245.000000 273.000000 lineto 245.000000 271.000000 lineto 259.000000 259.000000 lineto 229.000000 262.000000 lineto 218.000000 261.000000 lineto 209.000000 258.000000 lineto 183.000000 206.000000 lineto 181.000000 205.000000 lineto 179.000000 199.000000 lineto 177.000000 198.000000 lineto 169.000000 182.000000 lineto 167.000000 181.000000 lineto 165.000000 175.000000 lineto 163.000000 174.000000 lineto 158.000000 164.000000 lineto 152.000000 157.000000 lineto 151.000000 153.000000 lineto 144.000000 145.000000 lineto 136.000000 131.000000 lineto 133.000000 129.000000 lineto 133.000000 127.000000 lineto 130.000000 125.000000 lineto 130.000000 123.000000 lineto 121.000000 113.000000 lineto 121.000000 111.000000 lineto 118.000000 109.000000 lineto 118.000000 107.000000 lineto 113.000000 103.000000 lineto 113.000000 101.000000 lineto 108.000000 97.000000 lineto 108.000000 95.000000 lineto 92.000000 79.000000 lineto 92.000000 77.000000 lineto 88.000000 73.000000 lineto 86.000000 74.000000 lineto 89.000000 76.000000 lineto 89.000000 78.000000 lineto 101.000000 92.000000 lineto 103.000000 97.000000 lineto 109.000000 103.000000 lineto 113.000000 111.000000 lineto 116.000000 113.000000 lineto 118.000000 118.000000 lineto 121.000000 120.000000 lineto 129.000000 134.000000 lineto 131.000000 135.000000 lineto 131.000000 137.000000 lineto 133.000000 138.000000 lineto 133.000000 140.000000 lineto 143.000000 153.000000 lineto 144.000000 157.000000 lineto 148.000000 161.000000 lineto 149.000000 165.000000 lineto 153.000000 169.000000 lineto 154.000000 173.000000 lineto 156.000000 174.000000 lineto 157.000000 178.000000 lineto 162.000000 184.000000 lineto 170.000000 200.000000 lineto 172.000000 201.000000 lineto 176.000000 211.000000 lineto 178.000000 212.000000 lineto 182.000000 222.000000 lineto 184.000000 223.000000 lineto 206.000000 267.000000 lineto 206.000000 270.000000 lineto 212.000000 280.000000 lineto 217.000000 295.000000 lineto 206.000000 285.000000 lineto 206.000000 283.000000 lineto 198.000000 275.000000 lineto 200.000000 283.000000 lineto 204.000000 286.000000 lineto 204.000000 288.000000 lineto 215.000000 300.000000 lineto 215.000000 302.000000 lineto 208.000000 306.000000 lineto 207.000000 308.000000 lineto 205.000000 308.000000 lineto 200.000000 313.000000 lineto 198.000000 313.000000 lineto 196.000000 316.000000 lineto 191.000000 318.000000 lineto 186.000000 323.000000 lineto 177.000000 318.000000 lineto 177.000000 320.000000 lineto 182.000000 325.000000 lineto 176.000000 330.000000 lineto 169.000000 333.000000 lineto 163.000000 339.000000 lineto 161.000000 339.000000 lineto 154.000000 347.000000 lineto 152.000000 347.000000 lineto 149.000000 350.000000 lineto 149.000000 352.000000 lineto 144.000000 356.000000 lineto 144.000000 358.000000 lineto 138.000000 365.000000 lineto 137.000000 369.000000 lineto 127.000000 382.000000 lineto 124.000000 389.000000 lineto 108.000000 404.000000 lineto 92.000000 410.000000 lineto 78.000000 408.000000 lineto 71.000000 402.000000 lineto 68.000000 396.000000 lineto 66.000000 388.000000 lineto 66.000000 377.000000 lineto 68.000000 369.000000 lineto 74.000000 357.000000 lineto 77.000000 355.000000 lineto 80.000000 349.000000 lineto 83.000000 346.000000 lineto 85.000000 346.000000 lineto 89.000000 341.000000 lineto 91.000000 341.000000 lineto 95.000000 336.000000 lineto 97.000000 336.000000 lineto 101.000000 331.000000 lineto 103.000000 331.000000 lineto 107.000000 326.000000 lineto 109.000000 326.000000 lineto 111.000000 323.000000 lineto 90.000000 335.000000 lineto 75.000000 350.000000 lineto 75.000000 352.000000 lineto 68.000000 360.000000 lineto 61.000000 379.000000 lineto 62.000000 400.000000 lineto 52.000000 399.000000 lineto 51.000000 397.000000 lineto 45.000000 395.000000 lineto 36.000000 387.000000 lineto 36.000000 385.000000 lineto 32.000000 381.000000 lineto 27.000000 365.000000 lineto 27.000000 353.000000 lineto 33.000000 345.000000 lineto 33.000000 343.000000 lineto 35.000000 342.000000 lineto 35.000000 340.000000 lineto 38.000000 338.000000 lineto 38.000000 336.000000 lineto 51.000000 323.000000 lineto 53.000000 323.000000 lineto 55.000000 320.000000 lineto 62.000000 317.000000 lineto 63.000000 315.000000 lineto 74.000000 310.000000 lineto 83.000000 308.000000 lineto 89.000000 305.000000 lineto 90.000000 303.000000 lineto 73.000000 307.000000 lineto 53.000000 317.000000 lineto 51.000000 320.000000 lineto 45.000000 323.000000 lineto 32.000000 336.000000 lineto 27.000000 345.000000 lineto 25.000000 345.000000 lineto 20.000000 337.000000 lineto 20.000000 325.000000 lineto 29.000000 307.000000 lineto 45.000000 292.000000 lineto 68.000000 281.000000 lineto 74.000000 281.000000 lineto 167.000000 262.000000 lineto 157.000000 257.000000 lineto 156.000000 248.000000 lineto 151.000000 238.000000 lineto 151.000000 235.000000 lineto 143.000000 219.000000 lineto 141.000000 218.000000 lineto 140.000000 214.000000 lineto 138.000000 213.000000 lineto 137.000000 209.000000 lineto 135.000000 208.000000 lineto 131.000000 200.000000 lineto 128.000000 198.000000 lineto 126.000000 193.000000 lineto 116.000000 182.000000 lineto 116.000000 180.000000 lineto 111.000000 176.000000 lineto 111.000000 174.000000 lineto 107.000000 171.000000 lineto 107.000000 169.000000 lineto 98.000000 161.000000 lineto 98.000000 159.000000 lineto 90.000000 152.000000 lineto 90.000000 150.000000 lineto 83.000000 144.000000 lineto 83.000000 142.000000 lineto 76.000000 136.000000 lineto 76.000000 134.000000 lineto 60.000000 117.000000 lineto 60.000000 115.000000 lineto 48.000000 102.000000 lineto 48.000000 100.000000 lineto 45.000000 98.000000 lineto 45.000000 96.000000 lineto 42.000000 94.000000 lineto 42.000000 92.000000 lineto 39.000000 90.000000 lineto 39.000000 88.000000 lineto 36.000000 86.000000 lineto 34.000000 81.000000 lineto 29.000000 76.000000 lineto 14.000000 46.000000 lineto 13.000000 39.000000 lineto 15.000000 33.000000 lineto 18.000000 30.000000 lineto 27.000000 27.000000 lineto 37.000000 27.000000 lineto 48.000000 31.000000 lineto 60.000000 42.000000 lineto 62.000000 42.000000 lineto 66.000000 47.000000 lineto 68.000000 47.000000 lineto 72.000000 52.000000 lineto 74.000000 52.000000 lineto 78.000000 57.000000 lineto 80.000000 57.000000 lineto 84.000000 62.000000 lineto 86.000000 62.000000 lineto 90.000000 67.000000 lineto 92.000000 67.000000 lineto 95.000000 71.000000 lineto 97.000000 71.000000 lineto 100.000000 75.000000 lineto 102.000000 75.000000 lineto 105.000000 79.000000 lineto 107.000000 79.000000 lineto 110.000000 83.000000 lineto 112.000000 83.000000 lineto 115.000000 87.000000 lineto 117.000000 87.000000 lineto 135.000000 103.000000 lineto 141.000000 106.000000 lineto 144.000000 110.000000 lineto 150.000000 113.000000 lineto 153.000000 117.000000 lineto 159.000000 120.000000 lineto 167.000000 128.000000 lineto 173.000000 131.000000 lineto 176.000000 135.000000 lineto 182.000000 138.000000 lineto 185.000000 142.000000 lineto 187.000000 142.000000 lineto 189.000000 145.000000 lineto 191.000000 145.000000 lineto 193.000000 148.000000 lineto 195.000000 148.000000 lineto 197.000000 151.000000 lineto 199.000000 151.000000 lineto 201.000000 154.000000 lineto 207.000000 157.000000 lineto 210.000000 161.000000 lineto 212.000000 161.000000 lineto 214.000000 164.000000 lineto 216.000000 164.000000 lineto 218.000000 167.000000 lineto 220.000000 167.000000 lineto 222.000000 170.000000 lineto 224.000000 170.000000 lineto 226.000000 173.000000 lineto 232.000000 176.000000 lineto 235.000000 180.000000 lineto 239.000000 181.000000 lineto 240.000000 183.000000 lineto 244.000000 184.000000 lineto 249.000000 188.000000 lineto 256.000000 190.000000 lineto 249.000000 182.000000 lineto 249.000000 180.000000 lineto 245.000000 177.000000 lineto 245.000000 174.000000 lineto 248.000000 173.000000 lineto 255.000000 166.000000 lineto 257.000000 166.000000 lineto 264.000000 159.000000 lineto 266.000000 159.000000 lineto 268.000000 156.000000 lineto 270.000000 156.000000 lineto 272.000000 153.000000 lineto 274.000000 153.000000 lineto 276.000000 150.000000 lineto 278.000000 150.000000 lineto 281.000000 146.000000 lineto 286.000000 144.000000 lineto 299.000000 133.000000 lineto 301.000000 133.000000 lineto 309.000000 126.000000 lineto 311.000000 126.000000 lineto 312.000000 124.000000 lineto 314.000000 124.000000 lineto 315.000000 122.000000 lineto 317.000000 122.000000 lineto 318.000000 120.000000 lineto 320.000000 120.000000 lineto 321.000000 118.000000 lineto 323.000000 118.000000 lineto 324.000000 116.000000 lineto 326.000000 116.000000 lineto 327.000000 114.000000 lineto 329.000000 114.000000 lineto 342.000000 104.000000 lineto 346.000000 103.000000 lineto 353.000000 97.000000 lineto 357.000000 96.000000 lineto 358.000000 94.000000 lineto 362.000000 93.000000 lineto 368.000000 88.000000 lineto 374.000000 86.000000 lineto 380.000000 81.000000 lineto 386.000000 79.000000 lineto 387.000000 77.000000 lineto 399.000000 72.000000 lineto 400.000000 70.000000 lineto 439.000000 51.000000 lineto 442.000000 51.000000 lineto 453.000000 45.000000 lineto 456.000000 45.000000 lineto 468.000000 39.000000 lineto 474.000000 38.000000 lineto 476.000000 36.000000 lineto 497.000000 29.000000 lineto 530.000000 21.000000 lineto 533.000000 19.000000 lineto 559.000000 14.000000 lineto 598.000000 13.000000 lineto 617.000000 16.000000 lineto 634.000000 21.000000 lineto 638.000000 24.000000 lineto 641.000000 24.000000 lineto 651.000000 29.000000 lineto 652.000000 31.000000 lineto 656.000000 32.000000 lineto 657.000000 34.000000 lineto 665.000000 38.000000 lineto 674.000000 47.000000 lineto 676.000000 47.000000 lineto 690.000000 63.000000 lineto 691.000000 67.000000 lineto 693.000000 68.000000 lineto 695.000000 74.000000 lineto 697.000000 75.000000 lineto 705.000000 91.000000 lineto 705.000000 94.000000 lineto 715.000000 114.000000 lineto 715.000000 117.000000 lineto 721.000000 129.000000 lineto 722.000000 135.000000 lineto 724.000000 137.000000 lineto 725.000000 143.000000 lineto 727.000000 145.000000 lineto 729.000000 154.000000 lineto 731.000000 156.000000 lineto 737.000000 174.000000 lineto 740.000000 178.000000 lineto 740.000000 181.000000 lineto 748.000000 195.000000 lineto 748.000000 198.000000 lineto 757.000000 216.000000 lineto 759.000000 217.000000 lineto 785.000000 269.000000 lineto 787.000000 270.000000 lineto 792.000000 282.000000 lineto 794.000000 283.000000 lineto 796.000000 289.000000 lineto 798.000000 290.000000 lineto 800.000000 296.000000 lineto 802.000000 297.000000 lineto 804.000000 303.000000 lineto 806.000000 304.000000 lineto 810.000000 313.000000 lineto 814.000000 317.000000 lineto 815.000000 321.000000 lineto 817.000000 322.000000 lineto 817.000000 324.000000 lineto 819.000000 325.000000 lineto 827.000000 339.000000 lineto 830.000000 341.000000 lineto 832.000000 346.000000 lineto 844.000000 360.000000 lineto 844.000000 362.000000 lineto 849.000000 366.000000 lineto 849.000000 368.000000 lineto 864.000000 384.000000 lineto 866.000000 384.000000 lineto 868.000000 387.000000 lineto 876.000000 391.000000 lineto 884.000000 391.000000 lineto 888.000000 389.000000 lineto 896.000000 381.000000 lineto 914.000000 347.000000 lineto 928.000000 340.000000 lineto 929.000000 338.000000 lineto 935.000000 336.000000 lineto 936.000000 334.000000 lineto 940.000000 333.000000 lineto 941.000000 331.000000 lineto 945.000000 330.000000 lineto 946.000000 328.000000 lineto 950.000000 327.000000 lineto 951.000000 325.000000 lineto 955.000000 324.000000 lineto 961.000000 319.000000 lineto 965.000000 318.000000 lineto 972.000000 312.000000 lineto 976.000000 311.000000 lineto 980.000000 307.000000 lineto 984.000000 306.000000 lineto 997.000000 296.000000 lineto 1001.000000 295.000000 lineto 1002.000000 293.000000 lineto 1004.000000 293.000000 lineto 1005.000000 291.000000 lineto 1007.000000 291.000000 lineto 1008.000000 289.000000 lineto 1010.000000 289.000000 lineto 1011.000000 287.000000 lineto 1025.000000 279.000000 lineto 1027.000000 276.000000 lineto 1029.000000 276.000000 lineto 1030.000000 274.000000 lineto 1044.000000 266.000000 lineto 1046.000000 263.000000 lineto 1054.000000 259.000000 lineto 1056.000000 256.000000 lineto 1058.000000 256.000000 lineto 1063.000000 251.000000 lineto 1071.000000 247.000000 lineto 1073.000000 244.000000 lineto 1082.000000 239.000000 lineto 1088.000000 233.000000 lineto 1093.000000 231.000000 lineto 1095.000000 228.000000 lineto 1097.000000 228.000000 lineto 1099.000000 225.000000 lineto 1101.000000 225.000000 lineto 1103.000000 222.000000 lineto 1105.000000 222.000000 lineto 1107.000000 219.000000 lineto 1109.000000 219.000000 lineto 1111.000000 216.000000 lineto 1113.000000 216.000000 lineto 1115.000000 213.000000 lineto 1117.000000 213.000000 lineto 1119.000000 210.000000 lineto 1121.000000 210.000000 lineto 1123.000000 207.000000 lineto 1129.000000 204.000000 lineto 1133.000000 199.000000 lineto 1135.000000 199.000000 lineto 1147.000000 188.000000 lineto 1149.000000 188.000000 lineto 1150.000000 186.000000 lineto 1154.000000 185.000000 lineto 1159.000000 181.000000 lineto 1167.000000 179.000000 lineto 1186.000000 188.000000 lineto 1187.000000 190.000000 lineto 1191.000000 191.000000 lineto 1192.000000 193.000000 lineto 1206.000000 201.000000 lineto 1225.000000 218.000000 lineto 1224.000000 221.000000 lineto 1217.000000 225.000000 lineto 1208.000000 234.000000 lineto 1206.000000 234.000000 lineto 1196.000000 242.000000 lineto 1192.000000 243.000000 lineto 1179.000000 253.000000 lineto 1160.000000 263.000000 lineto 1159.000000 265.000000 lineto 1151.000000 268.000000 lineto 1150.000000 270.000000 lineto 1136.000000 277.000000 lineto 1131.000000 278.000000 lineto 1134.000000 274.000000 lineto 1140.000000 271.000000 lineto 1144.000000 267.000000 lineto 1143.000000 266.000000 lineto 1133.000000 272.000000 lineto 1130.000000 272.000000 lineto 1120.000000 278.000000 lineto 1117.000000 278.000000 lineto 1075.000000 299.000000 lineto 1074.000000 301.000000 lineto 1040.000000 318.000000 lineto 1039.000000 320.000000 lineto 1031.000000 323.000000 lineto 1030.000000 325.000000 lineto 1022.000000 328.000000 lineto 1021.000000 330.000000 lineto 1001.000000 340.000000 lineto 1000.000000 342.000000 lineto 996.000000 343.000000 lineto 995.000000 345.000000 lineto 991.000000 346.000000 lineto 990.000000 348.000000 lineto 971.000000 358.000000 lineto 967.000000 362.000000 lineto 963.000000 363.000000 lineto 956.000000 369.000000 lineto 952.000000 370.000000 lineto 951.000000 372.000000 lineto 937.000000 380.000000 lineto 935.000000 383.000000 lineto 924.000000 389.000000 lineto 922.000000 392.000000 lineto 917.000000 394.000000 lineto 915.000000 397.000000 lineto 913.000000 397.000000 lineto 899.000000 409.000000 lineto 882.000000 416.000000 lineto 869.000000 426.000000 lineto 865.000000 427.000000 lineto 841.000000 426.000000 lineto 835.000000 423.000000 lineto 830.000000 418.000000 lineto 830.000000 416.000000 lineto 828.000000 415.000000 lineto 828.000000 413.000000 lineto 826.000000 412.000000 lineto 826.000000 410.000000 lineto 824.000000 409.000000 lineto 824.000000 407.000000 lineto 822.000000 406.000000 lineto 822.000000 404.000000 lineto 820.000000 403.000000 lineto 820.000000 401.000000 lineto 818.000000 400.000000 lineto 818.000000 398.000000 lineto 816.000000 397.000000 lineto 816.000000 395.000000 lineto 814.000000 394.000000 lineto 814.000000 392.000000 lineto 812.000000 391.000000 lineto 812.000000 389.000000 lineto 810.000000 388.000000 lineto 802.000000 374.000000 lineto 799.000000 372.000000 lineto 793.000000 361.000000 lineto 790.000000 359.000000 lineto 790.000000 357.000000 lineto 785.000000 352.000000 lineto 781.000000 344.000000 lineto 778.000000 342.000000 lineto 776.000000 337.000000 lineto 771.000000 332.000000 lineto 771.000000 330.000000 lineto 762.000000 320.000000 lineto 760.000000 315.000000 lineto 748.000000 301.000000 lineto 748.000000 299.000000 lineto 745.000000 297.000000 lineto 742.000000 291.000000 lineto 738.000000 288.000000 lineto 735.000000 282.000000 lineto 731.000000 279.000000 lineto 728.000000 273.000000 lineto 724.000000 270.000000 lineto 721.000000 264.000000 lineto 712.000000 255.000000 lineto 712.000000 253.000000 lineto 708.000000 250.000000 lineto 708.000000 248.000000 lineto 704.000000 245.000000 lineto 704.000000 243.000000 lineto 700.000000 240.000000 lineto 700.000000 238.000000 lineto 696.000000 235.000000 lineto 696.000000 233.000000 lineto 692.000000 230.000000 lineto 692.000000 228.000000 lineto 688.000000 225.000000 lineto 688.000000 223.000000 lineto 672.000000 205.000000 lineto 672.000000 203.000000 lineto 668.000000 200.000000 lineto 668.000000 198.000000 lineto 664.000000 195.000000 lineto 664.000000 193.000000 lineto 660.000000 190.000000 lineto 660.000000 188.000000 lineto 656.000000 185.000000 lineto 656.000000 183.000000 lineto 640.000000 165.000000 lineto 640.000000 163.000000 lineto 621.000000 143.000000 lineto 621.000000 141.000000 lineto 590.000000 110.000000 lineto 588.000000 110.000000 lineto 581.000000 102.000000 lineto 579.000000 102.000000 lineto 576.000000 98.000000 lineto 574.000000 98.000000 lineto 565.000000 90.000000 lineto 564.000000 91.000000 lineto 568.000000 96.000000 lineto 569.000000 100.000000 lineto 575.000000 106.000000 lineto 528.000000 105.000000 lineto 481.000000 111.000000 lineto 457.000000 117.000000 lineto 433.000000 125.000000 lineto 417.000000 133.000000 lineto 414.000000 133.000000 lineto 394.000000 143.000000 lineto 393.000000 145.000000 lineto 387.000000 147.000000 lineto 386.000000 149.000000 lineto 380.000000 151.000000 lineto 379.000000 153.000000 lineto 377.000000 153.000000 lineto 376.000000 155.000000 lineto 374.000000 155.000000 lineto 373.000000 157.000000 lineto 369.000000 158.000000 lineto 364.000000 163.000000 lineto 356.000000 167.000000 lineto 354.000000 170.000000 lineto 352.000000 170.000000 lineto 350.000000 173.000000 lineto 344.000000 176.000000 lineto 341.000000 180.000000 lineto 339.000000 180.000000 lineto 336.000000 184.000000 lineto 334.000000 184.000000 lineto 331.000000 188.000000 lineto 329.000000 188.000000 lineto 326.000000 192.000000 lineto 324.000000 192.000000 lineto 315.000000 201.000000 lineto 313.000000 201.000000 lineto 310.000000 205.000000 lineto 308.000000 205.000000 lineto 305.000000 209.000000 lineto 303.000000 209.000000 lineto 292.000000 220.000000 lineto 292.000000 222.000000 lineto 286.000000 229.000000 lineto 280.000000 248.000000 lineto 281.000000 253.000000 lineto 285.000000 256.000000 lineto 302.000000 255.000000 lineto 326.000000 248.000000 lineto 328.000000 246.000000 lineto 331.000000 246.000000 lineto 346.000000 239.000000 lineto 347.000000 237.000000 lineto 355.000000 234.000000 lineto 356.000000 232.000000 lineto 364.000000 229.000000 lineto 365.000000 227.000000 lineto 373.000000 224.000000 lineto 378.000000 220.000000 lineto 566.000000 241.000000 lineto 576.000000 241.000000 lineto 589.000000 244.000000 lineto 616.000000 257.000000 lineto 617.000000 259.000000 lineto 619.000000 259.000000 lineto 632.000000 269.000000 lineto 636.000000 270.000000 lineto 637.000000 272.000000 lineto 644.000000 275.000000 lineto 648.000000 279.000000 lineto 652.000000 280.000000 lineto 656.000000 284.000000 lineto 660.000000 285.000000 lineto 664.000000 289.000000 lineto 668.000000 290.000000 lineto 675.000000 296.000000 lineto 679.000000 297.000000 lineto 683.000000 301.000000 lineto 687.000000 302.000000 lineto 691.000000 306.000000 lineto 695.000000 307.000000 lineto 699.000000 311.000000 lineto 711.000000 317.000000 lineto 715.000000 321.000000 lineto 719.000000 322.000000 lineto 720.000000 324.000000 lineto 730.000000 329.000000 lineto 734.000000 333.000000 lineto 738.000000 334.000000 lineto 742.000000 338.000000 lineto 746.000000 339.000000 lineto 750.000000 343.000000 lineto 754.000000 344.000000 lineto 758.000000 348.000000 lineto 773.000000 355.000000 lineto 828.000000 432.000000 lineto 840.000000 438.000000 lineto 852.000000 438.000000 lineto 862.000000 435.000000 lineto 859.000000 446.000000 lineto 857.000000 448.000000 lineto 856.000000 458.000000 lineto 858.000000 457.000000 lineto 860.000000 451.000000 lineto 866.000000 443.000000 lineto 869.000000 435.000000 lineto 875.000000 429.000000 lineto 886.000000 424.000000 lineto 900.000000 423.000000 lineto 906.000000 426.000000 lineto 916.000000 438.000000 lineto 916.000000 446.000000 lineto 914.000000 450.000000 lineto 912.000000 451.000000 lineto 910.000000 456.000000 lineto 907.000000 458.000000 lineto 905.000000 463.000000 lineto 902.000000 465.000000 lineto 902.000000 467.000000 lineto 897.000000 472.000000 lineto 897.000000 474.000000 lineto 895.000000 475.000000 lineto 895.000000 477.000000 lineto 886.000000 489.000000 lineto 869.000000 490.000000 lineto 850.000000 482.000000 lineto 842.000000 475.000000 lineto 840.000000 475.000000 lineto 838.000000 472.000000 lineto 836.000000 472.000000 lineto 832.000000 467.000000 lineto 830.000000 467.000000 lineto 828.000000 455.000000 lineto 824.000000 451.000000 lineto 824.000000 476.000000 lineto 822.000000 491.000000 lineto 817.000000 504.000000 lineto 812.000000 509.000000 lineto 808.000000 511.000000 lineto 798.000000 511.000000 lineto 789.000000 508.000000 lineto 777.000000 498.000000 lineto 776.000000 491.000000 lineto 901.000000 481.000000 moveto 901.000000 481.000000 lineto 904.000000 478.000000 lineto 906.000000 472.000000 lineto 908.000000 471.000000 lineto 921.000000 446.000000 lineto 936.000000 448.000000 lineto 950.000000 454.000000 lineto 959.000000 462.000000 lineto 961.000000 467.000000 lineto 961.000000 477.000000 lineto 959.000000 483.000000 lineto 953.000000 488.000000 lineto 945.000000 491.000000 lineto 932.000000 491.000000 lineto 916.000000 487.000000 lineto 913.000000 485.000000 lineto 901.000000 483.000000 lineto 901.000000 481.000000 lineto 350.000000 478.000000 moveto 350.000000 478.000000 lineto 351.000000 479.000000 lineto 334.000000 479.000000 lineto 224.000000 473.000000 lineto 225.000000 448.000000 lineto 223.000000 441.000000 lineto 217.000000 434.000000 lineto 217.000000 432.000000 lineto 215.000000 432.000000 lineto 210.000000 427.000000 lineto 201.000000 424.000000 lineto 185.000000 424.000000 lineto 172.000000 429.000000 lineto 163.000000 438.000000 lineto 156.000000 453.000000 lineto 149.000000 453.000000 lineto 129.000000 447.000000 lineto 112.000000 439.000000 lineto 109.000000 439.000000 lineto 103.000000 435.000000 lineto 100.000000 435.000000 lineto 92.000000 430.000000 lineto 89.000000 430.000000 lineto 89.000000 440.000000 lineto 85.000000 455.000000 lineto 80.000000 464.000000 lineto 78.000000 465.000000 lineto 78.000000 467.000000 lineto 76.000000 468.000000 lineto 76.000000 470.000000 lineto 68.000000 475.000000 lineto 52.000000 473.000000 lineto 40.000000 467.000000 lineto 30.000000 456.000000 lineto 30.000000 453.000000 lineto 27.000000 449.000000 lineto 26.000000 438.000000 lineto 31.000000 425.000000 lineto 38.000000 419.000000 lineto 38.000000 417.000000 lineto 45.000000 411.000000 lineto 47.000000 407.000000 lineto 65.000000 407.000000 lineto 75.000000 416.000000 lineto 89.000000 421.000000 lineto 98.000000 421.000000 lineto 111.000000 415.000000 lineto 128.000000 401.000000 lineto 128.000000 399.000000 lineto 131.000000 397.000000 lineto 134.000000 390.000000 lineto 136.000000 389.000000 lineto 137.000000 384.000000 lineto 140.000000 381.000000 lineto 141.000000 377.000000 lineto 143.000000 376.000000 lineto 147.000000 368.000000 lineto 150.000000 366.000000 lineto 150.000000 364.000000 lineto 158.000000 357.000000 lineto 158.000000 355.000000 lineto 162.000000 353.000000 lineto 169.000000 345.000000 lineto 171.000000 345.000000 lineto 173.000000 342.000000 lineto 175.000000 342.000000 lineto 177.000000 339.000000 lineto 179.000000 339.000000 lineto 181.000000 336.000000 lineto 183.000000 336.000000 lineto 189.000000 331.000000 lineto 199.000000 341.000000 lineto 201.000000 341.000000 lineto 204.000000 345.000000 lineto 211.000000 349.000000 lineto 214.000000 353.000000 lineto 216.000000 353.000000 lineto 218.000000 356.000000 lineto 220.000000 356.000000 lineto 221.000000 358.000000 lineto 223.000000 358.000000 lineto 236.000000 368.000000 lineto 242.000000 370.000000 lineto 243.000000 372.000000 lineto 268.000000 385.000000 lineto 273.000000 386.000000 lineto 273.000000 388.000000 lineto 263.000000 390.000000 lineto 250.000000 398.000000 lineto 245.000000 398.000000 lineto 232.000000 392.000000 lineto 218.000000 392.000000 lineto 230.000000 397.000000 lineto 238.000000 404.000000 lineto 240.000000 404.000000 lineto 244.000000 409.000000 lineto 246.000000 409.000000 lineto 253.000000 416.000000 lineto 259.000000 428.000000 lineto 261.000000 428.000000 lineto 260.000000 418.000000 lineto 257.000000 410.000000 lineto 253.000000 406.000000 lineto 253.000000 403.000000 lineto 261.000000 399.000000 lineto 262.000000 397.000000 lineto 275.000000 392.000000 lineto 285.000000 391.000000 lineto 293.000000 395.000000 lineto 312.000000 400.000000 lineto 314.000000 424.000000 lineto 320.000000 443.000000 lineto 328.000000 457.000000 lineto 331.000000 459.000000 lineto 331.000000 461.000000 lineto 344.000000 474.000000 lineto 346.000000 474.000000 lineto 350.000000 478.000000 lineto 360.000000 478.000000 moveto 360.000000 478.000000 lineto 367.000000 476.000000 lineto 375.000000 472.000000 lineto 376.000000 470.000000 lineto 382.000000 468.000000 lineto 383.000000 466.000000 lineto 387.000000 465.000000 lineto 395.000000 458.000000 lineto 400.000000 456.000000 lineto 402.000000 453.000000 lineto 404.000000 453.000000 lineto 406.000000 450.000000 lineto 408.000000 450.000000 lineto 412.000000 445.000000 lineto 415.000000 445.000000 lineto 427.000000 466.000000 lineto 430.000000 476.000000 lineto 430.000000 491.000000 lineto 428.000000 495.000000 lineto 428.000000 500.000000 lineto 423.000000 507.000000 lineto 415.000000 508.000000 lineto 405.000000 503.000000 lineto 402.000000 503.000000 lineto 398.000000 500.000000 lineto 395.000000 500.000000 lineto 391.000000 497.000000 lineto 388.000000 497.000000 lineto 382.000000 493.000000 lineto 379.000000 493.000000 lineto 375.000000 490.000000 lineto 370.000000 489.000000 lineto 364.000000 482.000000 lineto 360.000000 480.000000 lineto 360.000000 478.000000 lineto 185.000000 471.000000 moveto 185.000000 471.000000 lineto 194.000000 471.000000 lineto 198.000000 467.000000 lineto 198.000000 459.000000 lineto 194.000000 455.000000 lineto 184.000000 455.000000 lineto 180.000000 459.000000 lineto 180.000000 467.000000 lineto 182.000000 470.000000 lineto 185.000000 471.000000 lineto 84.000000 468.000000 moveto 84.000000 468.000000 lineto 92.000000 453.000000 lineto 94.000000 447.000000 lineto 94.000000 440.000000 lineto 100.000000 441.000000 lineto 102.000000 443.000000 lineto 108.000000 444.000000 lineto 110.000000 446.000000 lineto 113.000000 446.000000 lineto 124.000000 451.000000 lineto 121.000000 470.000000 lineto 113.000000 479.000000 lineto 109.000000 481.000000 lineto 97.000000 481.000000 lineto 90.000000 478.000000 lineto 84.000000 471.000000 lineto 84.000000 468.000000 lineto 159.000000 461.000000 moveto 159.000000 461.000000 lineto 162.000000 452.000000 lineto 165.000000 449.000000 lineto 168.000000 442.000000 lineto 175.000000 435.000000 lineto 187.000000 430.000000 lineto 202.000000 430.000000 lineto 209.000000 433.000000 lineto 219.000000 443.000000 lineto 222.000000 451.000000 lineto 222.000000 466.000000 lineto 217.000000 476.000000 lineto 217.000000 479.000000 lineto 215.000000 480.000000 lineto 215.000000 482.000000 lineto 213.000000 483.000000 lineto 213.000000 485.000000 lineto 211.000000 486.000000 lineto 207.000000 493.000000 lineto 203.000000 494.000000 lineto 202.000000 496.000000 lineto 198.000000 497.000000 lineto 197.000000 499.000000 lineto 188.000000 504.000000 lineto 176.000000 503.000000 lineto 166.000000 494.000000 lineto 159.000000 478.000000 lineto 159.000000 461.000000 lineto 48.000000 453.000000 moveto 48.000000 453.000000 lineto 61.000000 453.000000 lineto 67.000000 448.000000 lineto 72.000000 437.000000 lineto 73.000000 419.000000 lineto 56.000000 423.000000 lineto 46.000000 431.000000 lineto 42.000000 438.000000 lineto 42.000000 447.000000 lineto 48.000000 453.000000 lineto 47.000000 439.000000 moveto 47.000000 439.000000 lineto 57.000000 429.000000 lineto 69.000000 425.000000 lineto 64.000000 441.000000 lineto 58.000000 448.000000 lineto 50.000000 448.000000 lineto 48.000000 446.000000 lineto 47.000000 439.000000 lineto 925.000000 433.000000 moveto 925.000000 433.000000 lineto 932.000000 429.000000 lineto 933.000000 427.000000 lineto 935.000000 427.000000 lineto 936.000000 425.000000 lineto 938.000000 425.000000 lineto 944.000000 419.000000 lineto 951.000000 416.000000 lineto 969.000000 417.000000 lineto 973.000000 419.000000 lineto 979.000000 427.000000 lineto 979.000000 436.000000 lineto 977.000000 441.000000 lineto 971.000000 448.000000 lineto 962.000000 453.000000 lineto 958.000000 453.000000 lineto 955.000000 450.000000 lineto 939.000000 443.000000 lineto 925.000000 441.000000 lineto 925.000000 433.000000 lineto 1329.000000 432.000000 moveto 1329.000000 432.000000 lineto 1330.000000 438.000000 lineto 1324.000000 445.000000 lineto 1320.000000 447.000000 lineto 1312.000000 447.000000 lineto 1301.000000 442.000000 lineto 1275.000000 419.000000 lineto 1275.000000 417.000000 lineto 1266.000000 409.000000 lineto 1266.000000 407.000000 lineto 1262.000000 404.000000 lineto 1262.000000 402.000000 lineto 1256.000000 396.000000 lineto 1254.000000 391.000000 lineto 1251.000000 389.000000 lineto 1256.000000 398.000000 lineto 1258.000000 399.000000 lineto 1258.000000 401.000000 lineto 1260.000000 402.000000 lineto 1260.000000 404.000000 lineto 1262.000000 405.000000 lineto 1262.000000 407.000000 lineto 1264.000000 408.000000 lineto 1264.000000 410.000000 lineto 1266.000000 411.000000 lineto 1266.000000 413.000000 lineto 1268.000000 414.000000 lineto 1268.000000 416.000000 lineto 1270.000000 417.000000 lineto 1270.000000 419.000000 lineto 1272.000000 420.000000 lineto 1272.000000 422.000000 lineto 1274.000000 423.000000 lineto 1274.000000 425.000000 lineto 1276.000000 426.000000 lineto 1276.000000 428.000000 lineto 1267.000000 423.000000 lineto 1266.000000 421.000000 lineto 1264.000000 421.000000 lineto 1263.000000 419.000000 lineto 1261.000000 419.000000 lineto 1260.000000 417.000000 lineto 1258.000000 417.000000 lineto 1256.000000 414.000000 lineto 1254.000000 414.000000 lineto 1245.000000 406.000000 lineto 1243.000000 406.000000 lineto 1240.000000 402.000000 lineto 1238.000000 402.000000 lineto 1234.000000 397.000000 lineto 1232.000000 397.000000 lineto 1227.000000 391.000000 lineto 1225.000000 391.000000 lineto 1191.000000 357.000000 lineto 1191.000000 355.000000 lineto 1184.000000 349.000000 lineto 1184.000000 347.000000 lineto 1179.000000 343.000000 lineto 1179.000000 341.000000 lineto 1174.000000 337.000000 lineto 1174.000000 335.000000 lineto 1170.000000 332.000000 lineto 1167.000000 326.000000 lineto 1163.000000 323.000000 lineto 1160.000000 317.000000 lineto 1179.000000 311.000000 lineto 1201.000000 300.000000 lineto 1202.000000 298.000000 lineto 1206.000000 297.000000 lineto 1207.000000 295.000000 lineto 1221.000000 287.000000 lineto 1223.000000 284.000000 lineto 1225.000000 284.000000 lineto 1227.000000 281.000000 lineto 1229.000000 281.000000 lineto 1231.000000 278.000000 lineto 1233.000000 278.000000 lineto 1235.000000 275.000000 lineto 1237.000000 275.000000 lineto 1240.000000 271.000000 lineto 1242.000000 271.000000 lineto 1245.000000 267.000000 lineto 1249.000000 265.000000 lineto 1296.000000 340.000000 lineto 1296.000000 343.000000 lineto 1300.000000 349.000000 lineto 1300.000000 352.000000 lineto 1304.000000 358.000000 lineto 1304.000000 361.000000 lineto 1307.000000 365.000000 lineto 1307.000000 368.000000 lineto 1316.000000 387.000000 lineto 1318.000000 396.000000 lineto 1322.000000 404.000000 lineto 1325.000000 418.000000 lineto 1320.000000 416.000000 lineto 1311.000000 408.000000 lineto 1309.000000 408.000000 lineto 1306.000000 404.000000 lineto 1304.000000 404.000000 lineto 1290.000000 389.000000 lineto 1286.000000 387.000000 lineto 1286.000000 385.000000 lineto 1278.000000 377.000000 lineto 1277.000000 378.000000 lineto 1279.000000 379.000000 lineto 1280.000000 383.000000 lineto 1284.000000 386.000000 lineto 1284.000000 388.000000 lineto 1288.000000 391.000000 lineto 1288.000000 393.000000 lineto 1307.000000 412.000000 lineto 1309.000000 412.000000 lineto 1314.000000 418.000000 lineto 1316.000000 418.000000 lineto 1318.000000 421.000000 lineto 1324.000000 424.000000 lineto 1329.000000 429.000000 lineto 1329.000000 432.000000 lineto 440.000000 428.000000 moveto 440.000000 428.000000 lineto 440.000000 461.000000 lineto 435.000000 471.000000 lineto 433.000000 471.000000 lineto 432.000000 467.000000 lineto 430.000000 466.000000 lineto 429.000000 462.000000 lineto 427.000000 461.000000 lineto 426.000000 457.000000 lineto 424.000000 456.000000 lineto 424.000000 454.000000 lineto 422.000000 453.000000 lineto 421.000000 449.000000 lineto 419.000000 448.000000 lineto 418.000000 444.000000 lineto 415.000000 441.000000 lineto 414.000000 416.000000 lineto 408.000000 388.000000 lineto 424.000000 388.000000 lineto 432.000000 395.000000 lineto 436.000000 405.000000 lineto 428.000000 406.000000 lineto 426.000000 408.000000 lineto 429.000000 410.000000 lineto 437.000000 409.000000 lineto 439.000000 416.000000 lineto 428.000000 416.000000 lineto 428.000000 419.000000 lineto 439.000000 420.000000 lineto 440.000000 428.000000 lineto 409.000000 422.000000 moveto 409.000000 422.000000 lineto 410.000000 441.000000 lineto 407.000000 446.000000 lineto 405.000000 446.000000 lineto 404.000000 448.000000 lineto 402.000000 448.000000 lineto 397.000000 453.000000 lineto 387.000000 458.000000 lineto 383.000000 462.000000 lineto 379.000000 463.000000 lineto 378.000000 465.000000 lineto 361.000000 473.000000 lineto 354.000000 474.000000 lineto 335.000000 455.000000 lineto 335.000000 453.000000 lineto 329.000000 446.000000 lineto 328.000000 442.000000 lineto 326.000000 441.000000 lineto 320.000000 426.000000 lineto 317.000000 411.000000 lineto 317.000000 402.000000 lineto 343.000000 408.000000 lineto 349.000000 408.000000 lineto 349.000000 405.000000 lineto 318.000000 397.000000 lineto 317.000000 388.000000 lineto 320.000000 387.000000 lineto 321.000000 385.000000 lineto 324.000000 385.000000 lineto 338.000000 393.000000 lineto 351.000000 397.000000 lineto 354.000000 394.000000 lineto 328.000000 382.000000 lineto 328.000000 380.000000 lineto 336.000000 375.000000 lineto 357.000000 370.000000 lineto 369.000000 370.000000 lineto 383.000000 373.000000 lineto 385.000000 375.000000 lineto 392.000000 377.000000 lineto 393.000000 379.000000 lineto 400.000000 382.000000 lineto 403.000000 386.000000 lineto 405.000000 386.000000 lineto 409.000000 412.000000 lineto 409.000000 422.000000 lineto 298.000000 389.000000 moveto 298.000000 389.000000 lineto 313.000000 388.000000 lineto 313.000000 395.000000 lineto 300.000000 391.000000 lineto 298.000000 389.000000 lineto 314.000000 381.000000 moveto 314.000000 381.000000 lineto 314.000000 383.000000 lineto 299.000000 383.000000 lineto 285.000000 385.000000 lineto 257.000000 372.000000 lineto 256.000000 370.000000 lineto 246.000000 366.000000 lineto 245.000000 364.000000 lineto 239.000000 362.000000 lineto 238.000000 360.000000 lineto 234.000000 359.000000 lineto 231.000000 356.000000 lineto 256.000000 359.000000 lineto 275.000000 356.000000 lineto 285.000000 364.000000 lineto 289.000000 365.000000 lineto 293.000000 369.000000 lineto 297.000000 370.000000 lineto 298.000000 372.000000 lineto 302.000000 373.000000 lineto 303.000000 375.000000 lineto 309.000000 377.000000 lineto 314.000000 381.000000 lineto 421.000000 379.000000 moveto 421.000000 379.000000 lineto 422.000000 382.000000 lineto 406.000000 381.000000 lineto 388.000000 370.000000 lineto 368.000000 365.000000 lineto 344.000000 366.000000 lineto 334.000000 369.000000 lineto 324.000000 374.000000 lineto 322.000000 377.000000 lineto 319.000000 377.000000 lineto 317.000000 376.000000 lineto 316.000000 373.000000 lineto 318.000000 350.000000 lineto 325.000000 335.000000 lineto 340.000000 318.000000 lineto 354.000000 311.000000 lineto 373.000000 310.000000 lineto 390.000000 319.000000 lineto 404.000000 334.000000 lineto 415.000000 355.000000 lineto 421.000000 374.000000 lineto 421.000000 379.000000 lineto 285.000000 354.000000 moveto 285.000000 354.000000 lineto 315.000000 343.000000 lineto 314.000000 373.000000 lineto 302.000000 367.000000 lineto 301.000000 365.000000 lineto 287.000000 357.000000 lineto 285.000000 354.000000 lineto 260.000000 345.000000 moveto 260.000000 345.000000 lineto 261.000000 346.000000 lineto 251.000000 347.000000 lineto 253.000000 340.000000 lineto 255.000000 340.000000 lineto 260.000000 345.000000 lineto 243.000000 331.000000 moveto 243.000000 331.000000 lineto 244.000000 333.000000 lineto 241.000000 339.000000 lineto 240.000000 347.000000 lineto 232.000000 348.000000 lineto 213.000000 345.000000 lineto 205.000000 338.000000 lineto 203.000000 338.000000 lineto 201.000000 335.000000 lineto 199.000000 335.000000 lineto 197.000000 332.000000 lineto 195.000000 332.000000 lineto 193.000000 328.000000 lineto 200.000000 324.000000 lineto 205.000000 319.000000 lineto 207.000000 319.000000 lineto 209.000000 316.000000 lineto 214.000000 314.000000 lineto 221.000000 307.000000 lineto 224.000000 310.000000 lineto 224.000000 312.000000 lineto 243.000000 331.000000 lineto 755.000000 331.000000 moveto 755.000000 331.000000 lineto 756.000000 332.000000 lineto 755.000000 331.000000 lineto 754.000000 329.000000 moveto 754.000000 329.000000 lineto 755.000000 331.000000 lineto 751.000000 330.000000 lineto 750.000000 328.000000 lineto 746.000000 327.000000 lineto 745.000000 325.000000 lineto 726.000000 315.000000 lineto 722.000000 311.000000 lineto 718.000000 310.000000 lineto 714.000000 306.000000 lineto 710.000000 305.000000 lineto 709.000000 303.000000 lineto 705.000000 302.000000 lineto 704.000000 300.000000 lineto 697.000000 297.000000 lineto 693.000000 293.000000 lineto 689.000000 292.000000 lineto 688.000000 290.000000 lineto 686.000000 290.000000 lineto 679.000000 284.000000 lineto 675.000000 283.000000 lineto 665.000000 275.000000 lineto 661.000000 274.000000 lineto 660.000000 272.000000 lineto 658.000000 272.000000 lineto 657.000000 270.000000 lineto 655.000000 270.000000 lineto 654.000000 268.000000 lineto 652.000000 268.000000 lineto 651.000000 266.000000 lineto 637.000000 258.000000 lineto 636.000000 256.000000 lineto 627.000000 252.000000 lineto 626.000000 250.000000 lineto 594.000000 234.000000 lineto 581.000000 231.000000 lineto 571.000000 231.000000 lineto 543.000000 227.000000 lineto 541.000000 228.000000 lineto 534.000000 226.000000 lineto 524.000000 226.000000 lineto 515.000000 224.000000 lineto 513.000000 225.000000 lineto 487.000000 221.000000 lineto 402.000000 213.000000 lineto 400.000000 211.000000 lineto 409.000000 208.000000 lineto 415.000000 204.000000 lineto 418.000000 204.000000 lineto 420.000000 202.000000 lineto 423.000000 202.000000 lineto 427.000000 199.000000 lineto 449.000000 192.000000 lineto 451.000000 190.000000 lineto 472.000000 183.000000 lineto 476.000000 183.000000 lineto 482.000000 180.000000 lineto 486.000000 180.000000 lineto 492.000000 177.000000 lineto 500.000000 176.000000 lineto 503.000000 174.000000 lineto 524.000000 175.000000 lineto 534.000000 177.000000 lineto 536.000000 176.000000 lineto 544.000000 178.000000 lineto 555.000000 178.000000 lineto 586.000000 182.000000 lineto 615.000000 180.000000 lineto 633.000000 175.000000 lineto 637.000000 179.000000 lineto 637.000000 181.000000 lineto 647.000000 190.000000 lineto 647.000000 192.000000 lineto 654.000000 198.000000 lineto 654.000000 200.000000 lineto 660.000000 205.000000 lineto 660.000000 207.000000 lineto 665.000000 211.000000 lineto 665.000000 213.000000 lineto 670.000000 217.000000 lineto 670.000000 219.000000 lineto 675.000000 223.000000 lineto 675.000000 225.000000 lineto 679.000000 228.000000 lineto 679.000000 230.000000 lineto 683.000000 233.000000 lineto 687.000000 240.000000 lineto 691.000000 243.000000 lineto 691.000000 245.000000 lineto 701.000000 256.000000 lineto 701.000000 258.000000 lineto 704.000000 260.000000 lineto 704.000000 262.000000 lineto 707.000000 264.000000 lineto 707.000000 266.000000 lineto 710.000000 268.000000 lineto 710.000000 270.000000 lineto 713.000000 272.000000 lineto 713.000000 274.000000 lineto 716.000000 276.000000 lineto 719.000000 282.000000 lineto 726.000000 289.000000 lineto 728.000000 294.000000 lineto 734.000000 300.000000 lineto 736.000000 305.000000 lineto 739.000000 307.000000 lineto 739.000000 309.000000 lineto 742.000000 311.000000 lineto 742.000000 313.000000 lineto 754.000000 329.000000 lineto 866.000000 328.000000 moveto 866.000000 328.000000 lineto 875.000000 318.000000 lineto 878.000000 312.000000 lineto 882.000000 309.000000 lineto 885.000000 303.000000 lineto 889.000000 300.000000 lineto 889.000000 298.000000 lineto 892.000000 297.000000 lineto 903.000000 275.000000 lineto 905.000000 274.000000 lineto 908.000000 266.000000 lineto 910.000000 265.000000 lineto 920.000000 243.000000 lineto 922.000000 242.000000 lineto 935.000000 216.000000 lineto 935.000000 213.000000 lineto 944.000000 197.000000 lineto 944.000000 194.000000 lineto 950.000000 184.000000 lineto 954.000000 172.000000 lineto 959.000000 164.000000 lineto 959.000000 161.000000 lineto 962.000000 157.000000 lineto 962.000000 154.000000 lineto 974.000000 129.000000 lineto 976.000000 121.000000 lineto 985.000000 103.000000 lineto 987.000000 95.000000 lineto 999.000000 70.000000 lineto 999.000000 67.000000 lineto 1010.000000 44.000000 lineto 1010.000000 41.000000 lineto 1014.000000 33.000000 lineto 1017.000000 31.000000 lineto 1017.000000 29.000000 lineto 1024.000000 23.000000 lineto 1037.000000 18.000000 lineto 1050.000000 18.000000 lineto 1062.000000 16.000000 lineto 1141.000000 15.000000 lineto 1204.000000 20.000000 lineto 1247.000000 29.000000 lineto 1247.000000 31.000000 lineto 1225.000000 51.000000 lineto 1223.000000 51.000000 lineto 1221.000000 54.000000 lineto 1219.000000 54.000000 lineto 1209.000000 62.000000 lineto 1195.000000 69.000000 lineto 1202.000000 68.000000 lineto 1210.000000 64.000000 lineto 1211.000000 62.000000 lineto 1217.000000 60.000000 lineto 1221.000000 56.000000 lineto 1225.000000 55.000000 lineto 1226.000000 53.000000 lineto 1234.000000 49.000000 lineto 1236.000000 46.000000 lineto 1238.000000 46.000000 lineto 1241.000000 42.000000 lineto 1243.000000 42.000000 lineto 1254.000000 31.000000 lineto 1290.000000 38.000000 lineto 1281.000000 47.000000 lineto 1279.000000 47.000000 lineto 1276.000000 51.000000 lineto 1274.000000 51.000000 lineto 1264.000000 60.000000 lineto 1252.000000 66.000000 lineto 1251.000000 68.000000 lineto 1234.000000 75.000000 lineto 1233.000000 77.000000 lineto 1241.000000 76.000000 lineto 1264.000000 65.000000 lineto 1265.000000 63.000000 lineto 1271.000000 61.000000 lineto 1272.000000 59.000000 lineto 1283.000000 53.000000 lineto 1296.000000 41.000000 lineto 1305.000000 42.000000 lineto 1312.000000 47.000000 lineto 1305.000000 55.000000 lineto 1303.000000 55.000000 lineto 1293.000000 64.000000 lineto 1289.000000 65.000000 lineto 1285.000000 69.000000 lineto 1266.000000 79.000000 lineto 1232.000000 91.000000 lineto 1199.000000 98.000000 lineto 1180.000000 100.000000 lineto 1136.000000 100.000000 lineto 1092.000000 96.000000 lineto 1053.000000 90.000000 lineto 1049.000000 98.000000 lineto 1047.000000 99.000000 lineto 1046.000000 103.000000 lineto 1042.000000 107.000000 lineto 1041.000000 111.000000 lineto 1037.000000 115.000000 lineto 1036.000000 119.000000 lineto 1034.000000 120.000000 lineto 1033.000000 124.000000 lineto 1029.000000 128.000000 lineto 1028.000000 132.000000 lineto 1026.000000 133.000000 lineto 1025.000000 137.000000 lineto 1021.000000 141.000000 lineto 1020.000000 145.000000 lineto 1016.000000 149.000000 lineto 1012.000000 158.000000 lineto 1008.000000 162.000000 lineto 1004.000000 171.000000 lineto 995.000000 183.000000 lineto 991.000000 192.000000 lineto 982.000000 204.000000 lineto 978.000000 213.000000 lineto 974.000000 217.000000 lineto 970.000000 226.000000 lineto 966.000000 230.000000 lineto 965.000000 234.000000 lineto 963.000000 235.000000 lineto 962.000000 239.000000 lineto 960.000000 240.000000 lineto 959.000000 244.000000 lineto 957.000000 245.000000 lineto 947.000000 264.000000 lineto 945.000000 265.000000 lineto 912.000000 329.000000 lineto 912.000000 332.000000 lineto 907.000000 340.000000 lineto 907.000000 343.000000 lineto 895.000000 368.000000 lineto 888.000000 376.000000 lineto 888.000000 378.000000 lineto 879.000000 384.000000 lineto 875.000000 384.000000 lineto 871.000000 380.000000 lineto 869.000000 380.000000 lineto 865.000000 373.000000 lineto 849.000000 355.000000 lineto 849.000000 353.000000 lineto 843.000000 347.000000 lineto 841.000000 342.000000 lineto 838.000000 340.000000 lineto 834.000000 332.000000 lineto 831.000000 330.000000 lineto 831.000000 328.000000 lineto 821.000000 315.000000 lineto 820.000000 311.000000 lineto 811.000000 299.000000 lineto 806.000000 288.000000 lineto 804.000000 287.000000 lineto 792.000000 263.000000 lineto 790.000000 262.000000 lineto 762.000000 205.000000 lineto 762.000000 202.000000 lineto 758.000000 196.000000 lineto 758.000000 193.000000 lineto 746.000000 168.000000 lineto 746.000000 165.000000 lineto 744.000000 163.000000 lineto 744.000000 160.000000 lineto 742.000000 158.000000 lineto 734.000000 135.000000 lineto 740.000000 141.000000 lineto 740.000000 143.000000 lineto 745.000000 148.000000 lineto 747.000000 153.000000 lineto 750.000000 155.000000 lineto 752.000000 160.000000 lineto 758.000000 166.000000 lineto 758.000000 168.000000 lineto 763.000000 173.000000 lineto 765.000000 178.000000 lineto 771.000000 184.000000 lineto 773.000000 189.000000 lineto 779.000000 195.000000 lineto 781.000000 200.000000 lineto 784.000000 202.000000 lineto 784.000000 204.000000 lineto 787.000000 206.000000 lineto 787.000000 208.000000 lineto 790.000000 210.000000 lineto 790.000000 212.000000 lineto 793.000000 214.000000 lineto 793.000000 216.000000 lineto 796.000000 218.000000 lineto 796.000000 220.000000 lineto 799.000000 222.000000 lineto 799.000000 224.000000 lineto 802.000000 226.000000 lineto 802.000000 228.000000 lineto 805.000000 230.000000 lineto 805.000000 232.000000 lineto 808.000000 234.000000 lineto 808.000000 236.000000 lineto 811.000000 238.000000 lineto 811.000000 240.000000 lineto 814.000000 242.000000 lineto 814.000000 244.000000 lineto 817.000000 246.000000 lineto 817.000000 248.000000 lineto 820.000000 250.000000 lineto 823.000000 256.000000 lineto 827.000000 259.000000 lineto 827.000000 261.000000 lineto 830.000000 263.000000 lineto 830.000000 265.000000 lineto 833.000000 267.000000 lineto 836.000000 273.000000 lineto 840.000000 276.000000 lineto 840.000000 278.000000 lineto 843.000000 280.000000 lineto 846.000000 286.000000 lineto 850.000000 289.000000 lineto 853.000000 295.000000 lineto 857.000000 298.000000 lineto 860.000000 304.000000 lineto 867.000000 311.000000 lineto 869.000000 315.000000 lineto 866.000000 328.000000 lineto 926.000000 325.000000 moveto 926.000000 325.000000 lineto 927.000000 326.000000 lineto 926.000000 325.000000 lineto 927.000000 323.000000 moveto 927.000000 323.000000 lineto 941.000000 295.000000 lineto 943.000000 294.000000 lineto 950.000000 278.000000 lineto 952.000000 277.000000 lineto 957.000000 265.000000 lineto 959.000000 264.000000 lineto 963.000000 254.000000 lineto 968.000000 248.000000 lineto 970.000000 242.000000 lineto 972.000000 241.000000 lineto 979.000000 227.000000 lineto 985.000000 220.000000 lineto 986.000000 216.000000 lineto 995.000000 205.000000 lineto 1006.000000 216.000000 lineto 1006.000000 218.000000 lineto 1022.000000 233.000000 lineto 1022.000000 235.000000 lineto 1039.000000 251.000000 lineto 1041.000000 255.000000 lineto 1033.000000 259.000000 lineto 1029.000000 263.000000 lineto 1025.000000 264.000000 lineto 1021.000000 268.000000 lineto 1017.000000 269.000000 lineto 1013.000000 273.000000 lineto 1009.000000 274.000000 lineto 1005.000000 278.000000 lineto 996.000000 282.000000 lineto 992.000000 286.000000 lineto 988.000000 287.000000 lineto 984.000000 291.000000 lineto 980.000000 292.000000 lineto 976.000000 296.000000 lineto 972.000000 297.000000 lineto 968.000000 301.000000 lineto 964.000000 302.000000 lineto 960.000000 306.000000 lineto 956.000000 307.000000 lineto 952.000000 311.000000 lineto 948.000000 312.000000 lineto 944.000000 316.000000 lineto 930.000000 323.000000 lineto 929.000000 325.000000 lineto 927.000000 325.000000 lineto 927.000000 323.000000 lineto 91.000000 303.000000 moveto 91.000000 303.000000 lineto 92.000000 302.000000 lineto 91.000000 303.000000 lineto 1097.000000 299.000000 moveto 1097.000000 299.000000 lineto 1121.000000 285.000000 lineto 1133.000000 283.000000 lineto 1153.000000 276.000000 lineto 1188.000000 258.000000 lineto 1189.000000 256.000000 lineto 1191.000000 256.000000 lineto 1192.000000 254.000000 lineto 1206.000000 246.000000 lineto 1208.000000 243.000000 lineto 1213.000000 241.000000 lineto 1219.000000 235.000000 lineto 1221.000000 235.000000 lineto 1229.000000 227.000000 lineto 1235.000000 224.000000 lineto 1238.000000 220.000000 lineto 1244.000000 217.000000 lineto 1247.000000 213.000000 lineto 1253.000000 210.000000 lineto 1256.000000 206.000000 lineto 1262.000000 203.000000 lineto 1265.000000 199.000000 lineto 1271.000000 196.000000 lineto 1274.000000 192.000000 lineto 1280.000000 189.000000 lineto 1283.000000 185.000000 lineto 1289.000000 182.000000 lineto 1292.000000 178.000000 lineto 1298.000000 175.000000 lineto 1301.000000 171.000000 lineto 1307.000000 168.000000 lineto 1310.000000 164.000000 lineto 1316.000000 161.000000 lineto 1328.000000 150.000000 lineto 1360.000000 134.000000 lineto 1405.000000 119.000000 lineto 1417.000000 117.000000 lineto 1439.000000 117.000000 lineto 1455.000000 119.000000 lineto 1475.000000 124.000000 lineto 1484.000000 129.000000 lineto 1489.000000 135.000000 lineto 1490.000000 141.000000 lineto 1487.000000 150.000000 lineto 1477.000000 150.000000 lineto 1470.000000 147.000000 lineto 1442.000000 142.000000 lineto 1413.000000 142.000000 lineto 1393.000000 146.000000 lineto 1364.000000 160.000000 lineto 1363.000000 162.000000 lineto 1353.000000 166.000000 lineto 1352.000000 168.000000 lineto 1343.000000 172.000000 lineto 1339.000000 176.000000 lineto 1335.000000 177.000000 lineto 1334.000000 179.000000 lineto 1320.000000 187.000000 lineto 1318.000000 190.000000 lineto 1313.000000 192.000000 lineto 1303.000000 201.000000 lineto 1301.000000 201.000000 lineto 1287.000000 214.000000 lineto 1285.000000 214.000000 lineto 1280.000000 220.000000 lineto 1278.000000 220.000000 lineto 1270.000000 229.000000 lineto 1268.000000 229.000000 lineto 1238.000000 260.000000 lineto 1236.000000 260.000000 lineto 1234.000000 263.000000 lineto 1228.000000 266.000000 lineto 1225.000000 270.000000 lineto 1223.000000 270.000000 lineto 1221.000000 273.000000 lineto 1215.000000 276.000000 lineto 1212.000000 280.000000 lineto 1210.000000 280.000000 lineto 1208.000000 283.000000 lineto 1202.000000 286.000000 lineto 1191.000000 296.000000 lineto 1181.000000 301.000000 lineto 1163.000000 307.000000 lineto 1148.000000 310.000000 lineto 1124.000000 310.000000 lineto 1108.000000 306.000000 lineto 1098.000000 301.000000 lineto 1097.000000 299.000000 lineto 1130.000000 278.000000 moveto 1130.000000 278.000000 lineto 1131.000000 279.000000 lineto 1130.000000 278.000000 lineto 216.000000 272.000000 moveto 216.000000 272.000000 lineto 236.000000 273.000000 lineto 227.000000 282.000000 lineto 221.000000 284.000000 lineto 216.000000 275.000000 lineto 216.000000 272.000000 lineto 286.000000 240.000000 moveto 286.000000 240.000000 lineto 292.000000 229.000000 lineto 308.000000 212.000000 lineto 310.000000 212.000000 lineto 320.000000 202.000000 lineto 322.000000 202.000000 lineto 325.000000 198.000000 lineto 327.000000 198.000000 lineto 329.000000 195.000000 lineto 331.000000 195.000000 lineto 345.000000 183.000000 lineto 347.000000 183.000000 lineto 348.000000 181.000000 lineto 350.000000 181.000000 lineto 355.000000 176.000000 lineto 365.000000 171.000000 lineto 375.000000 163.000000 lineto 381.000000 161.000000 lineto 382.000000 159.000000 lineto 393.000000 154.000000 lineto 394.000000 152.000000 lineto 427.000000 136.000000 lineto 430.000000 136.000000 lineto 447.000000 128.000000 lineto 481.000000 118.000000 lineto 501.000000 114.000000 lineto 528.000000 111.000000 lineto 563.000000 111.000000 lineto 582.000000 113.000000 lineto 590.000000 121.000000 lineto 590.000000 123.000000 lineto 597.000000 129.000000 lineto 597.000000 131.000000 lineto 603.000000 136.000000 lineto 603.000000 138.000000 lineto 609.000000 143.000000 lineto 609.000000 145.000000 lineto 616.000000 151.000000 lineto 616.000000 153.000000 lineto 622.000000 158.000000 lineto 622.000000 160.000000 lineto 627.000000 164.000000 lineto 627.000000 166.000000 lineto 625.000000 167.000000 lineto 610.000000 170.000000 lineto 551.000000 171.000000 lineto 519.000000 169.000000 lineto 477.000000 163.000000 lineto 487.000000 169.000000 lineto 456.000000 178.000000 lineto 454.000000 180.000000 lineto 445.000000 182.000000 lineto 441.000000 185.000000 lineto 426.000000 190.000000 lineto 318.000000 245.000000 lineto 315.000000 245.000000 lineto 310.000000 248.000000 lineto 287.000000 247.000000 lineto 286.000000 240.000000 lineto 1068.000000 234.000000 moveto 1068.000000 234.000000 lineto 1069.000000 236.000000 lineto 1067.000000 236.000000 lineto 1066.000000 238.000000 lineto 1064.000000 238.000000 lineto 1063.000000 240.000000 lineto 1049.000000 248.000000 lineto 1044.000000 243.000000 lineto 1044.000000 241.000000 lineto 1035.000000 233.000000 lineto 1035.000000 231.000000 lineto 1027.000000 224.000000 lineto 1027.000000 222.000000 lineto 1018.000000 214.000000 lineto 1018.000000 212.000000 lineto 1010.000000 205.000000 lineto 1010.000000 203.000000 lineto 1001.000000 195.000000 lineto 1000.000000 192.000000 lineto 1004.000000 187.000000 lineto 1009.000000 175.000000 lineto 1011.000000 175.000000 lineto 1068.000000 234.000000 lineto 946.000000 156.000000 moveto 946.000000 156.000000 lineto 947.000000 157.000000 lineto 945.000000 159.000000 lineto 944.000000 165.000000 lineto 942.000000 167.000000 lineto 934.000000 190.000000 lineto 929.000000 198.000000 lineto 929.000000 201.000000 lineto 923.000000 211.000000 lineto 923.000000 214.000000 lineto 906.000000 248.000000 lineto 904.000000 249.000000 lineto 897.000000 265.000000 lineto 891.000000 273.000000 lineto 879.000000 297.000000 lineto 877.000000 298.000000 lineto 877.000000 300.000000 lineto 875.000000 300.000000 lineto 872.000000 297.000000 lineto 872.000000 295.000000 lineto 867.000000 291.000000 lineto 867.000000 289.000000 lineto 861.000000 284.000000 lineto 861.000000 282.000000 lineto 856.000000 278.000000 lineto 856.000000 276.000000 lineto 852.000000 273.000000 lineto 852.000000 271.000000 lineto 847.000000 267.000000 lineto 847.000000 265.000000 lineto 843.000000 262.000000 lineto 843.000000 260.000000 lineto 839.000000 257.000000 lineto 839.000000 255.000000 lineto 835.000000 252.000000 lineto 831.000000 245.000000 lineto 827.000000 242.000000 lineto 824.000000 236.000000 lineto 820.000000 233.000000 lineto 820.000000 231.000000 lineto 817.000000 229.000000 lineto 814.000000 223.000000 lineto 810.000000 220.000000 lineto 810.000000 218.000000 lineto 807.000000 216.000000 lineto 807.000000 214.000000 lineto 804.000000 212.000000 lineto 804.000000 210.000000 lineto 801.000000 208.000000 lineto 801.000000 206.000000 lineto 798.000000 204.000000 lineto 798.000000 202.000000 lineto 786.000000 188.000000 lineto 784.000000 183.000000 lineto 781.000000 181.000000 lineto 781.000000 179.000000 lineto 773.000000 170.000000 lineto 771.000000 165.000000 lineto 768.000000 163.000000 lineto 768.000000 161.000000 lineto 761.000000 153.000000 lineto 757.000000 145.000000 lineto 754.000000 143.000000 lineto 754.000000 141.000000 lineto 752.000000 140.000000 lineto 748.000000 132.000000 lineto 745.000000 130.000000 lineto 745.000000 128.000000 lineto 743.000000 127.000000 lineto 743.000000 125.000000 lineto 741.000000 124.000000 lineto 741.000000 122.000000 lineto 739.000000 121.000000 lineto 739.000000 119.000000 lineto 737.000000 118.000000 lineto 737.000000 116.000000 lineto 735.000000 115.000000 lineto 735.000000 113.000000 lineto 733.000000 112.000000 lineto 733.000000 110.000000 lineto 731.000000 109.000000 lineto 723.000000 95.000000 lineto 720.000000 93.000000 lineto 712.000000 79.000000 lineto 709.000000 77.000000 lineto 703.000000 66.000000 lineto 700.000000 64.000000 lineto 700.000000 62.000000 lineto 739.000000 61.000000 lineto 772.000000 64.000000 lineto 804.000000 70.000000 lineto 836.000000 80.000000 lineto 873.000000 97.000000 lineto 874.000000 99.000000 lineto 880.000000 101.000000 lineto 881.000000 103.000000 lineto 885.000000 104.000000 lineto 886.000000 106.000000 lineto 900.000000 114.000000 lineto 902.000000 117.000000 lineto 904.000000 117.000000 lineto 910.000000 123.000000 lineto 912.000000 123.000000 lineto 915.000000 127.000000 lineto 917.000000 127.000000 lineto 921.000000 132.000000 lineto 923.000000 132.000000 lineto 933.000000 143.000000 lineto 937.000000 145.000000 lineto 937.000000 147.000000 lineto 946.000000 156.000000 lineto 961.000000 125.000000 moveto 961.000000 125.000000 lineto 962.000000 126.000000 lineto 955.000000 139.000000 lineto 955.000000 142.000000 lineto 953.000000 146.000000 lineto 951.000000 146.000000 lineto 931.000000 126.000000 lineto 929.000000 126.000000 lineto 924.000000 120.000000 lineto 922.000000 120.000000 lineto 919.000000 116.000000 lineto 917.000000 116.000000 lineto 910.000000 109.000000 lineto 902.000000 105.000000 lineto 900.000000 102.000000 lineto 890.000000 97.000000 lineto 886.000000 93.000000 lineto 882.000000 92.000000 lineto 881.000000 90.000000 lineto 873.000000 87.000000 lineto 872.000000 85.000000 lineto 849.000000 74.000000 lineto 846.000000 74.000000 lineto 842.000000 71.000000 lineto 805.000000 59.000000 lineto 767.000000 52.000000 lineto 743.000000 50.000000 lineto 691.000000 51.000000 lineto 685.000000 45.000000 lineto 685.000000 43.000000 lineto 676.000000 35.000000 lineto 676.000000 33.000000 lineto 716.000000 28.000000 lineto 755.000000 28.000000 lineto 796.000000 33.000000 lineto 828.000000 41.000000 lineto 840.000000 45.000000 lineto 842.000000 47.000000 lineto 851.000000 49.000000 lineto 864.000000 56.000000 lineto 867.000000 56.000000 lineto 872.000000 60.000000 lineto 898.000000 73.000000 lineto 899.000000 75.000000 lineto 901.000000 75.000000 lineto 902.000000 77.000000 lineto 916.000000 85.000000 lineto 918.000000 88.000000 lineto 920.000000 88.000000 lineto 931.000000 98.000000 lineto 933.000000 98.000000 lineto 938.000000 104.000000 lineto 940.000000 104.000000 lineto 945.000000 110.000000 lineto 947.000000 110.000000 lineto 961.000000 125.000000 lineto 
fill 
showpage
