%!PS-Adobe-3.0 EPSF-3.0
%%BoundingBox: 0 0 20 9
8.000000 8.000000 moveto 8.000000 8.000000 lineto 12.000000 6.000000 lineto 10.000000 3.000000 lineto 6.000000 5.000000 lineto 8.000000 8.000000 lineto 
fill 
showpage
